<svg width="70" height="70" viewBox="0 0 70 70" fill="none" xmlns="http://www.w3.org/2000/svg">
<path d="M19.1589 17.9445L19.1588 17.9445L19.1602 17.9508L19.5766 19.9001L19.6189 20.0979H19.8211H58.5502C59.3671 20.0979 59.927 20.7851 59.6979 21.5894L59.6977 21.5894L59.6957 21.5978L53.8656 45.1281C53.8655 45.1282 53.8655 45.1283 53.8655 45.1283C53.7494 45.5936 53.28 46.0525 52.72 46.0525H23.4302C22.8725 46.0525 22.4045 45.5972 22.2861 45.1338L17.0125 18.4071L17.0104 18.397L17.0076 18.387C16.7009 17.3101 15.7736 16.5347 14.5462 16.5347H11.3534C10.9726 16.5347 10.7041 16.3905 10.5275 16.1861C10.3465 15.9766 10.25 15.689 10.25 15.3923C10.25 15.0956 10.3465 14.8081 10.5275 14.5986C10.7041 14.3942 10.9726 14.25 11.3534 14.25H14.5462C16.793 14.25 18.7659 15.8421 19.1589 17.9445ZM20.3763 22.3826H20.0716L20.1312 22.6814L24.2956 43.5667L24.3357 43.7678H24.5408H51.7483H51.9443L51.9911 43.5775L57.1272 22.6923L57.2033 22.3826H56.8844H20.3763Z" fill="#333333" stroke="white" stroke-width="0.5"/>
<path d="M28.4275 47.3879C30.7975 47.3879 32.7584 49.2345 32.7584 51.5935C32.7584 53.9623 30.7874 55.9382 28.4275 55.9382C26.0677 55.9382 24.0967 53.9623 24.0967 51.5935C24.0967 49.2345 26.0576 47.3879 28.4275 47.3879ZM28.4275 49.6726C27.3439 49.6726 26.373 50.456 26.373 51.5935C26.373 52.7055 27.3171 53.6535 28.4275 53.6535C29.538 53.6535 30.4821 52.7055 30.4821 51.5935C30.4821 50.456 29.5112 49.6726 28.4275 49.6726Z" fill="#333333" stroke="white" stroke-width="0.5"/>
<path d="M47.444 47.3879C49.814 47.3879 51.7749 49.2345 51.7749 51.5935C51.7749 53.9623 49.8039 55.9382 47.444 55.9382C45.094 55.9382 43.252 53.9725 43.252 51.5935C43.252 49.2246 45.0841 47.3879 47.444 47.3879ZM47.444 49.6726C46.3335 49.6726 45.5282 50.4815 45.5282 51.5935C45.5282 52.6785 46.3081 53.6535 47.444 53.6535C48.5545 53.6535 49.4986 52.7055 49.4986 51.5935C49.4986 50.456 48.5276 49.6726 47.444 49.6726Z" fill="#333333" stroke="white" stroke-width="0.5"/>
<path d="M44.3 28.5H42.34C42.69 28.15 42.9 27.66 42.9 27.1C42.9 25.91 41.99 25 40.8 25C40.1 25 38.84 25.63 38 26.47C37.16 25.63 35.9 25 35.2 25C34.01 25 33.1 25.91 33.1 27.1C33.1 27.66 33.31 28.15 33.66 28.5H31.7C31.28 28.5 31 28.78 31 29.2V31.16C31 31.23 31.07 31.3 31.14 31.3H37.02C37.16 31.3 37.3 31.16 37.3 31.02V28.78C37.3 28.64 37.44 28.5 37.58 28.5H38.42C38.56 28.5 38.7 28.64 38.7 28.78V31.02C38.7 31.16 38.84 31.3 38.98 31.3H44.86C44.93 31.3 45 31.23 45 31.16V29.2C45 28.78 44.72 28.5 44.3 28.5ZM35.2 27.8C34.78 27.8 34.5 27.52 34.5 27.1C34.5 26.68 34.78 26.4 35.2 26.4C35.62 26.4 36.88 27.24 37.23 27.66C37.02 27.73 35.2 27.8 35.2 27.8ZM40.8 27.8C40.8 27.8 38.98 27.73 38.77 27.66C39.19 27.17 40.38 26.4 40.8 26.4C41.22 26.4 41.5 26.68 41.5 27.1C41.5 27.52 41.22 27.8 40.8 27.8Z" fill="#FF7400"/>
<path d="M37.0202 32.7H31.8402C31.7702 32.7 31.7002 32.77 31.7002 32.84V38.3C31.7002 38.72 31.9802 39 32.4002 39H37.0202C37.1602 39 37.3002 38.86 37.3002 38.72V32.98C37.3002 32.84 37.1602 32.7 37.0202 32.7Z" fill="#FF7400"/>
<path d="M44.1602 32.7H38.9802C38.8402 32.7 38.7002 32.84 38.7002 32.98V38.72C38.7002 38.86 38.8402 39 38.9802 39H43.6002C44.0202 39 44.3002 38.72 44.3002 38.3V32.84C44.3002 32.77 44.2302 32.7 44.1602 32.7Z" fill="#FF7400"/>
</svg>
