<?xml version="1.0" encoding="utf-8"?>
<!-- Generator: Adobe Illustrator 24.1.3, SVG Export Plug-In . SVG Version: 6.00 Build 0)  -->
<svg version="1.1" id="Layer_1" xmlns="http://www.w3.org/2000/svg" xmlns:xlink="http://www.w3.org/1999/xlink" x="0px" y="0px"
	 viewBox="0 0 604 400" style="enable-background:new 0 0 604 400;" xml:space="preserve">
<style type="text/css">
	.st0{fill:#ED985F;}
	.st1{fill:#F5E9E1;}
	.st2{fill:#233824;}
	.st3{fill:#1B1464;}
	.st4{fill:#FC7575;}
	.st5{display:none;fill:#FD5E5A;}
	.st6{fill:#BDBDBD;}
	.st7{fill:#FBB03B;}
	.st8{fill:#FFE696;}
	.st9{fill:#72797A;}
	.st10{fill:#21420C;}
	.st11{fill:#653870;}
	.st12{fill:#552E5D;}
	.st13{fill:#9C5E2A;}
	.st14{fill:#333333;}
	.st15{fill:#535683;}
	.st16{display:none;}
	.st17{display:inline;fill:#FC7575;}
	.st18{display:inline;fill:#653870;}
	.st19{display:inline;fill:#262857;}
	.st20{display:inline;fill:#757AD8;}
	.st21{display:inline;fill:#C0B4FE;}
	.st22{display:inline;fill:#B9BCFC;}
	.st23{display:inline;}
	.st24{fill:#12192C;}
	.st25{fill:#FD5E5A;}
	.st26{fill:#FC8080;}
	.st27{fill:#243158;}
	.st28{fill:#4962AF;}
	.st29{fill:#B07959;}
	.st30{fill:#4F5B0B;}
	.st31{fill:#F98A8A;}
	.st32{fill:#EA7373;}
	.st33{fill:#D86666;}
	.st34{fill:#012540;}
	.st35{fill:#777CAA;}
	.st36{fill:#9DBA25;}
	.st37{fill:#64132C;}
	.st38{fill:#F57408;}
	.st39{fill:#F58A31;}
	.st40{fill:#9E7D55;}
	.st41{fill:#C7B299;}
	.st42{fill:#603813;}
	.st43{fill:#4F6E9E;}
	.st44{fill:#C27535;}
	.st45{fill:#3F2424;}
	.st46{fill:#006837;}
	.st47{fill:#004022;}
	.st48{fill:#C69C6D;}
	.st49{fill:#754C24;}
	.st50{fill:#2C3A64;}
	.st51{fill:#2B478B;}
	.st52{fill:#233862;}
	.st53{fill:#FFB27D;}
	.st54{fill:#F99746;}
	.st55{fill:#ED7D2B;}
	.st56{display:inline;fill:#233862;}
	.st57{display:inline;fill:#2B478B;}
	.st58{display:inline;fill:#CCDFED;}
	.st59{fill-rule:evenodd;clip-rule:evenodd;fill:#E10438;}
</style>
<path class="st0" d="M187.9,163.3c-2.5,2.2-9.3-5.5-10.2-6.5c0-0.1-0.1-0.1-0.1-0.1l2-5.7c0,0,8.8-0.3,10.3,1.1
	C191.4,153.6,190.7,160.9,187.9,163.3z"/>
<path class="st0" d="M179.6,151l-0.9,5.9c0,0-0.4,0-1.1,0c-2.1-0.1-7.4-0.4-13.3-1.1c-8.9-0.9-19.4-2.4-23.6-5
	c-6.4-3.9-16.9-15.8-23.7-27.8c-0.2-0.3-0.3-0.6-0.5-0.9c-3.6-6.3-6-12.6-6.2-17.7c-0.1-3.1,0.2-5.7,0.8-8c0.8-3,2.2-5.4,3.6-7.2
	c0.2-0.3,0.4-0.6,0.7-0.8c2.3-2.8,4.6-3.9,4.6-3.9c1.2-0.5,2.4,0.1,3.8,1.5v0c1.1,1.1,2.2,2.8,3.4,5c0,0,0.1,0.1,0.1,0.1
	c0.2,0.4,0.5,0.9,0.8,1.5c0.1,0.1,0.1,0.2,0.2,0.3c0.5,1.1,1.1,2.3,1.6,3.5c6,13.1,12.4,32.9,17.7,38.8c2.3,2.5,12.8,7.5,21.1,11.2
	C174.8,149,179.6,151,179.6,151z"/>
<g>
	<ellipse class="st1" cx="322.5" cy="356.5" rx="258.5" ry="18"/>
	<path class="st2" d="M351.9,331l-15.1-0.7c0,0-1.9,24.4-6.9,27.2c-5,2.7-9.8,6.1-14.9,5.8c-5.1-0.3-2.1,7.6-2.1,7.6l28.3-1.4l2.1-3
		l1.7,3l5.6-0.1l1.2-8L351.9,331z"/>
	<path class="st3" d="M295.9,175.6c0,0-14-10-16.8-9c-2.7,1,7.2,7.8,6,9c-1.2,1.2-24.1-6.8-26.2-4.5c-2.2,2.3,20.4,5.9,18.5,8
		c-2,2.1-22.3-4.2-22.3,0c0,4.2,23.6,4.5,21.5,6.7c-2.1,2.2-24.3,2-21.5,5c2.8,3,25.6-1.6,22,2.1c-3.6,3.7-12,6-9.3,8.8
		c2.7,2.9,32.1-9.8,32.1-9.8L295.9,175.6z"/>
	<path class="st4" d="M255.1,179.1c0,1.6,3.3,2.6,7.3,3.4c0.4-1.5,0.9-3,1.5-4.4C259.2,177.4,255.1,177.2,255.1,179.1z"/>
	<path class="st4" d="M255.1,190.8c0.7,0.8,2.8,1,5.5,1.1c0.1-1.2,0.3-2.3,0.5-3.5C256.9,188.9,253.9,189.6,255.1,190.8z"/>
	<path class="st4" d="M273.5,195.6c-3.7,2.2-7.6,4-5.6,6.1c0.9,1,5.1,0.1,10-1.4C276.7,198.2,275.4,196.4,273.5,195.6z"/>
	<path class="st4" d="M279.1,166.6c-1.6,0.6,1.2,3.2,3.5,5.5c1.5-0.8,2.7-1.7,3.9-2.5C283.3,167.7,280.2,166.2,279.1,166.6z"/>
	<path class="st4" d="M258.9,171.1c-0.9,0.9,2.4,2.1,6.5,3.3c0.4-1,0.8-1.9,1.3-2.8C262.8,170.7,259.6,170.3,258.9,171.1z"/>
	<path class="st4" d="M290.9,182.1c0,1.2-1,2.2-2.2,2.2c-1.2,0-2.2-1-2.2-2.2c0-1.2,1-2.2,2.2-2.2
		C290,179.9,290.9,180.9,290.9,182.1z"/>
	<path class="st5" d="M129.4,109.3c8.1,16.5,33.9,34,50.3,39.9c0.4,0.1,0.8,0.2,1.2,0.1c3.3-0.5,10.7-3,12.3-0.7
		c0.3,0.5,0.3,1-0.1,1.3c-0.6,0.5-1.2,0.2-2.8,0.3c-1.6,0.1-3.3,0.7-3,1.2c0.7,0.9,11.9,2.4,14.7,3.8c1.4,0.7,1.5,1.9-3.2,1.1
		c-1.4-0.3-2.8-0.6-4.2-0.9c-3.2-0.8-5.3-0.8-4.5-0.4c2.3,1.2,14.6,4.1,14.4,6c-0.1,0.9-13.1-3.3-16.3-4c3.1,2.4,15.4,4.9,13.3,6.2
		c-1.3,0.8-11.6-2.5-13.9-3.6c-2.7-1.4-0.2,0.8,1.1,1.9c1.1,0.9,6,3.1,3.5,3.6c-2.2,0.4-13.2-8.2-17.8-10.5h0
		c-4.1-2-36.7-12.5-49.3-23c-8.3-6.9-16.5-24.5-22.8-37.2c-1.3-2.7-1.4-5.9-0.1-8.6l0.2-0.5c2.4-5.1,8.5-7.3,13.5-4.7l0,0
		c2.6,1.3,4.4,3.6,5.2,6.4C122.9,93.7,125.6,101.4,129.4,109.3z"/>
	<rect x="143.5" y="127.7" class="st6" width="54.1" height="54.1"/>
	<rect x="167.4" y="72" class="st7" width="51.7" height="55.7"/>
	
		<rect x="152.8" y="72" transform="matrix(-1 -1.224647e-16 1.224647e-16 -1 320.159 199.63)" class="st8" width="14.6" height="55.7"/>
	<rect x="197.7" y="127.7" class="st9" width="15.2" height="54.1"/>
	<path class="st10" d="M498.3,133.4l-26.7,142.2h30.9L525,133.4H498.3z M500.3,272.9h-25.4l25.7-136.8h21.3L500.3,272.9z"/>
	<path class="st11" d="M303.6,298.1c0,0,52-18.4,94.5-10l-2.2-131.8l-76.9-7.2L303.6,298.1z"/>
	<path class="st12" d="M357.4,83.6c0,0,21.7-13.6,48.3-6.2c26.6,7.4-33.1,69.5-33.1,69.5l-43-15.4l8.5-32.7L357.4,83.6z"/>
	<path class="st13" d="M373.4,76.9c0,0-39.4,39.6-53.6,81.5l-26.3,10.8l0.6,29.6c0,0,39.8-1.3,41.1-1.3
		C336.6,197.6,373.4,76.9,373.4,76.9z"/>
	<path class="st14" d="M318.9,200.9c0,0,13.8,90.3,13.8,110.7c0,20.4-1.9,49.1-1.9,49.1l19.1,2.5c0,0,17.3-96.1,15.1-126.1
		c-2.2-30,2.6-43.4,2.6-43.4L318.9,200.9z"/>
	<path class="st2" d="M396.2,342.3l-21.9-1c0,0,4.8,24.7-0.2,27.5c-5,2.7-9.8,6.1-14.9,5.8c-5.1-0.3-2.1,7.6-2.1,7.6l28.3-1.4l2.1-3
		l1.7,3l5.6-0.1l1.2-8L396.2,342.3z"/>
	<path class="st15" d="M341.9,189.8v52.6c0,0,32.8,101.4,32.8,122.6h22.6c0,0,5.8-148.3,5.8-161.4S341.9,189.8,341.9,189.8z"/>
	<g class="st16">
		<path class="st17" d="M118.7,341.9c-4.3-0.9-8.5-5.9-9.6-10.1l-5.1,0.4c1.4,1.2,0,9.7,0,9.7l1.4,4.5L118.7,341.9z"/>
		<path class="st18" d="M121.7,342.7c-1-0.4-2.1-1.1-3.1-0.9c-13.8,3.3-14.7-0.1-14.7-0.1s-1,3.8-1,4.6c0.1,0.8,0.9,0.8,5.1,0.4
			c4.2-0.3,10.8,0.3,14.2-1C125.8,344.6,125.9,344.2,121.7,342.7z"/>
		<path class="st19" d="M109.4,160.8l-10.3-4.2L85.3,199v60.4c-3.3,13.2,5.3,77,5.3,77l19.3-3C98.6,287.6,109.4,160.8,109.4,160.8z"
			/>
		<path class="st17" d="M66,350.6c0.2,2.3-0.4,5-1,7.5c-0.5,2.3,0.8,3.5,0.9,4.9c0.2,3,7.8,1.4,7.8,1.4s1.5-4.5,0.3-8
			c-1-2.8-1.9-5.9-2.1-8c0-0.4,0-1.3,0.1-2.6l-6.2,0.5C66,348.6,65.9,350.1,66,350.6z"/>
		<path class="st20" d="M83.2,243.8l20.2-83.5l-19.2-17c0,0-18.8,17.7-21.5,29.7c-2.7,12,2.4,59.9,2.9,66.3
			c0.5,6.4-5.3,24.2-7.5,30.1c-1.9,5.2,2.7,60.9,4.6,77.2l13.4,0.5c1.1-14.1,5.2-77.6,4.6-84.9C80,254.1,83.2,243.8,83.2,243.8z"/>
		<path class="st21" d="M66.5,163.2c-5.9,9.3-7.1,13.2-4.3,52.4c0.6,8,2,24.7,2,24.7c0.5,7.4-8.3,31.5-7.3,28.8
			c-2.6,7.6,4.1,66.5,5.7,77.6c-0.5-6.8-5.3-71.2-3.5-76.8c0.1-0.1,7.9-14.8,7.3-34.7c-5.7-59.4-4.5-61.8,1.2-71.2
			c4.6-7.5,10.5-14.2,16.6-20.5C78,148.8,70.9,156.5,66.5,163.2z"/>
		<path class="st18" d="M73.9,356.5c0,0.1,0.2,7.1-3.8,6.1c-2.4-0.6-4.2-2.8-5.2-4.5c-0.5,2.3-1.1,4.3-0.9,5.8c0.2,3,12,3,12,3
			S75.1,359.9,73.9,356.5z"/>
		<path class="st22" d="M123.1,82c0,0,14.2,29.1,9.5,33.9c-4.7,4.7-20.6,45.7-20.6,50.6l-31.6-19c0,0,10.5-24.1,8.2-37.5
			c-2.3-13.4-4.6-27.1,3.9-31C100.9,75.2,123.1,82,123.1,82z"/>
		<path class="st17" d="M112.3,108.8c8.1,16.5,33.9,34,50.3,39.8c0.4,0.1,0.8,0.2,1.2,0.1c3.3-0.5,10.7-3,12.3-0.7
			c0.3,0.5,0.3,1-0.1,1.3c-0.6,0.5-1.2,0.2-2.8,0.3c-1.6,0.1-3.3,0.7-3,1.2c0.7,0.9,11.9,2.4,14.7,3.8c1.4,0.7,1.5,1.9-3.2,1.1
			c-1.4-0.3-2.8-0.6-4.2-0.9c-3.2-0.8-5.3-0.8-4.5-0.4c2.3,1.2,14.6,4.1,14.4,6c-0.1,0.9-13.1-3.3-16.3-4c3.1,2.4,15.4,4.9,13.3,6.2
			c-1.3,0.8-11.6-2.5-13.9-3.6c-2.7-1.4-0.2,0.8,1.1,1.9c1.1,0.9,6,3.1,3.5,3.6c-2.2,0.4-13.2-8.2-17.8-10.5v0
			c-4.1-2-36.7-12.5-49.3-23c-8.3-6.9-16.5-24.5-22.8-37.2c-1.3-2.7-1.4-5.9-0.1-8.6l0.2-0.5c2.4-5.1,8.5-7.3,13.5-4.7l0,0
			c2.6,1.3,4.4,3.6,5.2,6.4C105.8,93.1,108.5,100.9,112.3,108.8z"/>
		<g class="st23">
			<path class="st24" d="M101.2,69.1l-0.5-0.7l0,0c-3.2-5.3-14.3-8.8-20-0.7c-2,2.9-4.7,7.7-0.9,14.2l2-1.4c-1.4-2-2.3-5.1-1.7-7.9
				c0.4-1.7,1.1-2.6,1.2-2.9c0.2-0.2,3.4-7.1,11.8-5.5C98.8,65.2,100.4,68.6,101.2,69.1z"/>
			<path class="st24" d="M101.2,68.7c0,0-6.9-2.5-11.2-0.9c-4.3,1.5-6.4,9.5-3.3,19.5c3.2,10,12.9,15.5,12.9,21.9
				c0,6.4-7.3,6.1-7.3,6.1s3,3.7,8.9,2.3s4.7-10.3,4.7-10.3s3.3,3.6,1.9,6.2c0,0,4-0.8,2.8-8.9c-1.2-8-8.8-19.7-10.5-25.8
				c-1.7-6.1,2.9-7.7,2.9-7.7L101.2,68.7z"/>
			<path class="st24" d="M119.6,32.1c0,0,5.4-2.2,7.6-1.6c2.2,0.6,5.3,2,7.3,6.5c2,4.4-0.8,17.5-3.9,23.7c-3.1,6.2-14.5,14-14.5,14
				s-3,0.5-7.4-4.9C104.1,64.4,110.7,33.3,119.6,32.1z"/>
			<path class="st4" d="M107.2,60.5v17.6c0,0,6.4,17.9,12.2,17.4c5.8-0.5,0.9-13,0-16.8c-0.9-3.8-0.3-12.6-0.3-12.6L107.2,60.5z"/>
			<path class="st25" d="M107.2,60.5v5.7c3.4,3.4,9,6.4,10.8,7.2c0.3,0.1,0.6,0.3,0.8,0.4c-0.1-3.8,0.1-7.7,0.1-7.7L107.2,60.5z"/>
			<path class="st26" d="M126.3,36.4c0,0,3.8,2.3,4.8,6.8c1.1,4.5-1.2,7.7-1.2,9.9c0,2.3-0.4,4.2-3.6,11.8c-3.3,7.6-5.9,6-8.3,5
				c-2.4-1-11.3-5.3-13.2-9.6c-2-4.3-0.1-17.9,5.8-22.3C116.5,33.8,125.4,35.8,126.3,36.4z"/>
			<path class="st27" d="M126.1,31.6c0,0,3.1,3.3,0.9,6.9c-2.2,3.6-12.2,9.7-16.2,13.8c-3.9,4.1-4.1,9.9-3,12.1
				c1.1,2.2-0.6,7.6-0.6,7.6s-10.9-1.1-13.4-13.7c-1.5-7.6-0.3-21,4.8-25.6c5.1-4.6,13.8-6.9,19.2-5.4
				C123.1,28.8,126.1,31.6,126.1,31.6z"/>
			<path class="st28" d="M127.6,37.4c0.1,0.1,0.2,0.2,0.3,0.5c2.6,8.7-12.6,4.3-20,12.5c-2.8,3.1-4.3,8.1-4.8,12.7
				c-0.6,6.3,4.3,11.7,10.4,11.5l-0.2,3.2c-4.5,0-10.4-3.4-12.5-7.6c-2.5-5.1-0.2-12.4,2.7-17.2c3.1-5.4,8.3-7,14.1-8.3
				c6.1-1.3,11-1.5,10.3-5.8C127.9,38.3,127.6,37.6,127.6,37.4z"/>
			<path class="st26" d="M111.9,51.9c0,0-1.1-3.4-2.8-2.6c-1.7,0.9-2.4,5.8-1.2,7.1C109.1,57.7,111.9,55.4,111.9,51.9z"/>
			<path class="st25" d="M111.2,52.3c0,0-0.2-2.6-1.8-2.1c-0.5,0.2-2.3,4.3-1,4.7C109.7,55.4,111.3,53.6,111.2,52.3z"/>
		</g>
	</g>
	<path class="st29" d="M405.6,77.5c0,0-24.4-3.3-44.9,6.2c-20.5,9.5-40.2,26.5-50.1,122.2l103,10.7
		C413.6,216.5,437.3,106,405.6,77.5z"/>
	<g>
		<path class="st30" d="M380.4,52.9c0,0,20.1,3,22.9,3c0,0-15.6-14.5-38.7-21.4c-7.9-2.4-11-3-11.6-2.1c-1,1.7,7.1,7.4,7.1,7.4
			L380.4,52.9z"/>
		<path class="st31" d="M385.6,42.9c1-6.3-5.1-10.9-11.4-11.7c-6.2-0.7-12.2-1.6-14.9,1.9c-6.5,8.3-1.2,26.6-1.2,26.6
			s3,8.6,11.4,9.9C375.2,70.4,383.7,54.6,385.6,42.9z"/>
		<path class="st32" d="M388.9,61.4c0,0-2.8,32.2-4.5,38.1c-1.8,5.9-18.1,2-20.7-3.2c-2.6-5.2,3.8-24.6,3.8-24.6L388.9,61.4z"/>
		<path class="st33" d="M364.2,83.6c1.3-6.1,3.2-11.9,3.2-11.9l21.4-10.3c0,0-0.7,8.2-1.6,17.1c-0.4-0.2-0.6-0.5-0.9-0.9
			c-1.8-2.8-3.1-11.6-3.1-11.6s-2.5,8.4-3.2,13.1c-0.5,3-6.2,4.2-11.7,4.4c-0.7-1.3-1.1-2.9-1.3-4.2c-0.1,1.4,0,2.8,0.3,4.2
			C366.2,83.6,365.2,83.6,364.2,83.6z"/>
		<path class="st34" d="M358.4,71.6c-0.7,1.1-1.9,2.5-3.1,3.3c-1.6-2.6-2.2-5.8-1.8-8.4c0.7-4.6,3.9-6.6,4.2-8.3c0,0,0.4,4,5.6,5.7
			c5.2,1.6,10.2-1.8,12.6-3.5c2.4-1.7,5.3-3.3,5.8-6.6c0.5-3.4,2.9-16.4,2.9-16.4s0.9-2.2,6.3,1.7c5.4,3.8,4.3,5.9,4.6,10.5
			c0.3,4.6-1.5,7.7,1.9,9.4c3.4,1.7,6.6,7.7,2.9,13c-3.7,5.3-11.5,4.8-13.4,2.2c-1.9-2.6-3.3-10.7-3.3-10.7s-2.4,7.6-3.1,12
			c-0.4,2.8-6.2,3.7-11.6,3.9c-0.7-1.2-1.1-2.6-1.4-3.8c-0.1,1.3,0,2.6,0.4,3.8c-2.8,0-5.4-0.2-7.1-0.4c-1.6-0.3-3-1.1-4.1-2.2
			C357.6,75.2,358.2,73.4,358.4,71.6z"/>
		<path class="st35" d="M391.5,38.9c5,3.2,4.6,5.9,4.8,10c0.4,5.9-1.4,7.7,1.9,9.4c7.4,4.5,5.8,16.7-4.2,18.1
			c-2.5,0.2-5.4-0.1-7-2.2c1.9,1.7,4.6,1.7,6.9,1.2c8.3-1.8,9.6-12,3.4-15.5c-4.4-1.9-2.4-5.8-2.6-11c-0.1-3.8,0.9-5.7-3.7-9.3
			c-1.6-1.3-4.9-3.8-6.3-2.3C385.8,35.5,389.6,37.7,391.5,38.9z"/>
		<path class="st31" d="M379.7,49.4c0,0,2.1-2.1,5-0.9c2.9,1.2-0.6,8.6-3.3,8.2C378.8,56.3,379.7,49.4,379.7,49.4z"/>
		<path class="st33" d="M382.1,50.3c0,0,2.1-1.3,2.3,0.2c0.2,1.5-1.2,4.3-2.6,4.3C380.5,54.7,382.1,50.3,382.1,50.3z"/>
		<path class="st36" d="M364.7,34.5c-5.3-1.6-8.9-2.4-10.6-2.5c2.7-0.3,8.2-2.4,10.6-4.8c1.4-1.4,3.8-3.7,6.1-6
			c3.9-3.8,10.3-4,14.2-0.1c0,0,0.1,0.1,0.1,0.1c1.7,1.7,5,2.5,8.4,2.9c4,0.4,6.4,4.8,4.5,8.4c-1.5,2.9-2.7,6.1-2.7,8.3
			c0,5.6,8.1,15,8.1,15S387.7,41.4,364.7,34.5z"/>
	</g>
	<polygon class="st37" points="372.5,95.5 358.3,277.4 385.7,280.2 375.9,95.5 	"/>
	<polygon class="st37" points="347.9,91.1 318.9,229.3 350.9,235 358.2,95.5 	"/>
	<path class="st38" d="M405.6,77.5c0,0-29.5-8.2-36.4,20.2c-6.9,28.4,14.2,202,14.2,202l41.2-3.8c0,0,11.3-183.7,0-201.7
		C413.3,76.1,405.6,77.5,405.6,77.5z"/>
	<path class="st39" d="M419.7,218.6c0,0,3.9,55.8-2,62c-5.9,6.2-27,0-27,0v-64.2L419.7,218.6z"/>
	<path class="st38" d="M346.9,95.7c-4.8,6.5-10.1,15.6-13.5,26.9c-7.7,25.5-22.8,175.6-22.8,175.6h-7c0,0,8-152.4,20-179.6
		c7-16,12-19.6,22-27.1C346,92.8,346.5,94.3,346.9,95.7z"/>
	
		<rect x="445.3" y="234.9" transform="matrix(-1 -1.224647e-16 1.224647e-16 -1 955.6408 560.3386)" class="st40" width="65" height="90.5"/>
	
		<rect x="445.3" y="234.9" transform="matrix(-1 -1.224647e-16 1.224647e-16 -1 933.6042 560.3386)" class="st41" width="43" height="90.5"/>
	
		<rect x="438" y="258.9" transform="matrix(-1 -1.224647e-16 1.224647e-16 -1 932.8065 584.3518)" class="st42" width="56.7" height="66.5"/>
	
		<rect x="500.5" y="357.1" transform="matrix(-1 -1.224647e-16 1.224647e-16 -1 1007.5438 726.3159)" class="st43" width="6.6" height="12.1"/>
	
		<rect x="471.3" y="357.1" transform="matrix(-1 -1.224647e-16 1.224647e-16 -1 949.0842 726.3159)" class="st43" width="6.6" height="12.1"/>
	
		<rect x="438" y="357.1" transform="matrix(-1 -1.224647e-16 1.224647e-16 -1 882.6131 726.3159)" class="st43" width="6.6" height="12.1"/>
	<path class="st3" d="M396.7,177.3c0,0-14-10-16.8-9c-2.7,1,7.2,7.8,6,9c-1.2,1.2-24.1-6.8-26.2-4.5c-2.2,2.3,20.4,5.9,18.5,8
		c-2,2.1-22.3-4.2-22.3,0c0,4.2,23.6,4.5,21.5,6.7c-2.1,2.2-24.3,2-21.5,5c2.8,3,25.6-1.6,22,2.1c-3.6,3.7-12,6-9.3,8.8
		c2.7,2.9,32.1-9.8,32.1-9.8L396.7,177.3z"/>
	<path class="st4" d="M377.3,195.2c-3.8,3.4-11.2,5.5-8.7,8.2c1.3,1.4,8.6-0.8,15.9-3.4C382.5,198.1,380,196.5,377.3,195.2z"/>
	<path class="st4" d="M359.7,172.8c-1.5,1.6,8.6,3.8,14.5,5.7c0.7-0.9,1-1.9,1.1-3.2C368.6,173.4,360.9,171.5,359.7,172.8z"/>
	<path class="st4" d="M368,189.3c-6.5,0.7-13.8,1.4-12.1,3.1c1.3,1.4,7.1,1.1,12.5,0.8C368.4,192,368.3,190.6,368,189.3z"/>
	<path class="st44" d="M415.7,82.8c0,0,57.3,55.5,47.5,90.5c-9.8,35-67.4,25.7-67.4,25.7l-2.2-26.5c0,0,33.5-7.3,33.5-14.2
		C427.1,151.4,402.4,96.7,415.7,82.8z"/>
	<rect x="408.4" y="184.3" class="st45" width="12.6" height="12.6"/>
	
		<rect x="435.5" y="145.1" transform="matrix(0.7383 0.6744 -0.6744 0.7383 220.8515 -259.695)" class="st45" width="19.3" height="19.3"/>
	<path class="st46" d="M484.2,196.9c-2.9,0-36.6,1.4-40.2,11c-3.5,9.6,1.9,28.5,15.1,28.5c13.2,0,31.2,11.2,39.2,11.2
		c8,0,30.2-19,20.6-37.6C509.2,191.4,484.2,196.9,484.2,196.9z"/>
	<path class="st47" d="M518.9,210c-4.3-8.3-11.6-11.8-18.4-13.1c0,0,0,0,0,0s-24.5,5.2-24.5,19.6c0,13.5,16.2,29.8,21.5,31.1
		c0.3,0,0.6,0,0.9,0c0.6-0.1,1.2-0.2,1.8-0.3C509.2,245,527.8,227.4,518.9,210z"/>
	<rect x="438" y="258.9" class="st48" width="34.9" height="66.5"/>
	<path class="st37" d="M412.4,81.9c-3.2,14.7-31.3,29.2-49.4,29.2c-8.4,0-13.3-7.5-16.1-15.5c-0.5-1.4-0.9-2.8-1.3-4.2
		c-2-7.6,3.8-12.8,5.2-16.1c3.6-8.7-0.3,3.5,20.1-2C391.4,67.6,415.6,67.3,412.4,81.9z"/>
	<path class="st45" d="M384.6,127.8c0,3.1-2.5,5.6-5.6,5.6c-3.1,0-5.6-2.5-5.6-5.6c0-3.1,2.5-5.6,5.6-5.6
		C382.1,122.2,384.6,124.7,384.6,127.8z"/>
	<circle class="st45" cx="380.9" cy="156.3" r="5.6"/>
	<path class="st34" d="M448.6,370.8c0,4.2-3.4,7.7-7.7,7.7c-4.2,0-7.7-3.4-7.7-7.7c0-4.2,3.4-7.7,7.7-7.7
		C445.2,363.2,448.6,366.6,448.6,370.8z"/>
	<path class="st34" d="M485.5,370.8c0,4.2-3.4,7.7-7.7,7.7c-4.2,0-7.7-3.4-7.7-7.7c0-4.2,3.4-7.7,7.7-7.7
		C482.1,363.2,485.5,366.6,485.5,370.8z"/>
	
		<ellipse transform="matrix(0.9239 -0.3827 0.3827 0.9239 -103.153 223.1036)" class="st34" cx="509.2" cy="370.8" rx="7.7" ry="7.7"/>
	<g>
		<path class="st34" d="M451.1,334.6l-0.3-9.1c-3.4-92.1,0.8-50.3,3.7-85.9c-0.5-1.1-2-6,0-16.1c2.3-11.6,21.9-26.3,22.7-27l1.1,1.5
			c-0.2,0.1-19.8,15-22,25.8c-0.8,4.1-1.7,11.6,0,15.4c-0.3,3.4-1.5,17.8-4,20.3c-1.8,3.4,0.1,58,0.6,75L451.1,334.6z"/>
	</g>
	<g>
		<path class="st34" d="M502.5,337.1h-1.9c-0.6-43.1,1.7-124.1-2.7-139c-1.7-0.4-10.2-0.2-17.8,0.2l-0.1-1.9
			c18.1-0.9,18.9-0.1,19.3,0.3C504.2,201.6,502,303.8,502.5,337.1z"/>
	</g>
	<g>
		<path class="st34" d="M436.4,320.8c20.1-17.6,72.5-65.2,73.3-74.1c0.2-2.6,19.6-4.6-72.1,75.5C436.7,323,435.4,321.6,436.4,320.8z
			"/>
	</g>
	
		<rect x="435.5" y="325.4" transform="matrix(-1 -1.224647e-16 1.224647e-16 -1 945.8071 682.5164)" class="st49" width="74.8" height="31.7"/>
	
		<rect x="489.9" y="325.4" transform="matrix(-1 -1.224647e-16 1.224647e-16 -1 1000.2067 682.5164)" class="st42" width="20.5" height="31.7"/>
	<path class="st34" d="M479.6,195c0.9-4,2.5-12.4,0.3-14.5c-0.6-0.5-1.3-0.7-2.1-0.5c-0.8,0.2-1.4,0.8-1.9,1.6
		c-1.7,3.2,0.3,10.6,1.2,13.6c-0.1,0.1-0.2,0.2-0.3,0.2c-3.3-2.2-10.6-6.2-14.9-1.9c-1.3,1.3-1.2,2.3-0.9,2.9
		c0.9,1.8,5.2,2.3,9.6,2.3c2,0,3.9-0.1,5.6-0.2c0.4,0.9,1.3,1.6,2.4,1.6c1.5,0,2.7-1.2,2.7-2.7C481.2,196.3,480.6,195.4,479.6,195z
		 M477.6,182.5c0.2-0.5,0.5-0.6,0.7-0.6c0.1,0,0.1,0,0.2,0c0.1,0,0.1,0,0.1,0c0.9,0.9,0.5,5.5-0.4,10.3
		C477.4,188.7,476.6,184.4,477.6,182.5z M462.7,195.7c0-0.1,0.1-0.3,0.5-0.8c1-1,2.2-1.4,3.6-1.4c2.9,0,6.3,1.8,8.4,3.2
		C468.8,197.1,463.1,196.6,462.7,195.7z"/>
</g>
<g>
	<path class="st50" d="M105.2,15.7c0-0.9-0.7-10.3-15.1-10.8c0,0,7.1,0.8,8.3,4c0,0-4.8-3.8-8.8-2.6c-3.9,1.2-6.2,8.1-6.3,10.4
		c0,2.3,2.2,9.6,4.7,10.2c0.9,0.2,2,0.2,3,0c-0.7,1-1.3,2.2-1.9,3.5c-5.8,11.8,0.2,23.3,5,22.1c3.1-0.8,4,4.5,4,4.5l30.3-24.6
		C128.5,32.3,117.4,9.2,105.2,15.7z"/>
	<path class="st51" d="M115.8,363.5l-6.4,2.4c0,0-28-38.8-31.4-73c-0.6-6.1-0.4-12,0.9-17.5c0,0-0.3-1.6-0.8-4.3
		c-0.2-1.3-0.5-2.8-0.8-4.6c-0.9-5.2-2.2-12.3-3.6-20.5c-3.3-18.7-7.6-42.6-10.9-60.1l1.7-0.6l18.8-6.1l3.9-12.3l14-3.7
		c0,0,3.1,6.1,5.9,35c0.5,3.8,1,8,1.3,12.5c1.1,13.8,1.2,31-1.3,50.6c-0.6,5-1.5,10.2-2.5,15.5c-0.7,3.9-0.8,9.2-0.5,15.3
		C105.5,320.1,115.8,363.5,115.8,363.5z"/>
	<path class="st52" d="M108.4,210.8l-30.4,60.4c-0.2-1.3-0.5-2.8-0.8-4.6c-0.9-5.2-2.2-12.3-3.6-20.5c-3.3-18.7-7.6-42.6-10.9-60.1
		l1.7-0.6l18.8-6.1l3.9-12.3l14-3.7c0,0,3.1,6.1,5.9,35C107.6,202,108.1,206.2,108.4,210.8z"/>
	<path class="st51" d="M95.1,171l-0.7-6c-11.8,3.1-43.3-8.7-43.3-8.7s-11.4,10-9.9,34.1c0.7,11.7,2.1,61.6,3.5,76.4
		c0.5,5.3,0.9,9.2,1.1,10.7c0,0,0,0,0,0c0.1,0.5-0.1,0.9-0.3,1.3c-2.1,3.5-3.8,7.1-5.1,10.8C26.6,326,42.4,371,42.4,371l4.1-1.7
		c0,0,9-50,16.3-72.1c1.2-3.7,2.4-6.7,3.5-8.5c3.2-5.1,6.1-13.5,8.8-23.5c5.1-18.8,9.1-43.3,11.8-62.3C87.3,203,95.1,171,95.1,171z"
		/>
	<path class="st53" d="M117.6,97.9c-3.7,1.7-8.2,2.9-13.6,3.2c-20.3,1.1-24.8-16.6-25.7-28.4c2.9-1.1,5.5-1,6.9-0.9
		c1.4,0.1,2.9,0.2,4.2,0.4c2.5-1.3,6.9-7.6,9.5-18.1l0.9,0.4l14.6,6.9c0,0-1.6,4.8-2.7,9.3c-0.9,3.6-1.5,7-1,8
		c1.2,0.5,1.8,0.8,1.8,0.8s0,0,0,0C112.7,79.7,115.9,87.8,117.6,97.9z"/>
	<path class="st54" d="M122.6,111.2c-0.2,0.4-0.3,0.8-0.5,1.2c-5.1,11-14.6,56.8-14.6,56.8c1.4,8.2-61.8-1.6-62-9.1
		c-2.2-7.9,7.9-20.7,13.6-27.1c0.7-0.8,1.4-1.7,1.9-2.6c1.4-2.3,2.3-4.9,2.6-7.6c1.1-10.6,0.7-20.6,0.8-26.6c0,0,0,0,0,0
		c1.1-0.8,2.2-1.6,3.2-2.3c1.5-1.1,2.9-2.2,3.9-3.2c1.1-1.2,1.8-2.3,1.9-3.7c0.1-1,0-2-0.1-3.1c0-0.5-0.1-1-0.2-1.5
		c-0.8-5.1-2.9-9.8-2.9-9.8c5.4-2.2,15.1-0.9,15.1-0.9s0,0.5,0,1.4c0,3.5,0,12.6,1.1,14.3c1.4,2.1,27.3,11.5,28.7,8.6
		c1.3-2.9-2.3-16.2-2.5-16.7c0,0,0,0,0,0c8.7,3.4,11.8,6.3,11.8,6.3C119.1,89,126.7,100.5,122.6,111.2z"/>
	<path class="st0" d="M114.4,61.3c0,0-1.6,4.8-2.7,9.3c-8.5-2.4-11.1-11.4-11.9-16.2L114.4,61.3z"/>
	<path class="st53" d="M116.2,66.4c0,0-20.4-4.7-17.3-17.4c3.1-12.7,2.6-21.8,15.8-19.3c13.2,2.5,14.5,7.9,14.5,12.4
		C129.2,46.5,121.6,67.3,116.2,66.4z"/>
	<path class="st50" d="M130.4,34.8c-2.2-4.6-4.8-4.4-6.4-3.5c-9.6-8.9-19-1.6-19-1.6C101.3,38.4,93.5,42,93.5,42s3.1,3.2,12.2,3.1
		c2.8,0,5.6-1.3,8.1-3.1c-4.9,4.9-10.7,7.9-10.7,7.9c11.4-2.2,19-15.4,19.8-16.8c1,1.4,2.8,4.5,3,7c0.2,3.5-1,10.2,1,10.5
		C127,50.8,133.7,41.7,130.4,34.8z"/>
	<path class="st54" d="M124.3,85.6c0,0,4.9,8.6,5.7,10.8c0,0-6.4-0.2-9,4.7C121,101.1,120.4,86.8,124.3,85.6z"/>
	<path class="st55" d="M90.5,153.8c-12.5-0.1-23-13.1-29.5-23.4c1.4-2.3,2.3-4.9,2.6-7.6c1.1-10.6,0.7-20.6,0.8-26.6c0,0,0,0,0,0
		c1.1-0.8,2.2-1.6,3.2-2.3c1.5-1.1,2.9-2.2,3.9-3.2C81.7,107.9,107.4,154,90.5,153.8z"/>
	<path class="st52" d="M66.3,374.3H33.8c0,0-0.8-4.9,0.9-8.7c1.6-3.6,4.2-5.2,3.6-9.6c2.1,2.1,5.4,4.5,10.1,3.9
		c0.6,0.9,3.7,5.9,5.6,7.3C56.1,368.7,65.6,368.2,66.3,374.3z"/>
	<path class="st52" d="M135.9,374.3h-32.5c0,0-1.2-5.2,0.9-8.7c1.9-3.1,1.2-4.9-0.2-7.5c1.5,0.6,3.4,1.1,5.5,1
		c1.6-0.1,3.3-0.8,4.8-1.7c1.4,1.6,7.4,8.4,9.2,9.7C125.8,368.7,135.3,368.2,135.9,374.3z"/>
	<g class="st16">
		<polygon class="st56" points="164,134.8 132.4,175.9 135,177.7 167,136.6 		"/>
		<polygon class="st57" points="167,136.6 199,136.6 165.5,177.7 135,177.7 		"/>
		<polygon class="st58" points="164,134.8 195.8,134.8 197.6,136.6 167,136.6 		"/>
		<polygon class="st57" points="164.8,135.3 196.4,135.3 196.9,134.8 164,134.8 		"/>
	</g>
	<path class="st53" d="M160.4,161.5c-0.1-1.6-2.2-1.6-3.9-1.6c-2.7,0-6.9-0.2-9.4-1.1c0,0,7.8-0.1,6.2-2.6c-0.3-0.5-4.2-0.1-8.5-0.1
		c-1.8,0-6.2,2.4-6,2.6c-3.1-0.4-6-1-6.9-1.2l0,0c-2.1-1.2-4.7-2.6-7.5-4.1c-6.6-3.7-14.1-8.2-19.3-12c-3-2.1-5.2-4-6-5.4
		c-1.2-2.1-2.6-5.4-4.1-9.5c-0.8-2.1-1.6-4.5-2.4-7c-1.5-4.1-2.9-8.5-4.4-13c-2.7-8.1-5.7-16.2-8.4-22.5c-1.8-3.9-3.6-7.2-5.2-9.2
		c-1.3-1.6-2.6-2.4-3.8-2.2c-0.2,0-0.3,0.1-0.5,0.1c0,0-7,2-7.1,16.1c0,0.8,0,1.6,0,2.5c0.1,2.5,0.6,5.5,1.3,8.8
		c1.2,5.6,3.1,12,5.6,18.5c0.7,1.8,1.4,3.6,2.1,5.4c5.3,13.1,12,25.3,17.7,29.4c0.2,0.2,0.4,0.3,0.7,0.5c2.4,1.5,5.9,3,9.9,4.4
		c5.8,2,12.6,3.7,18.7,5.2h0c3.6,0.8,6.8,1.5,9.6,2c0,0,0.4,0.1,1.2,0.3c0.1,0,0.2,0,0.4,0.1c2.6,0.6,7.9,2,12.9,3.9
		c7,2.8,12.2-0.7,14.5-3.1C159.3,165.1,160.4,163,160.4,161.5z"/>
	<path class="st54" d="M79.7,84C70.3,81.4,63,88.7,63,88.7c0.1-14.1,7.1-16,7.1-16C73,71.5,76.3,76.4,79.7,84z"/>
</g>
<path class="st59" d="M115,113.4c0.1-3.5-2.2-6.7-5.6-7.7c-2.2-0.4-4.4,0.8-5.1,2.9c-0.8-2.4-2.7-4.2-5.1-4.9
	c-3.1-0.6-5.6,1.8-5.6,5.5c0,0.8,0.1,1.5,0.3,2.3c0.2,0.8,0.6,1.6,1,2.3c0.2,0.3,0.4,0.6,0.6,0.9l8.6,11.7c0,0.1,0.1,0.1,0.2,0.1
	c0.1,0,0.1,0,0.2-0.1l8.9-8.6l0,0c0.6-0.6,1.1-1.3,1.3-2.2C114.8,114.8,115,114.1,115,113.4z"/>
</svg>
