<svg width="30" height="32" viewBox="0 0 30 32" fill="none" xmlns="http://www.w3.org/2000/svg">
<path d="M14.5605 12.5V8.125H10.1855V5.18555H14.5605V0.810547H17.5V5.18555H21.875V8.125H17.5V12.5H14.5605ZM6.69922 26.5137C7.24609 25.9212 7.92969 25.625 8.75 25.625C9.57031 25.625 10.2539 25.9212 10.8008 26.5137C11.3932 27.0605 11.6895 27.7441 11.6895 28.5645C11.6895 29.3392 11.3932 30 10.8008 30.5469C10.2539 31.1393 9.57031 31.4355 8.75 31.4355C7.92969 31.4355 7.24609 31.1393 6.69922 30.5469C6.15234 30 5.87891 29.3392 5.87891 28.5645C5.87891 27.7441 6.15234 27.0605 6.69922 26.5137ZM21.2598 26.5137C21.8522 25.9212 22.5358 25.625 23.3105 25.625C24.1309 25.625 24.8145 25.9212 25.3613 26.5137C25.9538 27.0605 26.25 27.7441 26.25 28.5645C26.25 29.3392 25.9538 30 25.3613 30.5469C24.8145 31.1393 24.1309 31.4355 23.3105 31.4355C22.5358 31.4355 21.8522 31.1393 21.2598 30.5469C20.7129 30 20.4395 29.3392 20.4395 28.5645C20.4395 27.7441 20.7129 27.0605 21.2598 26.5137ZM9.02344 20.9082C9.02344 21.1361 9.13737 21.25 9.36523 21.25H26.25V24.1895H8.75C7.92969 24.1895 7.22331 23.916 6.63086 23.3691C6.08398 22.7767 5.81055 22.0703 5.81055 21.25C5.81055 20.7487 5.94727 20.293 6.2207 19.8828L8.13477 16.2598L2.93945 5.18555H0V2.31445H4.78516L6.15234 5.18555L7.51953 8.125L10.8008 15.0293L11.0059 15.4395H21.1914L25.2246 8.125L26.8652 5.18555L29.3945 6.62109L23.7891 16.8066C23.2422 17.8092 22.3763 18.3105 21.1914 18.3105H10.3223L9.02344 20.7031V20.9082Z" fill="url(#paint0_linear)"/>
<defs>
<linearGradient id="paint0_linear" x1="-7.65042e-09" y1="17" x2="35.0006" y2="16.9787" gradientUnits="userSpaceOnUse">
<stop stop-color="#FF4800"/>
<stop offset="1" stop-color="#FF7400"/>
</linearGradient>
</defs>
</svg>
