<svg width="260" height="210" viewBox="0 0 260 210" fill="none" xmlns="http://www.w3.org/2000/svg">
<g clip-path="url(#clip0)">
<path d="M227.102 203.291C227.102 206.529 214.282 209.153 198.466 209.153C182.649 209.153 169.83 206.529 169.83 203.291C169.83 200.054 182.649 197.431 198.466 197.431C214.282 197.431 227.102 200.055 227.102 203.291Z" fill="#C6E4F7"/>
<path d="M89.2719 203.291C89.2719 206.529 76.4526 209.153 60.636 209.153C44.8194 209.153 32 206.529 32 203.291C32 200.054 44.8194 197.431 60.636 197.431C76.4526 197.431 89.2719 200.055 89.2719 203.291Z" fill="#C6E4F7"/>
<path d="M162.136 203.292C162.136 206.995 147.469 209.998 129.376 209.998C111.283 209.998 96.6143 206.996 96.6143 203.292C96.6143 199.587 111.283 196.586 129.376 196.586C147.469 196.586 162.136 199.589 162.136 203.292Z" fill="#C6E4F7"/>
<path d="M58.9128 202.395C58.4432 204.828 55.8937 203.781 53.8338 203.991C52.8172 204.183 51.8293 204.504 50.8938 204.946C47.1015 206.36 42.7182 205.721 38.5632 205.069C38.2341 205.051 37.921 204.921 37.6755 204.702C37.5679 204.522 37.5105 204.317 37.5093 204.108C37.5081 203.899 37.5632 203.693 37.6688 203.512C37.8062 203.165 37.9656 202.827 38.146 202.5C38.318 202.18 38.5357 201.887 38.7923 201.63C39.781 200.884 40.9088 200.344 42.1093 200.04C44.0547 199.311 45.7505 198.04 46.9955 196.377L47.0385 196.323C47.4146 195.779 49.2119 192.898 48.0111 192.816C49.5031 192.816 57.9259 193.435 58.0337 194.99C58.1759 197.016 59.2746 200.563 58.9147 202.391" fill="#22313C"/>
<path d="M53.5716 200.485C53.5864 200.729 53.5306 200.973 53.4109 201.186C53.2913 201.399 53.1128 201.573 52.8967 201.688C52.4538 201.93 51.9669 202.08 51.4649 202.13C48.0712 202.584 44.6468 202.771 41.2238 202.687C40.1926 202.718 39.1608 202.657 38.1406 202.504C38.3125 202.184 38.5302 201.891 38.7868 201.634C39.7756 200.888 40.9033 200.347 42.1038 200.043C44.0493 199.315 45.7451 198.044 46.9901 196.381L47.033 196.326C47.1385 196.449 47.2661 196.551 47.4091 196.626C49.0426 197.502 50.6762 198.368 52.3097 199.222C52.8643 199.514 53.4819 199.89 53.5668 200.485" fill="#34434E"/>
<path d="M73.48 207.295C71.4201 207.213 69.5378 206.751 68.6921 205.922C66.4479 203.72 69.133 200.577 69.4032 198.318C69.4296 197.803 69.3839 197.286 69.2676 196.783C69.0261 195.446 68.6424 193.919 69.4662 193.167C69.5452 193.092 69.6338 193.028 69.7296 192.976C70.2623 192.689 72.4281 193.308 73.0609 193.382C73.4227 193.424 78.2679 194.021 78.2679 193.77C78.2679 196.182 77.4652 199.219 79.3971 201.258C79.8266 201.64 80.2255 202.055 80.5903 202.499C82.9843 205.924 77.8489 207.463 73.4809 207.289" fill="#22313C"/>
<path d="M77.5492 203.424C77.2513 204.247 75.6401 204.283 74.9566 204.845C74.1396 205.524 74.0689 206.482 73.479 207.298C71.4191 207.216 69.5368 206.754 68.6911 205.925C66.447 203.723 69.1321 200.58 69.4022 198.321C69.4286 197.805 69.383 197.289 69.2667 196.785C69.3441 196.813 69.4199 196.845 69.4938 196.881C70.8865 197.506 72.4424 198.322 72.7755 199.763C72.7959 199.963 72.8612 200.155 72.9664 200.327C73.0985 200.464 73.2624 200.567 73.4437 200.625C74.3667 201.02 75.2831 201.407 76.2071 201.794C76.9382 202.1 77.8193 202.704 77.5492 203.425" fill="#34434E"/>
<path d="M80.3052 195.634C80.3002 195.773 80.2764 195.91 80.2346 196.042C79.9435 197.041 78.693 197.422 77.6354 197.639C76.2636 197.937 74.8687 198.117 73.466 198.176C73.2178 198.183 72.9763 198.183 72.7281 198.183C70.5489 198.178 68.39 197.763 66.3643 196.959C66.5418 186.521 65.0003 176.232 64.6175 165.775C64.4113 160.1 64.9649 154.583 64.312 148.867C63.7393 143.903 62.9337 138.967 62.4154 133.998C62.3591 133.496 62.3094 132.986 62.2588 132.476L62.1309 131.164C60.9805 137.118 60.3295 143.158 60.1846 149.22C60.1703 155.384 61.5343 161.513 61.2575 167.602C60.9664 174.092 60.7602 180.594 60.5684 187.084C60.5187 188.763 60.9941 191.827 60.6963 194.233C60.4968 195.83 59.9575 197.128 58.6917 197.536C57.0164 197.953 55.2681 197.986 53.5783 197.631C51.0687 197.146 48.5884 196.52 46.1492 195.755C45.5765 189.368 46.2131 182.783 46.0995 176.335C46.0003 170.762 45.8915 165.189 45.7731 159.617C45.5529 149.655 45.2122 139.696 44.7508 129.74C44.3814 121.585 43.6216 113.459 44.2468 105.304C44.3677 103.762 44.5405 102.215 44.7651 100.663C44.7845 100.254 44.934 99.8611 45.1918 99.5425C46.3496 98.3665 51.4841 98.3598 53.0972 98.482C55.5132 98.5829 57.8723 99.246 59.9871 100.419C62.2779 99.2571 67.7646 98.9239 68.68 98.9869C72.4422 99.3824 76.1009 100.46 79.4767 102.167C80.3077 113.196 80.265 124.273 79.3488 135.295C78.7236 142.825 77.9781 150.137 78.9021 157.659C80.4217 170.116 79.5626 182.694 80.2938 195.089C80.3093 195.27 80.3141 195.452 80.3081 195.633" fill="#3371C1"/>
<path d="M73.4651 198.175C73.2169 198.182 72.9754 198.182 72.7272 198.182C70.5479 198.177 68.389 197.762 66.3634 196.958C66.5399 186.52 64.9993 176.232 64.6166 165.774C64.4104 160.099 64.964 154.582 64.3111 148.866C63.6792 143.346 62.003 137.36 62.2503 131.838C67.4305 142.338 68.1187 155.061 69.2079 166.447C69.4532 169.035 69.4551 171.681 69.9152 174.343C70.6826 178.774 71.4497 183.205 72.2166 187.635C72.9153 191.109 73.3331 194.634 73.466 198.175" fill="#3D7EC9"/>
<path d="M53.5773 197.631C51.0677 197.146 48.5874 196.52 46.1482 195.755C45.5755 189.368 46.2122 182.782 46.0986 176.335C45.9993 170.762 45.8905 165.189 45.7721 159.617C45.5519 149.655 45.2112 139.696 44.7498 129.74C44.3804 121.585 43.6206 113.459 44.2458 105.304C45.9048 107.137 47.8444 108.694 49.9921 109.918C50.5992 110.192 51.1324 110.607 51.548 111.128C51.8126 111.606 51.954 112.143 51.9594 112.69C52.4281 118.121 52.0262 123.878 51.8029 129.31C51.5483 135.518 51.3921 141.728 51.3342 147.94C51.2196 160.364 51.5012 172.783 52.1789 185.198C52.4099 189.428 53.5401 193.428 53.5783 197.626" fill="#3D7EC9"/>
<path d="M47.9185 37.0225C43.8914 38.8809 43.1315 43.9009 41.8887 47.3248C40.0848 52.2839 38.6572 57.372 37.6182 62.5457C41.4375 63.5245 45.3976 63.8339 49.3226 63.4602C49.9984 57.9239 49.0239 52.17 48.622 46.6728C48.5676 45.9292 47.3353 37.2916 47.9176 37.0225" fill="#519CDA"/>
<path d="M82.4567 105.609C75.8017 107.04 67.6767 109.557 60.659 109.719C60.0978 109.733 59.5365 109.733 58.9829 109.712C57.5625 109.664 42.3979 106.552 42.4332 105.532C42.5964 100.259 42.0514 94.9312 42.4332 89.7061C42.9372 82.9175 44.4721 76.4143 44.2802 69.5235C44.1666 65.4944 44.6 61.7975 44.7632 57.7742C44.8911 54.4925 44.4291 51.0924 44.8587 47.8251C45.4157 44.4576 46.1917 41.13 47.182 37.8636C47.2204 37.6773 47.2978 37.5013 47.4092 37.3472C47.5531 37.2054 47.7247 37.0946 47.9132 37.0217C50.3261 35.8565 52.804 34.8309 55.3346 33.95C55.4769 33.9032 55.6258 33.8545 55.768 33.8144C58.581 32.9716 61.5276 31.7555 64.4972 31.9731C65.1996 32.0422 65.8954 32.167 66.5781 32.3464C66.7986 32.3941 67.0114 32.4485 67.2243 32.5029C68.6017 32.8217 69.9161 33.1816 71.2018 33.5901C73.7317 34.3624 76.1835 35.3704 78.525 36.6007C78.8831 36.7523 79.198 36.9904 79.4414 37.2937C79.5937 37.5493 79.6912 37.8337 79.7277 38.1289C80.9925 44.5243 80.5305 51.0609 80.0475 57.6119C79.7497 61.6963 79.6075 65.6987 78.9746 69.7421C78.0659 75.6134 79.3154 78.3329 80.2957 84.0801C81.7275 92.459 81.5747 99.0987 82.4472 105.609" fill="#4C90D4"/>
<path d="M67.2347 32.5019C66.6254 33.6052 66.145 34.7748 65.8029 35.9879L64.6451 37.9113C64.6241 39.1006 64.6031 40.2823 64.5811 41.4717C63.2247 42.5217 61.8397 43.5239 60.533 44.6216C58.354 46.4324 56.3993 48.497 54.7103 50.7717C53.645 47.7727 53.1651 44.5971 53.2966 41.4173C53.4202 38.8067 54.1211 36.2561 55.3489 33.949C55.4911 33.9022 55.64 33.8536 55.7823 33.8135C58.5953 32.9706 61.5429 31.7545 64.5115 31.9722C65.2139 32.0412 65.9097 32.166 66.5923 32.3454C66.8128 32.3931 67.0257 32.4475 67.2385 32.5019" fill="#70ABE1"/>
<path d="M71.2072 33.589C71.0941 33.9349 70.9589 34.2732 70.8025 34.6018C69.6948 36.7461 68.1425 38.6295 66.2494 40.1266C65.7025 40.5886 65.1412 41.0372 64.5732 41.4715C64.5876 40.6124 64.6019 39.7534 64.6229 38.8943C64.978 38.6156 65.3397 38.3302 65.6958 38.0447C67.3719 36.6654 68.8715 35.0618 68.9135 32.9285L68.9421 32.9351C69.3239 33.0373 69.7058 33.1461 70.0876 33.2549C70.4694 33.3637 70.8407 33.4792 71.2101 33.5947" fill="#4C90D4"/>
<path d="M60.6589 109.718C61.7595 100.476 62.5909 91.1664 61.3195 81.9724C60.9004 78.9074 60.0404 75.5579 57.3849 73.7978C54.1672 71.6711 49.7706 72.7478 45.9773 71.841C45.7303 71.8105 45.492 71.731 45.2761 71.6073C45.0603 71.4835 44.8713 71.318 44.7202 71.1203C44.6073 70.8064 44.5895 70.4663 44.6689 70.1423C44.7484 69.8184 44.9216 69.5251 45.1669 69.299C47.7317 66.1319 52.639 65.2556 54.9031 61.8919C55.3669 60.9679 55.9627 60.1165 56.6719 59.3643C57.5404 58.7937 58.5056 58.3861 59.5202 58.1616C60.45 57.9263 61.3202 57.499 62.075 56.9072C62.8297 56.3153 63.4522 55.5721 63.9024 54.7252C64.2807 53.6673 64.4496 52.5459 64.3998 51.4235C64.4564 48.1075 64.513 44.7889 64.5697 41.4677C65.1424 41.0325 65.6998 40.5848 66.2458 40.1228C68.139 38.6257 69.6912 36.7423 70.7989 34.598C70.9553 34.2694 71.0905 33.9311 71.2037 33.5852C73.7335 34.3576 76.1853 35.3655 78.5268 36.5958C78.8849 36.7474 79.1998 36.9855 79.4432 37.2888C79.5955 37.5443 79.6931 37.8288 79.7295 38.124C80.9943 44.5194 80.5323 51.056 80.0493 57.607C79.7515 61.6914 79.6093 65.6938 78.9764 69.7372C78.0677 75.6085 79.3172 78.328 80.2975 84.0752C81.7293 92.4541 81.5766 99.0938 82.449 105.604C75.794 107.036 67.669 109.552 60.6513 109.714" fill="#3D7EC9"/>
<path d="M68.9128 32.855V32.9237C68.8708 35.0571 67.3712 36.6616 65.695 38.0409C65.34 38.3273 64.9772 38.6137 64.6221 38.8905C64.2671 39.1673 63.8977 39.4346 63.5493 39.7056C60.909 41.7453 58.3859 43.9325 55.9922 46.2566C55.302 44.1108 55.039 41.8505 55.2181 39.6035C55.4341 37.689 56.0827 35.8487 57.1147 34.2219C57.2334 31.9744 57.1526 29.7208 56.8733 27.4876L63.4223 24.7481L63.8996 24.5448L68.0117 22.8267C67.9764 23.2342 67.9334 23.6418 67.9162 24.0504C67.7597 25.9394 67.6747 27.836 67.6604 29.7241C67.599 30.703 67.732 31.6844 68.0518 32.6116C68.3381 32.6937 68.6245 32.7748 68.9185 32.8559" fill="#F68A5C"/>
<path d="M68.9128 32.8541C68.8985 35.0218 67.3922 36.6455 65.6951 38.0391C65.6112 36.994 65.4665 35.9547 65.2617 34.9264C65.1982 34.4401 65.0284 33.9738 64.7644 33.5605C64.3261 33.0737 63.7848 32.6909 63.1799 32.4398C61.7175 31.6581 60.2752 30.4353 60.2046 28.8307L63.4214 24.7463L63.5168 24.6174C63.6447 24.5898 63.765 24.5697 63.8929 24.543C65.2121 24.2602 66.5536 24.0941 67.9019 24.0466C67.7454 25.9357 67.6604 27.8323 67.6461 29.7204C67.5847 30.6993 67.7177 31.6806 68.0375 32.6078C68.3238 32.6899 68.6102 32.7711 68.9042 32.8522" fill="#ED7A54"/>
<path d="M85.32 63.8765C81.3688 64.6378 77.3167 64.7204 73.3377 64.1208C73.1106 64.0865 72.8757 64.0464 72.6553 63.9986C72.5534 57.9757 72.7643 51.9515 73.2872 45.9504C73.6026 43.0351 74.7378 40.2689 76.5612 37.9724C76.8292 37.6145 77.1644 37.3123 77.5482 37.0828C77.6252 37.037 77.706 36.9981 77.7897 36.9663C78.201 36.83 78.6414 36.8067 79.0649 36.8987C79.4883 36.9907 79.8793 37.1947 80.197 37.4894C82.1419 39.3344 83.5089 41.7049 84.1316 44.3124C84.92 47.6695 85.0861 58.2094 85.3181 63.8803" fill="#4C90D4"/>
<path d="M85.3201 63.8764C81.3689 64.6378 77.3168 64.7204 73.3378 64.1208C73.5287 63.4889 73.8705 62.8799 74.1253 62.2595C74.3805 61.814 74.4991 61.3033 74.4664 60.7909C74.4336 60.2785 74.251 59.7871 73.9411 59.3777C73.7502 59.1868 73.5154 59.0522 73.3302 58.8613C72.5131 58.0022 73.1097 56.5704 74.0404 55.8373C74.971 55.1043 76.1852 54.7024 77.0099 53.8529C78.1554 52.6845 78.3024 50.9311 78.3596 49.3274C78.4379 46.9764 78.4551 44.6178 78.3949 42.2639C78.4435 40.4979 78.1565 38.7388 77.5492 37.0798C77.6262 37.0341 77.707 36.9951 77.7907 36.9634C78.2021 36.8271 78.6425 36.8038 79.0659 36.8958C79.4894 36.9878 79.8804 37.1918 80.1981 37.4865C82.143 39.3315 83.5099 41.7019 84.1326 44.3094C84.9211 47.6665 85.0872 58.2065 85.3191 63.8774" fill="#3D7EC9"/>
<path d="M83.8139 57.1555C83.0467 57.6249 82.2086 57.9668 81.3321 58.1683C79.528 58.6847 77.7163 59.2011 75.9122 59.7108C78.2423 59.6153 80.579 59.5132 82.909 59.4187C83.1232 59.3805 83.3439 59.4241 83.5275 59.5409C83.5956 59.5992 83.6431 59.6778 83.663 59.7652C83.6906 59.8883 83.6783 60.0171 83.6277 60.1327C83.5245 60.325 83.3724 60.4867 83.1867 60.6014C82.2666 61.1469 81.2346 61.4766 80.1685 61.5655C78.6775 61.7907 77.178 61.9807 75.6822 62.1162L80.2 62.2794C80.4864 62.2861 80.8462 62.3405 80.9636 62.6059C80.9928 62.7141 80.9841 62.8291 80.9389 62.9317C80.8938 63.0343 80.8149 63.1184 80.7155 63.17C80.5087 63.2771 80.2801 63.3353 80.0473 63.3399C78.2474 63.3652 76.4531 63.5473 74.6847 63.884C72.868 64.4706 70.9389 64.622 69.053 64.326C68.5051 64.2172 67.9591 64.0539 67.4045 63.9518C65.2854 63.5225 63.0845 63.7849 61.1256 64.7001C56.9772 66.4527 52.9004 68.4304 48.5391 69.6809C45.8187 70.4626 42.1609 71.4554 39.305 70.5171C38.2755 70.1942 37.3641 69.575 36.6848 68.7369C36.4257 68.4376 36.2308 68.0883 36.1121 67.7107C36.0288 67.3431 36.0024 66.9648 36.0338 66.5892C36.0977 65.0132 36.0338 62.7367 37.5754 61.6829C38.126 61.3699 38.7407 61.1865 39.3728 61.1464C42.5335 60.7048 45.6991 60.3128 48.8694 59.9704C49.6149 59.8817 50.368 59.8005 51.1135 59.7261C54.629 59.3662 58.4863 59.4607 61.8673 58.4079C62.4584 58.2173 63.033 57.9788 63.5854 57.6948C64.3358 57.2992 65.1091 56.9486 65.9011 56.6449C68.0748 56.0394 70.1924 55.2483 72.2306 54.2805C72.2869 54.8379 72.0741 55.5309 72.1352 56.0941C74.5215 55.2656 76.8868 54.3272 79.2798 53.5054C80.0155 53.2138 80.7853 53.0172 81.5707 52.9203C81.7037 52.8953 81.8405 52.8988 81.9721 52.9303C82.1037 52.9619 82.2271 53.0209 82.3343 53.1035C82.432 53.2218 82.4842 53.3711 82.4814 53.5244C82.4786 53.6778 82.421 53.8251 82.3191 53.9397C82.1044 54.1705 81.84 54.3493 81.5459 54.4628C81.5459 54.6871 78.9601 55.6865 78.6479 55.8354C77.6478 56.2485 76.6708 56.7157 75.7213 57.2347C76.0907 57.398 76.9069 57.0782 77.3116 56.9971L79.1376 56.6296C80.3518 56.3919 81.5659 56.1475 82.7887 55.9022C83.189 55.7745 83.6214 55.7914 84.0105 55.95C84.1496 56.0241 84.2559 56.1477 84.3083 56.2964C84.4038 56.6296 84.1098 56.9494 83.8186 57.1555" fill="#F89A72"/>
<path d="M84.1509 60.1318C84.0479 60.324 83.8961 60.4856 83.7108 60.6005C82.7903 61.146 81.758 61.4756 80.6917 61.5646C79.2007 61.7898 77.7011 61.9798 76.2054 62.1153L80.7222 62.2785C81.0086 62.2852 81.3684 62.3396 81.4858 62.605C81.5149 62.7131 81.5062 62.8279 81.461 62.9303C81.4159 63.0328 81.3371 63.1167 81.2376 63.1682C81.0309 63.2753 80.8023 63.3334 80.5695 63.3381C78.7695 63.3634 76.9752 63.5454 75.2069 63.8821C73.3902 64.4687 71.4611 64.6201 69.5752 64.3241C69.0282 64.2153 68.4813 64.0521 67.9267 63.9499C65.8076 63.5207 63.6066 63.783 61.6478 64.6983C57.4994 66.4508 53.4226 68.4286 49.0613 69.679C46.3409 70.4608 42.6831 71.4535 39.8281 70.5152C42.2075 69.7134 44.5893 68.9093 46.9737 68.1031C47.6742 67.9257 48.322 67.583 48.8628 67.1037C49.482 66.2788 49.7559 65.2453 49.6264 64.222C49.6121 62.8016 49.5414 61.3813 49.3925 59.9676C49.3715 59.6889 49.3429 59.4178 49.3066 59.1391C51.1746 58.7181 52.0557 59.4789 53.7748 59.5209C55.6839 59.5619 57.5032 58.4337 59.2929 57.9383C60.8643 57.5244 62.5044 57.4412 64.1095 57.6939C66.1829 58.0284 68.2124 58.5935 70.1603 59.3787C71.5986 59.9899 73.0959 60.4521 74.6285 60.758C77.8099 61.2686 80.9857 60.3036 84.1891 59.7662C84.2166 59.8893 84.2043 60.0181 84.1537 60.1337" fill="#ED7A54"/>
<path d="M84.1337 64.0939C84.2065 65.8505 83.799 67.5936 82.9548 69.1357C82.0719 70.266 80.8233 71.054 79.4231 71.3646C77.9342 71.888 76.3627 72.1367 74.785 72.0986C71.5253 71.9077 68.7046 69.9166 65.9355 68.1975C63.407 66.6282 60.7572 65.2212 58.1647 63.7465C55.9349 62.4827 53.3138 60.1106 50.6077 60.0763C50.0871 60.0798 49.5674 60.1206 49.0527 60.1985C48.5334 60.2662 48.0151 60.355 47.4968 60.4228C46.3365 60.5767 45.1644 60.6221 43.9956 60.5583C44.2161 60.3817 44.4356 60.2118 44.6561 60.0352C45.3024 59.5255 45.9553 59.0158 46.6024 58.508C48.7473 56.8299 51.2691 54.961 54.1881 54.9409C55.3813 54.9917 56.5588 55.2327 57.676 55.6549C64.0618 57.7339 70.0639 60.9478 76.5337 62.6812C76.6902 62.7222 78.3301 63.2253 80.0502 63.6529C82.0318 64.1626 84.1194 64.5769 84.1337 64.0949" fill="#F89A72"/>
<path d="M84.1337 64.094C84.2065 65.8506 83.7989 67.5937 82.9548 69.1358C82.0718 70.2661 80.8233 71.054 79.4231 71.3647C77.9342 71.8882 76.3627 72.1368 74.785 72.0987C71.5253 71.9078 68.7046 69.9167 65.9346 68.1975C63.406 66.6283 60.7562 65.2213 58.1637 63.7466C55.9339 62.4828 53.3128 60.1107 50.6067 60.0764C50.0861 60.0799 49.5665 60.1208 49.0518 60.1986C51.7302 59.8168 52.5263 59.3739 55.1856 60.1728C60.2526 61.6933 65.0791 63.9229 69.5217 66.7953C71.5663 68.1202 74.0911 69.6417 76.3113 68.6089C78.3788 67.6439 77.8796 64.7402 79.277 63.906C79.7829 63.6043 84.1155 64.6285 84.1318 64.0969" fill="#F68A5C"/>
<path d="M53.5706 9.12928L52.5455 16.1928L52.5712 19.4201L52.3364 16.6357C51.575 14.049 51.4367 11.3187 51.9327 8.66821L53.5706 9.13021" fill="#7E4C2C"/>
<path d="M52.6972 10.6871C52.7146 12.8931 52.5784 15.0977 52.2896 17.2848C52.1866 17.2067 52.0573 17.1719 51.929 17.1875C51.8007 17.2032 51.6836 17.2682 51.6024 17.3688C51.4477 17.5723 51.3585 17.8179 51.3466 18.0732C51.1748 19.3309 51.1748 20.606 51.3466 21.8637C51.3672 22.203 51.4776 22.5307 51.6663 22.8134C51.7601 22.9229 51.8776 23.0093 52.01 23.0663C52.1424 23.1232 52.286 23.149 52.4299 23.1418C52.5741 24.4528 52.9239 25.733 53.4666 26.9351C54.0863 28.3659 55.1467 29.5615 56.4934 30.3475C58.9637 31.7469 62.2263 31.2362 64.6594 29.7281C66.6639 28.4872 69.1581 25.9166 69.1686 23.516C72.414 23.8214 73.3686 16.063 69.9809 17.4919C70.2673 17.3726 70.127 15.0913 70.1423 14.7887C70.2887 13.2311 70.2887 11.6633 70.1423 10.1057C70.0842 9.34942 69.8431 8.61854 69.4397 7.97616C68.8437 7.27659 68.0885 6.73024 67.2376 6.38304C66.3798 5.90741 65.4698 5.53267 64.5258 5.26625C63.6966 5.08802 62.8501 5.00252 62.002 5.01136C59.9401 5.0433 57.9099 5.52378 56.0524 6.41934C54.2541 7.15051 52.701 8.78181 52.6953 10.6871" fill="#F89A72"/>
<path d="M71.0605 9.92332C70.5661 10.5782 69.9 11.0833 69.1361 11.3828C68.0928 11.6854 66.9894 11.2272 65.9003 11.1661C64.1124 11.064 62.4754 12.0252 60.9262 12.8843C59.377 13.7433 57.5958 14.5595 55.8605 14.1366C55.2659 13.97 54.6975 13.7209 54.1719 13.3968C53.4245 12.9711 52.6303 12.4127 52.5034 11.589C52.3564 10.6411 53.1582 9.81544 53.9466 9.22554C55.9668 7.62112 58.4507 6.71123 61.0293 6.6311L71.0605 9.92047" fill="#F68A5C"/>
<path d="M55.6226 18.2564C56.1744 18.3519 56.1858 17.0852 56.1171 16.8246C56.0937 16.7036 56.0373 16.5913 55.9541 16.5004C55.8708 16.4094 55.7641 16.3432 55.6456 16.3091C54.7177 16.1335 55.1902 17.824 55.4336 18.1228C55.479 18.1893 55.5468 18.2374 55.6246 18.2583" fill="#040606"/>
<path d="M55.4244 16.629C55.2421 16.6538 55.2716 17.0843 55.4186 17.1368C55.6554 17.2199 55.748 16.5841 55.4244 16.629Z" fill="white"/>
<path d="M63.9175 18.2564C64.4693 18.3519 64.4807 17.0852 64.411 16.8246C64.3876 16.7036 64.3312 16.5913 64.248 16.5004C64.1648 16.4094 64.058 16.3432 63.9395 16.3091C63.0117 16.1335 63.4842 17.824 63.7276 18.1228C63.7729 18.1894 63.8407 18.2375 63.9185 18.2583" fill="#040606"/>
<path d="M63.7393 16.648C63.557 16.6728 63.5866 17.1033 63.7336 17.1549C63.9713 17.2389 64.0629 16.6032 63.7393 16.648Z" fill="white"/>
<path d="M55.7754 13.8263C55.4536 13.7772 55.1246 13.8205 54.8265 13.9511C54.5284 14.0817 54.2735 14.2943 54.0916 14.5642C54.0171 14.6654 53.9761 14.8401 54.0916 14.8859C54.1737 14.9164 54.2577 14.8534 54.3254 14.8C54.8976 14.4611 55.5745 14.345 56.2269 14.4735C56.3462 14.4926 56.5132 14.4907 56.5352 14.378C56.5356 14.3478 56.529 14.3178 56.5159 14.2905C56.5028 14.2632 56.4836 14.2392 56.4598 14.2206C56.2731 14.0255 56.0336 13.8891 55.7706 13.8282" fill="#6F3F26"/>
<path d="M63.0683 13.8751C63.3846 13.7952 63.7172 13.8066 64.0274 13.9079C64.3375 14.0093 64.6126 14.1965 64.8208 14.4478C64.9067 14.5432 64.9659 14.7112 64.8504 14.7685C64.7721 14.8076 64.6814 14.7523 64.6089 14.7055C64.0057 14.4242 63.3202 14.3742 62.6826 14.5651C62.5662 14.5957 62.3963 14.611 62.3657 14.4993L62.4239 14.3361C62.5894 14.1236 62.8139 13.9645 63.0692 13.8788" fill="#6F3F26"/>
<path d="M60.9069 25.928C60.1485 26.2093 59.3423 26.339 58.534 26.3098C58.0807 26.3444 57.6261 26.2643 57.2119 26.0769C57.1432 26.0387 57.0716 25.9815 57.0649 25.9099C57.0666 25.8705 57.0812 25.8327 57.1063 25.8024C57.1315 25.7721 57.1659 25.7508 57.2043 25.7419C57.2832 25.7245 57.365 25.7245 57.4439 25.7419C57.953 25.8288 58.4691 25.8678 58.9855 25.8583C59.774 25.7337 60.5462 25.5218 61.2878 25.2264C61.4052 25.194 61.556 25.1701 61.6295 25.2646C61.6524 25.3005 61.6627 25.343 61.6588 25.3853C61.6548 25.4277 61.6368 25.4675 61.6076 25.4985C61.4103 25.6931 61.1704 25.8392 60.9069 25.9251" fill="#975A44"/>
<path d="M60.2229 22.6845C59.9094 22.8626 59.5525 22.9496 59.1923 22.9358C58.8321 22.922 58.4828 22.8079 58.184 22.6063C58.0851 22.5478 58.0093 22.4572 57.9692 22.3495C57.9529 22.2953 57.9583 22.2369 57.9843 22.1866C58.0103 22.1364 58.0549 22.0983 58.1086 22.0803L58.2479 22.0851C58.7505 22.2624 59.2912 22.3023 59.8143 22.2006C60.0148 22.1366 60.2839 22.0612 60.4004 22.2302C60.5025 22.3791 60.3708 22.5757 60.2229 22.6836" fill="#F68A5C"/>
<path d="M69.2545 9.64836C69.1161 9.89081 69.1714 18.7574 69.1724 18.9312L69.8778 18.9235C70.0076 17.8459 69.81 17.277 71.1377 17.3724C71.7191 15.6772 74.2772 12.9472 72.3567 10.264C71.7754 9.45073 70.0935 8.73201 69.2545 9.64836" fill="#552E1B"/>
<path d="M71.5263 9.5606C71.4988 9.86361 71.3862 10.1527 71.2015 10.3944C71.0167 10.6361 70.7672 10.8206 70.482 10.9266C69.6939 11.0419 68.8918 10.8468 68.2446 10.3825C66.2522 9.45793 63.9882 9.3029 61.8884 9.94721C58.5427 10.9457 54.3877 14.2826 51.2415 11.4009C50.5002 10.6732 50.0326 9.71219 49.9175 8.67982C49.8023 7.64745 50.0468 6.60699 50.6096 5.7339L50.7051 5.59163C50.9279 5.2078 51.2887 4.92342 51.714 4.7965C52.1752 4.76905 52.636 4.85525 53.0561 5.04754C54.6683 5.51622 56.3511 4.78221 57.8927 4.24577C59.3547 3.72186 60.9138 3.52476 62.4601 3.66829C65.0017 3.82394 67.4329 4.76182 69.4206 6.35338C69.8812 6.71513 70.3107 7.11491 70.7044 7.54847C70.9732 7.80881 71.1852 8.12197 71.327 8.46828C71.4687 8.81459 71.5373 9.1865 71.5282 9.5606" fill="#6F3F26"/>
<path d="M64.1183 5.76822C64.8974 5.91145 65.6482 6.17998 66.3414 6.56335C65.1459 6.55386 63.9645 6.82147 62.8898 7.34514C61.8036 7.81382 60.7736 8.40559 59.6587 8.81318C57.6188 9.56154 55.4059 9.7031 53.2872 9.22077C52.4965 9.09492 51.767 8.7185 51.2063 8.14692C50.7562 7.51536 50.5424 6.74577 50.6021 5.97254C50.6021 5.89045 50.6098 5.81599 50.6098 5.7339L50.7052 5.59163C50.928 5.2078 51.2889 4.92342 51.7142 4.7965C52.1753 4.76913 52.6361 4.85533 53.0562 5.04754C54.6684 5.51622 56.3513 4.78221 57.8928 4.24577C59.3548 3.72186 60.9139 3.52476 62.4603 3.66829C65.0019 3.82394 67.4331 4.76182 69.4207 6.35338C69.0528 6.21067 68.6751 6.09454 68.2906 6.00592C66.919 5.72976 65.5152 5.64971 64.1212 5.76822" fill="#7E4C2C"/>
<path d="M71.4478 18.8369C71.5635 19.2653 71.5872 19.7135 71.5173 20.1518C71.4473 20.59 71.2854 21.0086 71.0421 21.3798C71.0239 21.4243 70.9963 21.4644 70.9612 21.4974C70.9261 21.5303 70.8844 21.5553 70.8388 21.5706C70.6593 21.606 70.5524 21.3797 70.5524 21.2051C70.5535 20.9851 70.6146 20.7696 70.729 20.5818C70.8416 20.3975 71.0153 20.219 70.9943 20.009C70.9791 19.8181 70.813 19.6692 70.6851 19.5165C70.6014 19.3993 70.5498 19.2622 70.5354 19.1189C70.521 18.9756 70.5443 18.831 70.603 18.6994C70.6281 18.6228 70.6747 18.555 70.7374 18.5042C70.8 18.4534 70.876 18.4218 70.9562 18.4131C71.1929 18.4045 71.3475 18.6412 71.4506 18.8455" fill="#ED7A54"/>
<path d="M119.09 202.67C118.407 203.017 117.52 202.738 116.83 203.064C115.651 203.637 115.986 205.123 115.189 205.928C114.383 206.509 113.426 206.844 112.434 206.893C109.409 207.478 106.297 207.443 103.286 206.791C103.119 206.762 102.959 206.7 102.817 206.608C102.719 206.515 102.64 206.403 102.585 206.279C102.53 206.156 102.5 206.022 102.497 205.887C102.41 205.429 102.353 204.966 102.327 204.501C102.326 204.123 102.459 203.757 102.703 203.468C103.077 203.075 103.509 202.741 103.982 202.476C106.028 201.172 108.904 199.136 109.799 196.856C109.895 196.619 110.026 195.52 110.212 194.416C110.411 193.176 110.674 191.942 110.986 191.97L118.908 192.616C118.947 192.589 118.992 192.571 119.038 192.562C119.084 192.552 119.132 192.552 119.179 192.562C119.225 192.571 119.269 192.59 119.308 192.617C119.347 192.644 119.38 192.678 119.406 192.718C119.91 193.629 119.477 196.014 119.501 197.06C119.53 198.405 120.702 201.865 119.09 202.673" fill="#22313C"/>
<path d="M114.196 198.239C114.005 198.776 113.407 199.048 112.924 199.385C112.501 199.68 112.143 200.06 111.874 200.501C111.605 200.942 111.431 201.434 111.362 201.946C111.365 202.329 111.29 202.708 111.141 203.061C110.94 203.316 110.686 203.525 110.397 203.673C110.108 203.822 109.79 203.906 109.465 203.92C107.11 204.343 104.72 204.536 102.327 204.497C102.326 204.119 102.459 203.753 102.703 203.464C103.077 203.072 103.509 202.737 103.982 202.473C106.028 201.168 108.904 199.132 109.799 196.852C109.895 196.615 110.026 195.516 110.212 194.413C110.638 194.616 111.071 194.82 111.497 195.031C112.655 195.589 113.933 196.288 114.218 197.498C114.282 197.742 114.274 197.999 114.196 198.238" fill="#34434E"/>
<path d="M155.433 205.884C155.43 206.019 155.401 206.153 155.346 206.276C155.291 206.4 155.213 206.512 155.115 206.605C154.972 206.697 154.812 206.759 154.645 206.788C151.634 207.44 148.522 207.475 145.497 206.89C145.142 206.822 144.759 206.768 144.382 206.687C143.771 206.596 143.198 206.331 142.734 205.923C141.946 205.121 142.28 203.632 141.101 203.06C140.412 202.734 139.524 203.012 138.843 202.665C137.23 201.857 138.402 198.398 138.43 197.053C138.438 196.665 138.381 196.098 138.335 195.49C138.179 194.562 138.242 193.61 138.519 192.711C138.544 192.671 138.578 192.636 138.617 192.609C138.656 192.582 138.7 192.563 138.746 192.554C138.792 192.544 138.84 192.544 138.887 192.554C138.933 192.563 138.977 192.582 139.016 192.609L146.939 191.962C147.528 191.916 147.933 196.353 148.125 196.849C149.012 199.125 151.897 201.164 153.941 202.469C154.415 202.733 154.846 203.068 155.22 203.461C155.831 204.187 155.526 205.044 155.426 205.879" fill="#22313C"/>
<path d="M125.92 131.359C125.729 135.994 123.629 140.268 123.618 145.079C123.597 150.346 124.477 155.367 123.775 160.628C123.072 165.922 122.894 171.344 122.482 176.672C122.021 182.645 121.559 188.618 121.097 194.591C121.097 194.591 118.425 195.244 113.072 194.645C111.169 194.429 109.279 194.11 107.411 193.691C107.553 184.814 108.966 134.938 109.243 125.112C109.278 124.024 109.293 123.427 109.293 123.427C109.293 123.427 126.268 123.203 126.445 123.427C127.263 124.44 125.968 130.127 125.92 131.364" fill="#234E77"/>
<path d="M113.736 133.648C113.515 153.979 113.292 174.311 113.068 194.642C111.165 194.426 109.276 194.107 107.407 193.688C107.549 184.811 108.962 134.935 109.239 125.108C110.369 126.65 112.343 127.921 113.174 129.695C113.659 130.954 113.851 132.306 113.735 133.65" fill="#335C8E"/>
<path d="M149.47 193.686C146.839 194.285 144.164 194.671 141.472 194.842C139.572 195.009 137.66 194.925 135.783 194.59C135.349 189.054 134.921 183.516 134.497 177.975C133.716 167.851 132.189 157.535 133.19 147.43C133.53 142.382 132.999 137.313 131.621 132.444C131.32 131.277 131.078 130.095 130.896 128.904C130.754 127.949 130.648 126.987 130.577 125.954C130.548 125.581 130.172 123.732 130.434 123.426C130.619 123.202 147.587 123.426 147.587 123.426C147.587 123.426 149.313 183.831 149.47 193.691" fill="#234E77"/>
<path d="M141.472 194.842C139.573 195.009 137.66 194.924 135.783 194.59C135.35 189.054 134.921 183.515 134.497 177.975C133.717 167.851 132.189 157.535 133.191 147.43C133.531 142.382 133 137.313 131.621 132.444C131.321 131.277 131.079 130.095 130.897 128.904C133.527 133.103 135.388 137.738 136.394 142.59C136.876 145.556 137.163 148.55 137.253 151.553C138.057 166.027 139.718 180.448 141.472 194.848" fill="#335C8E"/>
<path d="M149.547 103.396C150.449 110.775 149.916 118.468 149.916 125.943C149.916 125.943 138.271 127.513 131.187 127.981C129.946 128.063 128.836 128.111 127.961 128.111C122.109 128.111 106.057 125.943 106.057 125.943C106.057 114.431 106.71 103.246 107.783 91.7708C108.194 86.6188 108.275 81.4458 108.025 76.2835L108.017 76.1136C108.017 76.0057 108.017 75.8969 108.011 75.7881C107.79 69.3736 105.823 63.0126 106.058 56.6793C106.484 49.6766 107.738 42.749 109.794 36.0413C115.534 33.4099 121.69 31.8002 127.984 31.2849C134.28 31.7998 140.438 33.4094 146.181 36.0413C148.198 40.7921 148.326 46.2682 149.015 51.2976C149.397 54.0496 149.69 56.8836 149.903 59.7233C150.102 62.2786 150.236 64.8472 150.308 67.3596C150.649 79.4353 148.077 91.3183 149.544 103.397" fill="#C6E4F7"/>
<path d="M109.923 39.5005C111.776 45.1335 113.356 50.8394 114.664 56.6181C115.133 59.3463 115.968 61.9989 117.145 64.5045C117.606 65.1869 117.91 65.9626 118.035 66.7762L115.171 67.4091C114.378 67.6278 113.557 67.7243 112.734 67.6955C112.1 67.6396 111.489 67.4319 110.952 67.09C110.414 66.7481 109.968 66.282 109.648 65.731L109.917 39.5024" fill="#ACDBF5"/>
<path d="M149.546 103.396C150.448 110.775 149.916 118.468 149.916 125.943C149.916 125.943 138.27 127.513 131.186 127.981C131.228 127.217 131.281 126.454 131.349 125.684C132.123 115.837 133.295 106.005 133.388 96.1167C133.409 93.6092 133.366 91.0949 133.225 88.5874C133.119 86.7528 133.352 84.2175 132.756 82.4784C131.691 79.3656 125.024 78.5915 122.161 78.3128C117.401 77.8508 112.444 78.0341 108.026 76.2806C107.948 76.2539 107.869 76.2262 107.792 76.1918C107.87 76.1651 107.942 76.1374 108.019 76.1097C114.526 73.8569 120.636 70.5914 126.125 66.4336C126.221 66.3791 126.305 66.3059 126.372 66.2184C126.439 66.1308 126.488 66.0307 126.515 65.9239C126.509 65.7403 126.439 65.5647 126.317 65.4276C125.442 64.1561 124.562 62.879 123.689 61.6094C125.33 60.8529 126.714 59.6342 127.673 58.1025C128.369 56.9408 129.91 55.3343 129.811 53.9302C131.051 54.8791 132.509 55.5026 134.051 55.7438C134.753 55.7854 135.456 55.6958 136.125 55.4794C142.361 53.6658 143.796 47.0318 145.906 41.925C147.191 43.3454 147.497 45.3232 147.767 47.175C148.385 51.3673 149.117 55.5472 149.905 59.7194C150.104 62.2747 150.238 64.8434 150.31 67.3557C150.651 79.4315 148.079 91.3145 149.546 103.393" fill="#ACDBF5"/>
<path d="M134.897 38.4542L127.26 59.1294C127.26 59.1294 127.182 58.9194 127.046 58.5385C125.733 54.9027 118.815 35.7329 118.985 35.583L123.757 36.4421L134.897 38.4542Z" fill="#2D74C3"/>
<path d="M134.901 38.4573L127.258 59.1296C127.258 59.1296 127.18 58.9196 127.045 58.5387C127.109 53.5036 128.501 48.3854 127.14 43.5277C126.741 44.2249 126.269 44.8785 125.734 45.4779C125.173 44.8393 124.612 44.2074 124.058 43.5688L123.752 36.447L134.897 38.4582" fill="#266ABD"/>
<path d="M127.257 59.1304L117.616 32.9685L114.995 41.2252L118.76 44.0468L117.083 49.2557L127.259 59.1304" fill="white"/>
<path d="M127.257 59.1304L136.416 32.3596L139.521 41.2253L135.756 44.0469L137.433 49.2558L127.257 59.1304" fill="#DCEFFB"/>
<path d="M134.341 30.2292C129.624 29.9252 124.892 29.9252 120.174 30.2292L118.982 32.5286L119.586 33.9184L134.34 33.4851V30.2292" fill="#2D74C3"/>
<path d="M135.916 32.7825C135.916 32.7825 132.862 39.5235 127.993 40.4074C127.753 40.46 127.508 40.4919 127.262 40.5028C121.97 40.7891 120.657 39.8098 120.053 33.2388C122.368 32.7491 122.205 31.1865 121.866 27.5507C121.818 27.0477 121.771 26.5113 121.717 25.928C121.661 25.2074 121.604 24.4189 121.569 23.5637L126.597 23.305L131.853 23.033L131.96 26.8177C132.055 30.6091 132.762 33.0154 135.923 32.7844" fill="#F68A5C"/>
<path d="M135.917 32.7825C135.917 32.7825 132.862 39.5234 127.994 40.4073C128.306 39.6122 128.626 38.8238 128.939 38.0363C129.834 35.7664 127.938 33.0889 126.297 31.5187C124.865 30.1528 123.009 29.0866 121.864 27.5498C121.815 27.0467 121.769 26.5103 121.715 25.9271L126.595 23.304L131.851 23.032L131.957 26.8167C132.053 30.6081 132.76 33.0145 135.921 32.7835" fill="#ED7A54"/>
<path d="M116.534 7.5294L117.081 14.2207C113.94 12.4939 112.847 19.065 117.081 20.68C116.945 24.7769 121.451 29.0894 125.822 29.351C130.193 29.6125 135.024 23.7803 134.89 20.7755C138.373 21.1019 138.988 12.8051 135.437 14.3314C135.733 14.2035 135.413 12.2382 135.413 11.9146C135.487 10.2414 135.405 8.5649 135.167 6.90707C135.061 6.09031 134.765 5.30988 134.302 4.62864C133.629 3.88222 132.794 3.29967 131.861 2.9257C130.922 2.41888 129.93 2.01838 128.902 1.7316C128.01 1.54186 127.1 1.45066 126.188 1.45958C124.007 1.48883 121.859 2.00336 119.901 2.96584C118.017 3.7476 116.443 5.49342 116.539 7.53039" fill="#F89A72"/>
<path d="M127.72 19.6931C127.691 20.4042 127.008 20.7755 126.336 20.8385C126.012 20.8787 125.684 20.8377 125.381 20.7192C125.252 20.6553 124.721 19.9556 124.84 19.9709C125.323 20.0349 125.81 20.0604 126.297 20.0472C126.787 20.0157 127.233 19.7609 127.719 19.6979" fill="#F68A5C"/>
<path d="M126.031 23.5531L126.146 23.5598C127.068 23.4985 127.973 23.2769 128.819 22.9049C128.889 22.8706 128.969 22.8651 129.042 22.8896C129.081 22.9152 129.109 22.9552 129.119 23.0009C129.129 23.0466 129.121 23.0944 129.096 23.134C129.041 23.2124 128.966 23.2742 128.879 23.3125C128.114 23.7702 127.244 24.0242 126.352 24.0504C125.461 24.0767 124.578 23.8742 123.787 23.4624C123.654 23.3879 123.513 23.219 123.624 23.1178C123.66 23.0959 123.699 23.0824 123.74 23.0783C123.782 23.0741 123.823 23.0795 123.862 23.0939C124.587 23.1798 125.305 23.5015 126.034 23.555" fill="#975A44"/>
<path d="M126.045 25.1013C126.306 25.1226 126.569 25.0931 126.819 25.0144C126.957 24.9705 127.115 24.8636 127.077 24.7281C127.039 24.5925 126.866 24.5792 126.73 24.5811L125.98 24.5944C125.818 24.5687 126.043 24.5553 125.884 24.6078C125.807 24.6277 125.74 24.6754 125.695 24.7419C125.651 24.8083 125.633 24.8887 125.644 24.9677C125.711 25.1987 126.051 25.1939 126.295 25.1395" fill="#F68A5C"/>
<path d="M121.864 13.3015C120.835 13.6833 121.748 15.9341 122.524 14.9776C122.896 14.5185 122.752 12.9731 121.864 13.3015Z" fill="#202021"/>
<path d="M121.872 13.627C121.569 13.7406 121.838 14.404 122.063 14.1215C122.173 13.9859 122.13 13.5287 121.872 13.627Z" fill="white"/>
<path d="M129.989 13.3015C128.959 13.6833 129.873 15.9341 130.648 14.9776C131.02 14.5185 130.876 12.9731 129.989 13.3015Z" fill="#202021"/>
<path d="M129.907 13.627C129.604 13.7406 129.873 14.404 130.098 14.1215C130.208 13.9859 130.165 13.5287 129.907 13.627Z" fill="white"/>
<path d="M116.555 17.4852C116.694 17.2752 116.77 17.0302 116.774 16.7788C116.755 16.6511 116.723 16.5257 116.679 16.4046C116.633 16.1556 116.563 15.9116 116.47 15.6763C116.417 15.5571 116.331 15.4561 116.221 15.3864C116.111 15.3166 115.983 15.2813 115.853 15.2849C114.874 15.4052 115.237 17.5071 115.452 18.0378C115.549 18.2979 115.722 18.5229 115.948 18.6838C116.174 18.8448 116.443 18.9343 116.721 18.9408C116.678 18.2383 116.155 18.2268 116.552 17.4861" fill="#F68A5C"/>
<path d="M135.406 17.4851C135.268 17.2749 135.192 17.0301 135.187 16.7787C135.206 16.6512 135.238 16.5259 135.282 16.4046C135.329 16.1557 135.399 15.9118 135.492 15.6763C135.544 15.5572 135.63 15.4563 135.74 15.3866C135.85 15.3169 135.978 15.2815 136.108 15.2849C137.087 15.4052 136.725 17.5071 136.509 18.0378C136.412 18.2979 136.239 18.523 136.013 18.684C135.787 18.8449 135.518 18.9344 135.24 18.9408C135.284 18.2382 135.806 18.2268 135.409 17.4861" fill="#F68A5C"/>
<path d="M117.394 10.0112C117.397 10.13 117.431 10.246 117.492 10.3482C117.553 10.4504 117.638 10.5355 117.741 10.5954C118.386 10.9988 119.122 11.2348 119.881 11.282C120.641 11.3292 121.4 11.186 122.09 10.8655C123.448 10.213 124.762 9.47098 126.022 8.64429C128.657 7.20327 131.671 6.60806 134.656 6.93949C132.866 5.76699 130.949 4.80031 128.942 4.05777C126.909 3.31043 124.714 3.10997 122.579 3.47645C121.529 3.65812 120.528 4.05864 119.643 4.65197C118.758 5.24529 118.007 6.01813 117.44 6.92038L117.394 10.0121" fill="#F68A5C"/>
<path d="M120.714 11.5728C120.958 11.3074 121.267 11.1095 121.61 10.9983C121.953 10.8871 122.319 10.8664 122.672 10.938C123.522 11.1795 123.334 12.0835 122.526 11.652C122.286 11.5335 122.012 11.5046 121.752 11.5706C121.493 11.6366 121.266 11.7931 121.111 12.0119C121.016 12.1245 120.904 12.2658 120.751 12.2601C120.677 12.2498 120.611 12.2116 120.565 12.1534C120.519 12.0952 120.498 12.0216 120.505 11.9479C120.531 11.8023 120.604 11.6695 120.714 11.5709" fill="#202021"/>
<path d="M131.361 11.5728C131.117 11.3074 130.809 11.1096 130.466 10.9983C130.123 10.8871 129.758 10.8664 129.404 10.938C128.555 11.1795 128.743 12.0835 129.549 11.652C129.789 11.5333 130.064 11.5043 130.323 11.5703C130.583 11.6363 130.81 11.793 130.964 12.0119C131.059 12.1245 131.171 12.2658 131.326 12.2601C131.399 12.2496 131.465 12.2113 131.511 12.1531C131.556 12.0949 131.578 12.0214 131.57 11.9479C131.545 11.8022 131.471 11.6693 131.361 11.5709" fill="#202021"/>
<path d="M118.176 6.28649V17.1977H117.317L116.916 14.2206L116.057 5.69946L118.174 6.28742" fill="#121313"/>
<path d="M134.156 6.41932C134.02 6.67991 134.567 16.3465 134.567 16.3465H135.317C135.317 16.3465 135.999 9.35549 135.727 7.13429C135.455 4.91309 134.156 6.41647 134.156 6.41647" fill="#121313"/>
<path d="M136.585 6.3085V6.32953C136.572 6.64819 136.467 6.95612 136.281 7.21555C136.096 7.47498 135.838 7.6746 135.541 7.78994C134.689 7.90619 133.825 7.69765 133.12 7.20576C130.978 6.22204 128.55 6.05502 126.294 6.73613C124.085 7.40907 122.094 8.74069 119.809 9.21032C118.894 9.42949 117.936 9.39183 117.041 9.10149C116.597 8.95661 116.193 8.71054 115.86 8.38273C115.527 8.05492 115.275 7.65432 115.124 7.21246C115.05 6.96773 115.014 6.71308 115.017 6.45741C115.109 5.77477 115.341 5.11862 115.699 4.53029C116.057 3.94195 116.533 3.43423 117.098 3.03924C119.778 0.903879 123.151 -0.170154 126.573 0.0219506C129.988 0.249654 133.2 1.72795 135.594 4.1742C135.862 4.44716 136.091 4.75584 136.275 5.09151C136.487 5.46116 136.596 5.88138 136.588 6.30757" fill="#202021"/>
<path d="M136.272 5.09244C135.574 5.15821 134.872 5.16941 134.172 5.12588C130.848 4.92256 127.461 3.56331 124.293 4.54171C122.303 5.15356 120.684 6.63496 118.668 7.15805C119.54 6.24969 120.47 5.39842 121.452 4.60946C119.819 5.43376 118.075 6.0173 116.275 6.34194C115.857 6.41494 115.434 6.45354 115.01 6.45741C115.102 5.77477 115.334 5.11862 115.692 4.53029C116.05 3.94195 116.526 3.43423 117.091 3.03924C119.771 0.903879 123.144 -0.170154 126.566 0.0219506C129.981 0.249654 133.193 1.72795 135.587 4.1742C135.855 4.44718 136.084 4.75585 136.268 5.09151" fill="#37383A"/>
<path d="M127.258 40.5037L124.226 44.99C124.226 44.99 117.528 39.9072 117.769 32.9687C117.854 32.8121 117.932 32.6626 118.003 32.52C118.238 32.1048 118.451 31.7717 118.643 31.4939C119.623 30.0936 120.177 30.2292 120.177 30.2292C120.177 30.2292 121.122 37.2488 127.258 40.5047" fill="#70ABE1"/>
<path d="M130.284 44.9882L127.258 40.5019C133.395 37.246 134.339 30.2264 134.339 30.2264C134.339 30.2264 134.801 30.1109 135.631 31.1647C135.878 31.4784 136.102 31.8099 136.3 32.1565C136.442 32.3941 136.586 32.6662 136.746 32.9649C136.988 39.9025 130.283 44.9863 130.283 44.9863" fill="#4C90D4"/>
<path d="M135.689 69.3296C135.724 69.7916 114.459 76.4714 108.266 76.2471C107.786 76.2671 107.31 76.1643 106.881 75.9483C103.862 73.9982 101.781 71.9927 101.064 68.9153C100.546 66.7132 99.9273 48.9656 102.421 44.1184C104.246 40.9095 106.765 38.1489 109.793 36.0383L112.18 65.2041C112.18 65.2041 112.315 65.184 112.571 65.1497C114.204 64.9187 120.653 64.0214 125.91 63.3007C129.774 62.7643 132.984 62.329 133.139 62.329C133.43 62.329 134.617 65.7472 135.27 67.8128C135.511 68.6012 135.675 69.1921 135.689 69.3277" fill="#DCEFFB"/>
<path d="M135.689 69.3287C135.724 69.7907 114.459 76.4705 108.266 76.2461C111.994 74.2955 115.87 72.6416 119.858 71.2998C121.165 70.9182 122.431 70.4082 123.637 69.7773C120.909 69.0767 118.769 66.5767 115.952 66.6101C115.355 66.6168 114.766 66.7457 114.161 66.7256C113.251 66.6854 112.391 66.296 111.761 65.6384L112.571 65.1497C114.204 64.9187 120.653 64.0215 125.91 63.3008C128.044 63.9118 130.108 64.7455 132.067 65.7883C133.196 66.3615 134.268 67.0397 135.27 67.8138C135.511 68.6023 135.675 69.1931 135.689 69.3287" fill="#9DD5EE"/>
<path d="M126.506 66.4814C126.477 66.5225 124.866 66.3124 123.252 66.0939C121.639 65.8753 120.049 65.6385 120.049 65.6385C120.049 65.6385 115.276 66.3067 114.704 66.3449C114.276 66.3739 113.847 66.3511 113.426 66.2771C112.599 66.1282 111.802 65.8434 111.068 65.4343C111.461 65.0347 111.833 64.6152 112.183 64.1772C112.538 63.6884 118.511 59.9982 120.052 59.8894C122.226 60.0166 124.386 60.3257 126.508 60.8134C126.508 60.8134 126.566 66.3993 126.508 66.4814" fill="#F89A72"/>
<path d="M123.387 63.948L123.252 66.0947C121.647 65.8704 120.049 65.6394 120.049 65.6394C120.049 65.6394 115.276 66.3076 114.703 66.3458C114.276 66.3748 113.846 66.352 113.424 66.278C114.667 65.4832 115.946 64.7425 117.261 64.0559C118.294 63.3869 119.52 63.0788 120.747 63.1796C121.657 63.3486 122.466 63.9432 123.39 63.9432" fill="#F68A5C"/>
<path d="M154.879 70.6679C154.87 70.8321 154.844 70.9543 154.836 71.0278C154.609 72.8691 149.814 75.2821 148.338 75.9207C146.861 76.5593 120.656 66.8889 120.656 66.8889L122.126 63.0288L123.327 59.8788L136.616 62.352L143.89 63.6091C143.89 63.6091 144.067 59.5457 144.102 54.7816C144.138 48.5972 144.529 40.5171 146.177 36.0327C156.995 41.8391 155.065 67.1505 154.878 70.6622" fill="#DCEFFB"/>
<path d="M118.643 31.4919C118.452 31.7707 118.238 32.1029 118.004 32.5181C116.418 33.4089 115.16 34.7859 114.416 36.446C113.547 38.5479 113.135 40.8112 113.209 43.0848V43.2146C113.211 47.0097 113.835 50.7788 115.056 54.3721L114.381 54.583C113.137 50.9217 112.502 47.0814 112.499 43.2146V43.0848C112.423 40.7167 112.856 38.3599 113.77 36.1739C114.709 34.0316 116.46 32.3494 118.638 31.4967" fill="#234E77"/>
<path d="M142.451 42.8824C142.457 43.7408 142.388 44.5981 142.245 45.4444L141.541 45.3222C141.681 44.5166 141.748 43.7 141.741 42.8824C141.748 41.9599 141.669 41.0387 141.507 40.1305C141.177 38.225 140.452 36.4098 139.376 34.8023C138.589 33.6777 137.531 32.7689 136.301 32.1592C136.103 31.8127 135.88 31.4812 135.633 31.1675C137.39 31.7521 138.91 32.8908 139.965 34.4129C141.093 36.0985 141.855 38.0012 142.203 39.9988C142.376 40.9495 142.459 41.9143 142.451 42.8805" fill="#234E77"/>
<path d="M139.742 62.2298C139.401 62.0958 139.074 61.9296 138.765 61.7334C138.505 61.5753 138.299 61.3424 138.174 61.0653C138.087 60.7969 138.051 60.5145 138.068 60.2329V60.1489C138.068 58.7715 137.99 57.2519 137.99 55.7123C137.99 52.4048 138.364 49.0305 140.53 46.7979C140.794 46.5168 141.099 46.2759 141.433 46.0829C141.738 45.903 142.084 45.8045 142.438 45.7966H142.539C142.828 45.8284 143.107 45.9193 143.36 46.0637C143.613 46.208 143.833 46.4027 144.007 46.6356C144.374 47.1396 144.64 47.7093 144.792 48.3137C145.167 49.6039 145.351 50.942 145.339 52.2855C145.339 54.5296 144.906 56.7508 144.7 59.2536C144.695 59.7582 144.592 60.2572 144.397 60.7226C144.3 60.9095 144.16 61.0712 143.99 61.1951C143.84 61.3086 143.658 61.3724 143.469 61.3774H143.403L143.333 62.0541L143.469 62.0608C143.809 62.0555 144.139 61.9447 144.413 61.7439C144.673 61.5575 144.885 61.3122 145.033 61.028C145.271 60.4859 145.398 59.9018 145.407 59.3099C145.608 56.8519 146.049 54.6174 146.05 52.2883C146.062 50.8822 145.869 49.4817 145.477 48.1313C145.302 47.4424 144.995 46.794 144.573 46.2223C144.336 45.9107 144.038 45.6516 143.696 45.4613C143.354 45.2711 142.976 45.1538 142.587 45.1169H142.44C141.961 45.1259 141.492 45.2573 141.078 45.4988C140.683 45.7255 140.323 46.0092 140.01 46.3406C137.632 48.8224 137.286 52.3733 137.282 55.7151C137.282 57.2767 137.36 58.7992 137.36 60.1518V60.1747H137.716H137.36V60.2396C137.342 60.6046 137.394 60.9699 137.513 61.3154C137.689 61.7185 137.983 62.0593 138.355 62.2937C138.703 62.5169 139.072 62.7058 139.457 62.8579L139.743 62.2365" fill="#234E77"/>
<path d="M143.886 55.8391L143.867 55.8449C143.864 55.336 143.772 54.8315 143.596 54.3539C140.575 55.0595 137.824 56.6293 135.68 58.8717C135.15 59.418 134.586 59.9313 133.993 60.4085C133.354 60.8152 132.69 61.179 132.003 61.4976C132.559 61.1874 135.266 62.0846 135.927 62.1982C137.379 62.4493 138.843 62.6593 140.285 62.9361C143.995 63.6501 147.73 64.4471 151.514 63.7388C151.566 63.6519 151.599 63.5555 151.613 63.4554C151.626 63.3552 151.619 63.2533 151.593 63.1559C151.566 63.0584 151.52 62.9673 151.457 62.8881C151.394 62.8088 151.316 62.743 151.228 62.6946C150.853 62.4987 150.434 62.4043 150.012 62.4206L144.919 62.1782L153.878 61.51C154.493 61.4651 155.323 61.1521 155.159 60.5841C155.044 60.1813 154.505 60.082 154.07 60.0629C151.103 59.9321 148.131 60.0278 145.179 60.3493C148.175 59.7091 151.14 58.9455 154.071 58.0584C154.494 57.9305 154.977 57.7425 155.095 57.332C155.125 57.1139 155.074 56.8921 154.95 56.7097C154.827 56.5272 154.64 56.397 154.426 56.3441C153.983 56.2419 153.522 56.2478 153.082 56.3613L145.427 57.7024L153.866 54.1849C154.018 53.847 153.711 53.4518 153.344 53.3478C152.965 53.2775 152.575 53.3105 152.214 53.4433C149.426 54.2069 146.65 55.0023 143.885 55.8296" fill="#F89A72"/>
<path d="M112.502 56.2553C112.521 55.449 112.858 54.683 113.441 54.1254C114.024 53.5679 114.804 53.2646 115.61 53.282C116.417 53.2648 117.197 53.5683 117.779 54.1258C118.362 54.6833 118.699 55.4492 118.717 56.2553C118.699 57.0614 118.362 57.8274 117.779 58.3849C117.197 58.9424 116.417 59.2459 115.61 59.2287C114.804 59.2461 114.024 58.9427 113.441 58.3852C112.858 57.8277 112.521 57.0616 112.502 56.2553Z" fill="#5F697C"/>
<path d="M113.927 56.2544C113.937 55.7938 114.13 55.3562 114.463 55.0376C114.796 54.7191 115.242 54.5456 115.702 54.5553C116.163 54.5454 116.609 54.7187 116.942 55.0373C117.275 55.3558 117.468 55.7936 117.479 56.2544C117.468 56.7152 117.275 57.153 116.942 57.4715C116.609 57.7901 116.163 57.9635 115.702 57.9535C115.242 57.9632 114.796 57.7897 114.463 57.4712C114.13 57.1526 113.937 56.715 113.927 56.2544" fill="#939AA5"/>
<path d="M137.855 194.577L137.727 194.788L137.698 194.727C137.678 194.691 137.669 194.651 137.67 194.61C137.671 194.569 137.684 194.53 137.706 194.496C137.771 194.441 137.905 194.509 137.856 194.577" fill="#34434E"/>
<path d="M151.165 204.091L147.081 204.172C146.318 204.186 145.391 204.287 145.05 204.947C144.933 205.272 144.852 205.609 144.809 205.952C144.726 206.227 144.58 206.478 144.383 206.686C143.772 206.595 143.199 206.33 142.735 205.922C141.947 205.12 142.281 203.631 141.102 203.059C140.413 202.733 139.525 203.011 138.844 202.664C137.231 201.856 138.403 198.397 138.431 197.052C138.439 196.664 138.382 196.097 138.336 195.489C138.768 195.762 139.251 195.944 139.756 196.026C140.617 196.085 141.453 196.341 142.2 196.773C142.622 197.159 142.979 197.61 143.258 198.109C144.914 200.256 147.172 201.86 149.743 202.717C150.418 202.976 151.228 203.403 151.164 204.09" fill="#34434E"/>
<path d="M60.1652 27.1795C60.0478 27.3022 59.8987 27.39 59.7344 27.4332C59.5701 27.4763 59.3971 27.4731 59.2346 27.4239C59.0942 27.3771 58.9549 27.2539 58.9845 27.1146C59.0141 26.9752 59.1935 26.9132 59.3453 26.9094C59.3921 26.9094 60.1509 26.7834 60.1509 26.8845C60.1893 26.9231 60.212 26.9745 60.2146 27.0288C60.2173 27.0831 60.1997 27.1365 60.1652 27.1786" fill="#F68A5C"/>
<path d="M154.879 70.665C154.857 70.8282 154.844 70.9514 154.836 71.0249C154.609 72.8662 149.814 75.2792 148.338 75.9178C146.861 76.5564 120.656 66.886 120.656 66.886L122.126 63.0259C126.326 64.2763 144.899 70.1276 147.753 70.3519C150.011 70.5285 153.201 70.624 154.877 70.6641" fill="#C6E4F7"/>
<path d="M212.272 91.3582L216.545 91.3973C216.39 94.7687 215.947 98.9038 217.911 101.873C218.204 102.265 218.46 102.682 218.675 103.121C218.837 103.556 218.942 104.01 218.987 104.472C219.147 105.864 219.213 107.266 219.185 108.667C219.185 109.365 219.192 110.065 219.23 110.767C219.354 111.379 219.377 112.007 219.296 112.626C219.264 112.725 219.195 112.807 219.103 112.857C219.012 112.907 218.906 112.92 218.805 112.894C218.482 112.772 218.13 112.732 217.921 112.439C217.327 111.61 217.427 110.329 216.917 109.385C216.875 112.081 216.563 114.767 215.988 117.403C215.971 117.654 215.927 117.904 215.858 118.146C215.815 118.274 215.736 118.386 215.631 118.47C215.526 118.553 215.399 118.605 215.266 118.619C214.35 118.647 214.288 117.431 214.161 116.874C214.097 117.319 214.037 117.762 213.98 118.203C213.977 118.354 213.918 118.5 213.815 118.611C213.707 118.692 213.574 118.732 213.439 118.725C213.253 118.717 213.07 118.671 212.903 118.589C212.736 118.507 212.587 118.39 212.468 118.247C212.248 117.971 212.073 117.662 211.949 117.331C211.818 117.431 211.854 117.617 211.822 117.766C211.738 118.158 211.142 118.312 210.753 118.134C210.394 117.931 210.124 117.599 209.998 117.205C209.515 116.06 209.666 114.94 209.426 113.769C209.166 112.497 209.069 111.198 209.139 109.902C209.362 105.002 209.585 100.102 209.807 95.2021L212.267 91.3506" fill="#35B989"/>
<path d="M209.792 45.2201C213.023 46.7865 214.694 50.8365 215.374 54.0342C215.809 56.0798 215.231 58.2179 215.321 60.317C215.437 63.0153 215.947 65.6821 216.835 68.2329C217.824 71.0698 219.299 74.0116 218.545 76.9192C218.201 78.2498 217.391 79.5575 217.686 80.8996C217.877 81.7644 218.514 82.5223 218.526 83.409C218.537 84.1135 218.144 84.7711 218.083 85.4727C218.147 86.2766 218.259 87.076 218.417 87.8667C218.536 91.2075 215.466 93.1271 212.587 93.9079C211.693 94.1504 205.841 95.8113 205.367 94.4081C204.451 91.68 203.534 88.952 202.617 86.224C202.183 85.142 201.939 83.9935 201.894 82.8287C201.963 79.5527 205.159 76.4218 204.071 73.3187C203.619 72.0319 202.477 71.0192 202.066 69.721C201.379 67.5571 202.864 65.2863 202.925 63.0212C202.809 61.2404 202.286 59.5099 201.398 57.9622C200.133 55.2303 199.028 52.2197 199.852 49.3131C200.908 45.5857 206.056 43.4084 209.801 45.2249" fill="#C6E4F7"/>
<path d="M214.478 167.327C214.365 167.477 214.264 167.633 214.165 167.782C213.046 169.814 211.806 171.777 210.451 173.66C208.69 175.842 206.672 175.794 204.037 175.569C202.937 175.532 201.848 175.333 200.805 174.977C200.685 174.93 200.564 174.875 200.45 174.822C198.782 174.02 197.802 172.402 196.914 170.88C196.617 170.45 196.427 169.956 196.359 169.438C196.311 168.453 197.176 167.549 197.048 166.564C196.885 165.313 195.408 164.56 195.167 163.301C194.889 161.874 195.799 160.005 196.061 158.578C196.62 154.85 196.907 151.085 196.921 147.315C196.984 145.113 195.763 142.137 195.464 139.765C195.377 139.181 195.38 138.588 195.472 138.005C195.386 138.474 195.302 138.943 195.223 139.418C195.18 139.69 195.144 139.962 195.102 140.234C195.095 140.302 195.081 140.37 195.073 140.438C194.478 144.735 194.419 149.09 194.896 153.403C195.213 154.874 195.123 156.403 194.633 157.826C194.314 158.499 193.802 159.091 193.525 159.783C192.155 163.229 196.815 165.118 195.706 168.374C195.118 169.779 194.267 171.06 193.199 172.146C193.103 172.254 193.008 172.37 192.908 172.492C191.964 173.66 191.004 175.149 189.655 175.876C188.8 176.278 187.871 176.496 186.928 176.515C183.556 176.737 180.184 176.074 177.147 174.593C177.249 173.524 177.008 172.451 176.459 171.529C175.529 169.863 173.937 168.464 173.135 166.54C171.945 163.76 171.804 160.643 172.737 157.766C173.731 154.807 175.876 151.964 175.343 148.899C175.03 147.064 173.76 145.426 173.66 143.571C173.547 141.458 174.982 139.508 175.151 137.4C175.337 135.117 174.044 132.963 173.72 130.693C173.073 126.188 176.269 121.792 175.751 117.264C175.437 115.598 174.957 113.967 174.319 112.396L174.305 112.362C173.566 109.963 172.999 107.516 172.608 105.037C172.231 102.958 171.869 100.769 172.678 98.798C174.057 95.4571 178.61 92.4313 177.707 88.8088C177.157 86.5873 177.07 84.2767 177.451 82.0202C177.976 78.9342 178.893 76.1975 178.658 73.0476C178.452 70.2613 178.289 67.4273 178.077 64.621C177.594 58.3831 177.132 52.1452 178.396 46.0563C178.436 45.7724 178.534 45.4997 178.682 45.2544C178.93 44.9636 179.244 44.7375 179.599 44.5958C183.374 42.7383 187.372 41.3749 191.496 40.5391C192.178 40.3737 192.871 40.2557 193.57 40.1859C194.288 40.1383 195.008 40.1587 195.722 40.247C197.277 40.4631 198.805 40.8412 200.281 41.3752C201.02 41.6196 201.759 41.8716 202.49 42.115C204.692 42.829 207.313 43.1478 208.925 44.9156C209.752 45.9282 210.3 47.1389 210.516 48.4283C211.325 52.0774 211.119 55.8736 211.972 59.519C212.987 63.8888 214.251 67.6125 212.874 72.0358C212.191 74.2245 211.197 76.5755 211.581 78.8998C211.951 81.1697 212.902 83.4386 213.421 85.7028C214.042 88.8915 214.314 92.1387 214.23 95.3865V95.7053C214.266 100.659 214.301 105.613 214.337 110.567C214.395 111.922 214.298 113.278 214.051 114.611C213.341 117.129 212.985 119.734 212.992 122.351C213.098 125.505 213.526 128.639 214.27 131.705C214.881 134.226 215.478 136.66 213.865 138.95C212.33 141.131 211.628 142.654 212.303 145.494C212.916 147.564 213.732 149.57 214.739 151.481C215.343 152.537 215.604 153.755 215.484 154.966C215.279 155.966 214.583 156.87 214.589 157.888C214.597 159.37 216.046 160.466 216.479 161.884C217.111 163.93 215.591 165.71 214.474 167.341" fill="#C6E4F7"/>
<path d="M214.481 167.327C214.118 165.105 212.229 162.964 209.899 163.073C210.999 160.381 212.596 157.919 214.608 155.819C213.129 154.713 212.042 153.165 211.504 151.399C210.966 149.633 211.006 147.741 211.617 146C213.159 141.609 206.979 138.089 206.404 133.488C207.157 134.868 209.636 134.228 210.197 132.775C211.291 129.962 208.073 127.143 207.761 124.409C207.47 121.765 207.1 119.041 206.773 116.33C206.184 111.462 207.718 105.539 208.3 100.605C208.577 98.2262 208.719 95.3654 206.701 93.9527C206.402 93.7823 206.125 93.5744 205.878 93.3342C204.962 92.267 206.26 90.8266 207.248 89.8206C209.996 87.0419 210.807 82.883 210.175 79.104C209.543 75.325 207.625 71.8496 205.508 68.6041C204.849 67.599 204.252 66.0966 205.26 65.4036C205.571 65.2338 205.903 65.1079 206.248 65.0294C208.713 64.2286 209.536 61.1226 208.805 58.7295C208.074 56.3365 206.283 54.415 204.898 52.3084C203.042 49.1959 201.595 45.8567 200.593 42.3736C200.481 42.0405 200.373 41.7054 200.281 41.3618C201.02 41.6062 201.759 41.8582 202.49 42.1016C204.692 42.8156 207.312 43.1344 208.925 44.9022C209.751 45.9147 210.3 47.1255 210.516 48.4148C211.325 52.064 211.119 55.8602 211.971 59.5046C212.987 63.8745 214.251 67.5981 212.873 72.0214C212.191 74.2101 211.197 76.5612 211.581 78.8854C211.949 81.1553 212.902 83.4242 213.42 85.6884C214.042 88.8772 214.314 92.1243 214.23 95.3721V95.6909C214.266 100.645 214.301 105.599 214.337 110.553C214.394 111.907 214.298 113.264 214.05 114.596C213.341 117.115 212.985 119.719 212.992 122.336C213.098 125.489 213.526 128.624 214.271 131.69C214.882 134.211 215.478 136.644 213.866 138.935C212.332 141.116 211.629 142.639 212.304 145.478C212.917 147.549 213.733 149.554 214.74 151.465C215.344 152.522 215.605 153.74 215.485 154.951C215.28 155.951 214.584 156.855 214.591 157.873C214.598 159.354 216.047 160.45 216.481 161.869C217.113 163.914 215.593 165.694 214.476 167.326" fill="#ACDBF5"/>
<path d="M198.769 152.261C198.323 152.602 198.393 153.261 198.514 153.789C199.166 156.554 200.16 159.227 201.473 161.747C200.783 161.305 197.964 161.659 198.411 162.964C198.597 163.487 199.175 163.772 199.691 164.038C201.566 165.004 203.124 166.49 204.177 168.319C203.168 168.503 202.134 168.494 201.129 168.292C200.107 168.237 198.871 168.591 198.622 169.542C198.409 170.33 198.977 171.085 199.439 171.771C200.085 172.749 200.549 173.836 200.81 174.978C200.69 174.931 200.569 174.876 200.455 174.823C198.787 174.021 197.806 172.403 196.919 170.882C196.622 170.452 196.432 169.958 196.364 169.44C196.314 168.455 197.181 167.551 197.053 166.566C196.89 165.315 195.412 164.562 195.171 163.303C194.893 161.876 195.803 160.007 196.066 158.58C196.625 154.852 196.912 151.087 196.925 147.317C196.989 145.115 195.767 142.139 195.469 139.767C198.118 143.653 200.772 147.541 203.43 151.428C204.158 152.439 204.823 153.494 205.42 154.588C203.403 154.907 201.925 152.78 199.979 152.181C199.785 152.101 199.575 152.067 199.366 152.081C199.156 152.095 198.953 152.157 198.771 152.262" fill="#DCEFFB"/>
<path d="M186.224 163.718C184.079 163.209 181.929 162.699 179.782 162.191C178.749 161.87 177.662 161.764 176.586 161.879C176.058 161.936 175.56 162.156 175.162 162.508C174.764 162.86 174.485 163.326 174.363 163.844C174.36 164.589 174.575 165.319 174.982 165.943C175.906 167.661 176.413 169.573 176.459 171.523C175.529 169.857 173.937 168.458 173.135 166.535C171.945 163.755 171.804 160.638 172.737 157.761C173.731 154.802 175.876 151.959 175.343 148.894C175.03 147.059 173.76 145.421 173.66 143.566C173.547 141.453 174.982 139.503 175.151 137.395C175.337 135.112 174.044 132.958 173.72 130.688C173.073 126.183 176.269 121.787 175.751 117.259C175.437 115.593 174.957 113.962 174.319 112.391C174.828 112.644 175.295 112.975 175.7 113.374C177.653 115.338 177.383 118.45 176.801 121.105C176.219 123.761 175.473 126.657 176.801 129.049C177.49 130.278 178.691 131.283 178.953 132.657C179.216 134.031 177.49 135.66 176.425 134.703C177.551 138.59 179.896 142.013 183.115 144.467C183.79 144.984 184.586 145.642 184.436 146.459C184.217 147.648 182.426 147.648 181.226 147.26C179.238 146.62 177.324 145.77 175.515 144.725C176.014 147.345 177.448 149.695 179.55 151.337C180.481 152.064 181.61 152.764 181.829 153.893C182.049 155.021 180.345 156.203 179.678 155.245C179.01 157.005 180.609 158.777 182.22 159.832C183.831 160.886 185.772 161.911 186.229 163.726" fill="#DCEFFB"/>
<path d="M179.459 46.8208C181.59 49.0597 183.146 51.7821 183.994 54.7545C184.842 57.7269 184.956 60.8606 184.327 63.8869C183.994 65.4017 183.468 66.9366 183.73 68.4639C183.981 69.9205 184.94 71.2893 184.732 72.7516C184.591 73.2264 184.533 73.7223 184.562 74.2168C184.728 74.7252 185.061 75.1625 185.507 75.4577C188.229 77.6617 191.834 79.2997 193.038 82.5108L184.704 80.4604C184.036 80.2972 183.171 80.2056 182.82 80.7706C182.494 81.2947 182.901 81.9457 183.297 82.4277L190.809 91.6867C191.207 92.2326 191.691 92.7103 192.241 93.1013C193.032 93.4793 193.843 93.8127 194.671 94.0997C195.461 94.4815 196.183 95.2576 195.993 96.0832L185.822 94.9073C185.259 94.7869 184.672 94.834 184.135 95.0428C182.894 95.6843 183.276 97.5513 182.446 98.6414C182.1 99.0938 181.561 99.3812 181.193 99.8183C180.066 101.155 180.954 103.106 181.722 104.658C184.282 109.834 185.133 115.689 184.152 121.38C184.129 121.758 184.031 122.127 183.864 122.466C183.697 122.805 183.463 123.107 183.178 123.355C182.01 124.148 180.439 123.153 179.476 122.139C176.519 119.035 174.396 115.232 173.304 111.086C172.59 107.903 172.194 104.657 172.122 101.396C171.967 98.5867 171.812 95.7778 171.657 92.9696C171.428 90.9807 171.56 88.9668 172.046 87.0247C172.472 85.6769 173.237 84.4418 173.618 83.0816C173.919 81.7892 174.043 80.4622 173.989 79.1365C174.004 74.7367 174.019 70.337 174.034 65.9372L179.466 46.8208" fill="#ACDBF5"/>
<path d="M188.435 193.803C188.21 194.924 188.229 196.08 188.493 197.193C188.99 198.72 189.778 198.933 189.117 200.748C188.353 202.854 191.88 203.656 189.395 205.987C188.131 207.17 185.02 207.68 182.228 207.408C180.069 207.204 178.102 206.537 177.327 205.355C175.779 203.011 179.607 201.543 179.877 199.41C180.417 195.183 179.344 190.922 178.996 186.709C178.649 182.461 177.781 178.234 177.214 174.008C178.719 173.223 180.348 172.704 182.03 172.473C185.036 172.01 188.112 172.438 190.879 173.702C191.141 173.805 191.374 173.969 191.56 174.179C191.673 174.37 191.746 174.581 191.774 174.801C191.802 175.021 191.785 175.244 191.724 175.457C190.8 181.607 189.287 187.682 188.435 193.805" fill="#22313C"/>
<path d="M220.291 204.824C220.233 204.888 220.166 204.943 220.091 204.987C219.876 205.086 219.646 205.151 219.41 205.178C215.269 205.803 210.901 206.407 207.122 205.061C206.188 204.638 205.205 204.332 204.196 204.151C202.142 203.947 199.607 204.939 199.137 202.623C198.703 200.477 199.775 198.301 199.868 196.141C199.886 193.931 199.729 191.722 199.4 189.536C199.101 186.899 198.869 184.254 198.704 181.599C198.617 178.706 198.371 175.821 197.965 172.956C198.114 172.894 198.263 172.84 198.42 172.786C202.39 171.291 207.01 170.768 210.871 172.453C211.801 172.853 210.351 182.197 210.298 183.393C210.156 186.756 209.573 190.108 209.481 193.491C209.474 193.573 209.474 193.655 209.474 193.743C209.402 196.726 213.046 199.349 215.869 200.389C217.059 200.673 218.182 201.188 219.173 201.905C219.547 202.274 219.848 202.709 220.061 203.189C220.139 203.353 220.217 203.523 220.288 203.692L220.323 203.794L220.33 203.807C220.417 203.965 220.459 204.144 220.45 204.324C220.441 204.504 220.383 204.678 220.28 204.826" fill="#22313C"/>
<path d="M206.399 29.0932C206.301 31.1448 205.991 33.1808 205.475 35.1689C205.006 36.9557 203.416 39.2189 203.444 40.9791C203.439 41.5398 203.614 42.0875 203.942 42.5421C204.27 42.9968 204.735 43.3347 205.269 43.5067C202.911 46.4018 204.388 49.2625 204.119 52.4564C204.114 53.3313 203.844 54.1843 203.345 54.9028C202.674 55.6032 201.768 56.0315 200.802 56.1056C198.166 56.4454 195.566 55.2092 193.599 53.5779C191.785 52.0196 190.209 50.2039 188.922 48.1887C188.372 47.3464 187.76 46.5468 187.09 45.7966C186.528 45.1628 185.928 44.5639 185.293 44.0031C184.846 43.6088 184.376 43.2289 183.893 42.8576C187.843 37.3127 184.831 31.9511 184.831 26.012C184.704 25.0545 184.69 24.0854 184.789 23.1246C184.939 22.2457 185.206 21.391 185.584 20.5836C186.507 18.2279 188.091 16.1891 190.145 14.7122C192.304 13.2919 194.485 13.0743 197.034 13.0342C198.791 13.0331 200.505 13.5741 201.942 14.5834C203.02 15.329 203.92 16.3037 204.577 17.4375C206.587 20.8347 206.581 25.4078 206.395 29.0913" fill="#C6E4F7"/>
<path d="M204.583 17.4394C204.447 17.6033 204.276 17.7356 204.084 17.8271C203.891 17.9186 203.681 17.9671 203.468 17.9692C202.815 17.9086 202.181 17.7136 201.607 17.3965C200.036 16.7414 198.337 16.4534 196.639 16.5547C194.94 16.6559 193.287 17.1436 191.806 17.9806C190.374 18.8142 189.166 19.9833 188.287 21.3872C187.407 22.7911 186.882 24.3878 186.756 26.0398C186.687 26.9116 186.795 27.7884 187.075 28.617C187.633 30.1223 188.71 31.3145 188.735 32.9802C188.773 35.5307 188.915 37.0847 191.046 38.8687C193.371 40.8102 196.097 42.6868 196.355 45.9026C196.389 46.0884 196.353 46.2802 196.254 46.441C196.051 46.7035 195.634 46.6567 195.299 46.5832L192.266 45.9074C191.794 45.8024 191.19 45.7461 190.929 46.1394C190.634 46.5928 191.107 47.1378 191.534 47.4814C194.192 49.6243 196.741 51.8999 199.17 54.2997C197.223 54.586 195.337 53.6315 193.62 52.7075L187.485 49.4153C186.689 48.9877 185.499 48.6421 185.019 49.3867C184.807 49.716 184.783 50.22 184.399 50.3412C184.181 50.3833 183.954 50.345 183.761 50.2333C182.396 49.632 178.111 48.0828 177.545 46.6195C176.877 44.8842 179.69 43.88 180.994 43.4228C184.561 42.1704 185.355 40.793 185.592 37.0875C185.828 33.382 184.828 29.7147 184.828 26.015C184.701 25.0575 184.686 24.0883 184.786 23.1275C184.936 22.2486 185.203 21.3939 185.581 20.5865C186.504 18.2309 188.088 16.192 190.142 14.7152C192.301 13.2948 194.482 13.0772 197.032 13.0371C198.788 13.0359 200.502 13.577 201.94 14.5864C203.018 15.3322 203.917 16.3067 204.574 17.4404" fill="#DCEFFB"/>
<path d="M205.247 30.544C205.102 31.5413 204.869 32.5235 204.55 33.4792C203.682 36.0889 202.927 38.6977 199.533 39.2752C195.094 40.0235 191.955 37.1685 191.176 33.4105C190.991 32.5276 190.812 31.6236 190.672 30.713C190.454 29.474 190.335 28.2196 190.316 26.9617C190.292 23.0863 195.685 22.2043 198.926 22.148C204.734 22.0468 205.835 26.4195 205.247 30.5479" fill="#F89A72"/>
<path d="M205.293 30.8343C205.216 32.5419 204.773 34.213 203.993 35.734C203.566 36.7756 202.912 37.7089 202.079 38.4658C201.197 39.0908 200.146 39.4301 199.065 39.4375C197.712 39.518 196.359 39.2759 195.117 38.7312C192.254 37.3519 190.85 34.0969 190.715 31.2973C190.701 31.0596 190.693 30.82 190.679 30.5833C190.679 30.2635 194.041 29.9314 194.485 29.7681C195.813 29.2574 197.045 28.5268 198.13 27.6071C198.501 27.2439 198.966 26.9919 199.473 26.8797L199.518 26.873C200.251 26.8845 200.949 27.1846 201.462 27.7083C202.457 28.5168 202.989 29.3729 204.468 29.5572C204.646 29.5606 204.822 29.6047 204.981 29.686C205.083 29.7677 205.163 29.8726 205.216 29.9921C205.269 30.1115 205.293 30.2419 205.285 30.3723C205.293 30.5289 205.293 30.6788 205.293 30.8343" fill="#E2F2FB"/>
<path d="M205.289 30.8344C205.213 32.5419 204.77 34.213 203.99 35.734C203.563 36.7756 202.909 37.7088 202.076 38.4658C201.194 39.0909 200.142 39.4301 199.062 39.4376C200.358 36.817 200.941 33.9016 200.753 30.9842C200.76 29.5371 200.255 28.1343 199.328 27.0229L199.47 26.8797L199.514 26.873C200.247 26.8845 200.946 27.1846 201.459 27.7083C202.454 28.5168 202.986 29.3729 204.465 29.5572C204.643 29.5606 204.818 29.6047 204.977 29.686C205.079 29.7677 205.16 29.8726 205.213 29.9921C205.266 30.1115 205.29 30.2419 205.282 30.3723C205.289 30.5289 205.289 30.6788 205.289 30.8344" fill="white"/>
<path d="M207.156 28.0164C207.097 28.8392 206.458 30.2452 205.486 30.5106C205.209 30.5729 204.92 30.5633 204.648 30.4829C203.853 30.2217 203.124 29.793 202.51 29.2258C201.833 28.6489 201.113 28.124 200.357 27.6556C200.075 27.4627 199.744 27.3523 199.403 27.3368C199.18 27.3543 198.967 27.4344 198.787 27.5678C198.653 27.6551 198.525 27.7528 198.405 27.8599C196.394 29.5656 193.351 32.6163 190.412 30.5325C189.017 29.5475 189.284 27.3043 189.106 25.8716C188.609 21.726 195.741 21.6105 198.755 21.6783C198.91 21.6783 199.067 21.685 199.222 21.6917C200.41 21.726 201.552 21.8139 202.733 21.9561C203.869 22.0924 204.975 22.4149 206.006 22.9106C206.31 23.0723 206.566 23.3102 206.75 23.6008C206.935 23.8915 207.04 24.225 207.056 24.5686C207.203 25.7108 207.235 26.8649 207.152 28.0135" fill="white"/>
<path d="M205.148 27.8027C205.111 27.9717 205.027 28.1269 204.907 28.2513C204.798 28.3376 204.672 28.4 204.537 28.4346C204.183 28.5257 203.814 28.5431 203.453 28.4858C203.092 28.4285 202.746 28.2977 202.438 28.1015L202.402 28.0804C202.307 28.0327 202.211 27.985 202.116 27.9306C201.633 27.6719 201.2 27.3398 200.724 27.0878C200.439 26.9192 200.13 26.7953 199.807 26.7203C199.733 26.6994 199.657 26.6856 199.58 26.6792L199.484 26.6658C198.899 26.5979 198.307 26.6211 197.73 26.7346C197.475 26.7756 197.223 26.8343 196.977 26.9102C196.653 27.0008 196.338 27.117 196.033 27.2576L195.975 27.2844C194.933 27.9604 193.832 28.5424 192.687 29.0235C192.565 29.0585 192.435 29.0437 192.324 28.9825L192.318 28.9758C192.171 28.8759 192.055 28.7371 191.983 28.5749C191.9 28.4117 191.834 28.241 191.784 28.0652V28.0518C191.587 27.2837 191.466 26.4982 191.421 25.7065C191.377 25.3376 191.435 24.9635 191.591 24.626C191.768 24.3561 192.007 24.1323 192.288 23.9731C194.007 22.95 195.956 22.3753 197.955 22.3017C199.253 22.208 200.558 22.2696 201.841 22.485C202.203 22.5394 202.564 22.6072 202.906 22.6893C203.288 22.7771 203.638 22.8725 203.979 22.988C204.08 23.0192 204.18 23.0556 204.278 23.0969L204.363 23.1379C204.481 23.1806 204.593 23.2377 204.697 23.3078C204.953 23.4656 205.153 23.6991 205.27 23.976C205.353 24.2218 205.391 24.4803 205.383 24.7396C205.462 25.7637 205.383 26.7939 205.149 27.7941" fill="#F89A72"/>
<path d="M198.442 27.7359L198.467 27.7187L196.914 29.16C195.261 30.6873 192.557 32.0513 190.412 30.5364C189.017 29.5504 189.285 27.3082 189.106 25.8755C188.609 21.7299 195.741 21.6144 198.755 21.6822C198.91 21.6822 199.067 21.6889 199.222 21.6956C197.18 21.8653 195.164 22.2761 193.217 22.9193C190.947 23.6715 190.428 24.9238 190.874 27.0238L191.135 28.2532C191.393 29.475 192.117 30.9545 193.815 30.5574C194.28 30.4207 194.718 30.2032 195.107 29.915L198.441 27.732" fill="#C6E4F7"/>
<path d="M206.11 28.3793C205.948 28.6226 205.719 28.8141 205.451 28.9311C205.183 29.048 204.886 29.0854 204.597 29.0389C203.81 28.8832 203.065 28.5574 202.416 28.0843C202.886 28.2475 203.376 28.3439 203.873 28.3707C204.161 28.4106 204.453 28.3455 204.697 28.1874C204.827 28.0675 204.919 27.9113 204.96 27.7388C205.02 27.5444 205.056 27.3434 205.066 27.1403C205.069 26.5503 205.038 25.9606 204.971 25.3744C205.013 24.8132 204.873 24.2534 204.573 23.7775C204.466 23.6735 204.352 23.5778 204.231 23.4912C203.831 23.2396 203.401 23.0389 202.952 22.8936L202.824 22.8592C202.568 22.7781 202.299 22.7237 202.036 22.6626C201.49 22.5404 200.942 22.4182 200.402 22.3027C201.247 22.3611 202.086 22.4888 202.91 22.6846C203.343 22.7724 203.769 22.8809 204.188 23.01C204.245 23.031 204.302 23.0444 204.366 23.0645C204.89 23.2176 205.363 23.5087 205.736 23.9073C206.079 24.44 206.238 25.0695 206.192 25.7009C206.206 26.2917 206.227 26.8836 206.241 27.4811C206.275 27.7858 206.231 28.094 206.114 28.3774" fill="#C6E4F7"/>
<path d="M199.48 26.6696C199.239 26.6997 199.001 26.7544 198.77 26.8328C198.167 27.0679 197.593 27.3712 197.059 27.7368C196.384 28.1577 195.709 28.5796 195.042 29.0005L195.035 29.0072L195.006 29.0206C194.71 29.2201 194.389 29.3805 194.052 29.4979C193.746 29.5902 193.419 29.5912 193.113 29.5006C192.806 29.4101 192.532 29.2319 192.325 28.9881C192.436 29.0491 192.566 29.0638 192.687 29.0292C193.832 28.5481 194.933 27.9661 195.975 27.29L196.033 27.2633C196.338 27.1226 196.653 27.0064 196.977 26.9158C197.224 26.843 197.476 26.7843 197.73 26.7402C198.307 26.6269 198.899 26.6037 199.483 26.6715" fill="#C6E4F7"/>
<path d="M194.525 26.2497C194.736 26.328 194.978 26.2373 195.186 25.8841C195.637 25.1205 194.789 23.7183 194.101 24.5707C194.027 24.7013 193.98 24.8455 193.964 24.9947C193.947 25.1439 193.961 25.2949 194.005 25.4384C194.019 25.6062 194.073 25.7681 194.164 25.9097C194.256 26.0512 194.38 26.1681 194.527 26.2497" fill="#22313C"/>
<path d="M194.068 24.7071C194.016 24.8646 194.153 25.2569 194.382 25.1471C194.559 25.0612 194.468 24.6632 194.304 24.6155C194.168 24.5744 194.095 24.6241 194.068 24.7109" fill="white"/>
<path d="M200.951 26.2496C201.162 26.3279 201.402 26.2372 201.611 25.884C202.063 25.1204 201.214 23.7191 200.527 24.5706C200.453 24.7011 200.406 24.8453 200.389 24.9945C200.373 25.1437 200.387 25.2947 200.431 25.4382C200.445 25.6061 200.499 25.768 200.59 25.9096C200.681 26.0512 200.806 26.168 200.953 26.2496" fill="#22313C"/>
<path d="M200.497 24.7071C200.444 24.8646 200.582 25.2569 200.811 25.1471C200.989 25.0612 200.897 24.6632 200.733 24.6155C200.598 24.5744 200.525 24.6241 200.497 24.7109" fill="white"/>
<path d="M195.041 28.9978C195.709 28.5768 196.383 28.1549 197.058 27.734C197.592 27.3685 198.166 27.0652 198.769 26.8301C199 26.7517 199.238 26.697 199.48 26.6668H199.454H199.48L199.575 26.6802L199.48 26.6668C199.238 26.697 199 26.7516 198.769 26.8301C198.166 27.0652 197.592 27.3685 197.058 27.734C196.383 28.1549 195.708 28.5768 195.041 28.9978ZM196.029 27.2586C196.334 27.1179 196.65 27.0017 196.973 26.9112C197.22 26.8353 197.471 26.7766 197.726 26.7356C198.1 26.666 198.478 26.6299 198.858 26.6277C198.478 26.6299 198.1 26.666 197.726 26.7356C197.472 26.7797 197.22 26.8383 196.973 26.9112C196.65 27.0017 196.334 27.1179 196.029 27.2586V27.2586ZM199.451 26.663H199.424H199.451Z" fill="white"/>
<path d="M196.029 27.2595C196.248 26.8175 196.44 26.3689 196.618 25.9136C196.866 25.2817 197.051 24.6154 197.35 24.0045C197.606 23.4604 197.713 22.8591 197.953 22.3054C198.344 22.2768 198.737 22.2634 199.128 22.2634C199.57 22.2634 200.01 22.2816 200.444 22.3159C200.884 22.4114 201.329 22.5068 201.774 22.609C201.462 23.1817 201.153 23.7544 200.845 24.3271C200.718 24.3755 200.607 24.4597 200.527 24.5696C200.407 24.7451 200.36 24.9596 200.394 25.169C200.122 25.673 199.851 26.1764 199.58 26.6791L199.484 26.6657H199.457H199.432C199.246 26.6434 199.06 26.6325 198.873 26.6333H198.867C198.486 26.6354 198.107 26.6715 197.734 26.7411C197.479 26.7822 197.227 26.8408 196.98 26.9168C196.657 27.0073 196.341 27.1235 196.036 27.2642" fill="#FAB79A"/>
<path d="M201.773 22.6073C201.328 22.5118 200.882 22.4087 200.442 22.3142C200.92 22.3524 201.384 22.4097 201.838 22.4879L201.773 22.6082" fill="#D8EDFA"/>
<path d="M195.041 28.9978C195.415 28.4446 195.745 27.8631 196.029 27.2587V27.2587C196.334 27.118 196.65 27.0018 196.973 26.9112C197.22 26.8384 197.472 26.7797 197.726 26.7356C198.099 26.666 198.478 26.6299 198.858 26.6277H198.865C199.051 26.6269 199.238 26.6378 199.423 26.6602H199.45H199.476C199.234 26.6903 198.996 26.745 198.766 26.8234C198.162 27.0586 197.588 27.3618 197.054 27.7274C196.379 28.1483 195.704 28.5702 195.037 28.9912" fill="#D8EDFA"/>
<path d="M200.391 25.17C200.357 24.9606 200.405 24.7461 200.524 24.5706C200.604 24.4607 200.715 24.3765 200.843 24.3281L200.694 24.6049C200.676 24.6013 200.658 24.5994 200.64 24.5992C200.607 24.5974 200.574 24.607 200.547 24.6265C200.52 24.6459 200.501 24.6741 200.492 24.7061C200.473 24.7868 200.479 24.8713 200.509 24.9486L200.391 25.17" fill="#64727A"/>
<path d="M200.512 24.9497C200.482 24.8724 200.476 24.7879 200.495 24.7072C200.504 24.6752 200.523 24.647 200.55 24.6276C200.577 24.6081 200.61 24.5985 200.643 24.6003C200.661 24.6005 200.679 24.6024 200.697 24.606L200.512 24.9497" fill="white"/>
<path d="M202.115 27.9306C201.632 27.6719 201.199 27.3397 200.723 27.0877C200.856 26.816 200.99 26.5449 201.124 26.2745C201.23 26.2532 201.33 26.2066 201.415 26.1386C201.499 26.0707 201.566 25.9834 201.61 25.8841C201.739 25.6445 201.773 25.365 201.705 25.1014C202.075 24.3562 202.446 23.6094 202.818 22.8611L202.946 22.8954C203.395 23.0409 203.825 23.2416 204.224 23.493V23.493C204.198 23.6033 204.166 23.7123 204.129 23.8194C203.945 24.2614 203.747 24.6966 203.539 25.131C203.092 26.075 202.524 26.9732 202.119 27.9306" fill="#FAB79A"/>
<path d="M204.224 23.4931C203.824 23.2416 203.395 23.0409 202.945 22.8955L202.817 22.8612L202.903 22.6922V22.6855C203.337 22.7734 203.763 22.8819 204.181 23.011C204.239 23.032 204.295 23.0454 204.359 23.0655C204.317 23.2086 204.264 23.3642 204.224 23.4931" fill="#D8EDFA"/>
<path d="M201.125 26.2744C201.316 25.8831 201.509 25.492 201.705 25.1013C201.774 25.3649 201.739 25.6446 201.61 25.884C201.566 25.9833 201.499 26.0706 201.415 26.1386C201.33 26.2065 201.23 26.2531 201.124 26.2744" fill="#64727A"/>
<path d="M179.926 91.1007C178.705 92.8781 177.777 94.8397 177.178 96.9109L174.23 97.1972L170.21 97.5915C170.195 94.7174 166.133 93.507 165.341 90.7752C164.873 89.1582 165.654 87.2692 164.986 85.7161C164.773 85.2198 164.426 84.7922 164.19 84.2958C163.373 82.5356 164.286 80.4233 164.56 78.4378C165.022 75.1084 163.352 71.7103 164.517 68.421C165.057 66.8937 165.959 65.4781 166.655 63.99C167.609 61.9511 168.146 59.8044 168.886 57.7044C169.89 54.8662 171.218 52.1528 172.842 49.6176C173.594 48.2875 174.644 47.1498 175.91 46.294C176.517 45.9307 177.196 45.7058 177.899 45.6353C178.709 45.5096 179.536 45.7075 180.201 46.1861C181.035 47.0437 181.506 48.1903 181.515 49.3866C182.014 52.3498 182.202 55.357 182.075 58.3592C181.763 62.437 180.329 66.5549 180.854 70.5505C181.116 71.5935 181.213 72.6714 181.14 73.7444C180.913 74.9853 180.018 75.5046 179.517 76.5708C178.38 78.9628 181.18 78.4598 180.483 80.8662C179.964 82.6464 181.882 84.04 182.201 85.8001C182.535 87.6491 181.072 89.4274 179.935 91.094" fill="#C6E4F7"/>
<path d="M167.553 67.8548C167.716 68.5821 168.618 68.8608 169.367 69.0642C171.728 69.6924 173.927 70.8185 175.816 72.3668C174.04 72.4546 172.271 72.5368 170.496 72.6246C169.446 72.679 168.102 72.9644 167.953 73.9609C167.796 75.0548 169.253 75.66 170.403 75.7344C171.553 75.8089 173.002 75.9377 173.401 76.9753C172.226 76.851 171.045 77.1392 170.06 77.7905C169.831 77.9538 169.637 78.1623 169.492 78.4032C169.346 78.644 169.252 78.9121 169.214 79.1909C169.176 79.4697 169.195 79.7534 169.271 80.0244C169.346 80.2954 169.477 80.548 169.654 80.7667C169.96 80.9823 170.239 81.2335 170.485 81.5151C171.004 82.3169 170.123 83.322 170.258 84.2536C170.386 85.2082 171.466 85.7083 172.133 86.4214C173.469 87.8417 173.121 90.0095 173.113 91.9118C173.109 93.7309 173.489 95.5303 174.228 97.1923L170.208 97.5865C170.193 94.7124 166.131 93.5021 165.339 90.7702C164.871 89.1532 165.652 87.2642 164.984 85.7112C164.771 85.2148 164.423 84.7872 164.188 84.2909C163.371 82.5307 164.284 80.4183 164.558 78.4329C165.02 75.1035 163.35 71.7053 164.515 68.416C165.055 66.8888 165.957 65.4732 166.653 63.9851C167.607 61.9462 168.144 59.7995 168.884 57.6995C169.888 54.8613 171.216 52.1479 172.84 49.6127C173.592 48.2825 174.642 47.1448 175.908 46.289C176.515 45.9258 177.194 45.7009 177.897 45.6304C176.201 47.2369 175.154 49.4113 174.957 51.7394C174.602 54.35 174.822 57.0065 174.332 59.5952C173.842 62.1839 172.407 64.8212 169.872 65.8197C168.806 66.2406 167.308 66.7742 167.556 67.8519" fill="#DCEFFB"/>
<path d="M182.172 118.224C181.79 118.036 181.45 117.775 181.169 117.455C180.889 117.136 180.674 116.764 180.538 116.361C180.445 115.898 180.311 115.443 180.14 115.002C180.02 114.716 179.544 114.187 179.544 113.895C179.558 115.437 179.04 116.884 179.239 118.434C179.554 120.071 180.022 121.675 180.637 123.224C180.691 123.346 180.711 123.48 180.694 123.612C180.633 123.774 180.512 123.908 180.357 123.985C180.202 124.063 180.023 124.08 179.856 124.033C179.539 123.932 179.259 123.738 179.053 123.476C179.295 123.802 178.883 124.306 178.442 124.346C178.232 124.346 178.024 124.303 177.831 124.22C177.638 124.137 177.465 124.015 177.32 123.863C176.708 123.335 176.204 122.694 175.836 121.974C175.8 122.253 175.772 122.524 175.74 122.804C175.336 122.987 174.987 122.552 174.832 122.185C174.043 120.317 173.341 118.475 172.732 116.586C172.511 115.892 172.299 115.193 172.106 114.479C171.929 113.826 171.587 113.222 171.425 112.562C171.269 111.809 171.231 111.036 171.311 110.271C171.425 107.947 171.98 105.446 171.407 103.217C170.874 101.124 170.462 98.9774 170.035 96.8507C170.939 96.2505 171.9 95.7426 172.905 95.3349C174.576 94.6564 176.347 94.259 178.147 94.1589C178.061 96.0279 177.976 97.8902 177.884 99.7582C177.806 100.78 177.827 101.806 177.947 102.823C178.197 104.054 178.603 105.248 179.155 106.377C179.93 108.137 181.528 109.442 182.097 111.245C182.458 112.695 182.682 114.176 182.765 115.668C182.814 116.035 183.639 119.12 182.168 118.224" fill="#35B989"/>
<path d="M192.263 43.5249C192.567 43.6547 192.931 43.9907 192.694 44.2141C192.631 44.2634 192.557 44.2962 192.478 44.3095C191.518 44.4892 190.525 44.3476 189.654 43.9066C188.782 43.4656 188.08 42.7498 187.656 41.8697C187.439 41.5303 187.316 41.1395 187.299 40.7372C187.283 40.3348 187.373 39.9352 187.56 39.5789C189.053 41.0555 190.272 42.661 192.26 43.5173" fill="#C6E4F7"/>
<path d="M195.104 140.234C194.948 139.67 194.777 139.099 194.621 138.528C194.827 138.827 195.026 139.118 195.225 139.418C195.182 139.69 195.147 139.962 195.104 140.234" fill="#DCEFFB"/>
<path d="M201.298 123.97C203.346 125.421 206.13 127.231 205.428 130.009C202.636 128.524 200.348 126.244 198.852 123.458C199.267 123.308 199.716 123.276 200.148 123.366C200.58 123.456 200.978 123.665 201.298 123.97Z" fill="#ACDBF5"/>
<path d="M194.395 63.0038C198.213 64.1941 200.159 63.2902 203.522 61.572C203.672 61.5078 203.807 61.4129 203.919 61.2933C203.971 61.2046 204.004 61.106 204.016 61.0039C204.029 60.9018 204.02 60.7982 203.99 60.6997C203.961 60.6011 203.911 60.5098 203.845 60.4312C203.778 60.3527 203.696 60.2888 203.604 60.2433C203.213 60.0625 202.778 59.9995 202.353 60.062C197.074 60.396 192.589 60.5306 187.395 59.2983C189.113 61.2981 191.825 62.1944 194.395 62.9981" fill="#ACDBF5"/>
<path d="M204.457 70.4398C201.369 71.4258 198.342 71.716 195.394 70.058C195.27 69.9883 195.137 69.9015 195.108 69.7717C195.036 69.4738 195.471 69.3268 195.79 69.3125C198.297 69.2046 200.922 68.5861 203.399 68.6806C203.865 68.6183 204.339 68.6761 204.776 68.8486C204.986 68.936 205.153 69.103 205.24 69.3131C205.327 69.5231 205.327 69.7591 205.24 69.9692C205.045 70.2162 204.768 70.3854 204.459 70.4465" fill="#ACDBF5"/>
<path d="M204.516 100.525C202.663 101.817 200.545 102.68 198.317 103.052C196.09 103.425 193.807 103.296 191.634 102.677C191.053 102.539 190.521 102.242 190.099 101.818C189.9 101.607 189.787 101.33 189.781 101.04C189.776 100.75 189.878 100.468 190.069 100.25C190.424 99.9947 190.855 99.8669 191.293 99.887C194.239 99.6961 197.198 99.9414 200.086 99.3629C201.445 98.9438 202.883 98.848 204.286 99.0833C204.656 99.1873 205.066 99.4221 205.071 99.7925C205.071 100.107 204.785 100.343 204.512 100.522" fill="#ACDBF5"/>
<path d="M186.335 141.328C188.011 141.457 189.678 140.976 191.027 139.974C191.084 139.924 191.131 139.863 191.164 139.795C191.198 139.727 191.216 139.653 191.22 139.577C191.223 139.501 191.211 139.425 191.185 139.354C191.158 139.284 191.117 139.219 191.064 139.164C190.837 138.945 190.554 138.791 190.247 138.718L183.862 136.592C182.903 136.272 183.276 136.742 182.274 136.576C182.504 139.314 185.674 141.451 188.446 140.736" fill="#ACDBF5"/>
<path d="M198.449 115.488C199.012 115.603 199.723 115.862 199.699 116.412C199.677 116.935 199.004 117.156 198.465 117.241C194.279 117.91 185.832 117.452 186.98 111.179C190.73 112.749 194.411 114.661 198.449 115.488" fill="#DCEFFB"/>
<path d="M190.47 167.585C188.806 170.192 185.083 170.594 182.249 169.705C180.94 169.294 175.268 167.208 176.343 165.227C176.838 164.314 178.265 164.665 179.243 165.093C182.79 166.638 186.602 167.484 190.47 167.585" fill="#ACDBF5"/>
<path d="M197.468 67.8139C198.013 68.0868 198.632 68.7827 198.136 69.1283C198.009 69.2026 197.865 69.244 197.717 69.2485C196.466 69.3779 195.202 69.2505 194.002 68.8743C193.492 68.714 192.785 68.5775 192.541 69.0357C192.472 69.2699 192.44 69.5133 192.445 69.7573C191.726 73.6976 187.651 65.5306 187.54 65.2968C187.246 64.7879 187.091 64.211 187.09 63.6235C187.104 63.3259 187.221 63.0424 187.421 62.8214C187.621 62.6005 187.891 62.4558 188.186 62.4122C188.809 62.374 189.295 62.8894 189.723 63.3256C191.717 65.3626 194.918 66.5338 197.472 67.812" fill="#DCEFFB"/>
<path d="M201.402 78.3653C199.938 78.0675 197.774 79.3017 195.926 78.9561C194.817 78.8066 193.749 78.439 192.782 77.8747C191.815 77.3103 190.97 76.5603 190.295 75.6678C190.232 75.5724 194.692 76.5269 195.285 76.7483C197.279 77.4448 199.325 77.9851 201.403 78.3643" fill="#DCEFFB"/>
<path d="M184.365 200.978C183.711 202.419 181.495 202.786 180.991 204.274C180.609 205.402 181.41 206.394 182.226 207.407C180.067 207.203 178.1 206.536 177.326 205.354C175.777 203.01 179.605 201.542 179.875 199.409C180.415 195.182 179.342 190.921 178.994 186.708C178.647 182.46 177.779 178.233 177.212 174.007C178.717 173.222 180.346 172.703 182.027 172.472C180.387 174.13 180.961 177.058 181.629 179.383C183.491 185.892 184.485 192.619 184.588 199.389C184.634 199.928 184.559 200.472 184.369 200.979" fill="#34434E"/>
<path d="M220.091 204.987C219.876 205.086 219.646 205.151 219.41 205.178C215.269 205.803 210.901 206.407 207.122 205.061C206.188 204.638 205.205 204.332 204.196 204.151C202.142 203.947 199.607 204.939 199.137 202.623C198.703 200.477 199.775 198.301 199.868 196.141C199.886 193.93 199.729 191.722 199.4 189.536C199.101 186.899 198.869 184.254 198.704 181.599C198.617 178.706 198.371 175.821 197.965 172.956C198.114 172.894 198.263 172.84 198.42 172.786C200.145 175.056 200.643 178.053 201.055 180.878C201.879 186.512 202.702 192.144 203.526 197.773C203.561 198.525 203.834 199.247 204.307 199.832C204.711 200.179 205.186 200.432 205.699 200.574C210.319 202.204 215.169 203.087 220.067 203.19H220.089C220.219 203.368 220.302 203.577 220.33 203.796L220.337 203.809C220.385 204.22 220.298 204.635 220.089 204.992" fill="#34434E"/>
<path d="M177.669 111.094C177.037 111.624 176.063 111.447 175.246 111.645C174.687 111.812 174.181 112.12 173.776 112.541C173.372 112.961 173.083 113.479 172.938 114.044C172.72 114.872 172.65 115.733 172.732 116.586C172.511 115.892 172.299 115.193 172.106 114.479C171.929 113.826 171.587 113.222 171.425 112.562C171.269 111.809 171.231 111.036 171.311 110.271C171.425 107.947 171.98 105.446 171.407 103.217C170.874 101.124 170.462 98.9775 170.035 96.8508C170.939 96.2505 171.9 95.7427 172.905 95.335C172.524 99.7258 174.986 104.074 177.392 107.955C178.003 108.94 178.556 110.334 177.662 111.094" fill="#5BC69B"/>
</g>
<defs>
<clipPath id="clip0">
<rect width="260" height="210" fill="white"/>
</clipPath>
</defs>
</svg>
