<svg width="35" height="35" viewBox="0 0 35 35" fill="none" xmlns="http://www.w3.org/2000/svg">
<path d="M21.8516 15.9766C22.5859 16.6016 22.9766 17.3984 23.0234 18.3672C23.0703 19.3359 22.7578 20.1562 22.0859 20.8281L17.5625 25.5156C17.4062 25.6719 17.2266 25.75 17.0234 25.75C16.8203 25.75 16.6406 25.6719 16.4844 25.5156L11.9609 20.8281C11.2891 20.1562 10.9766 19.3359 11.0234 18.3672C11.0703 17.3984 11.4609 16.6016 12.1953 15.9766C12.8359 15.4297 13.5703 15.1953 14.3984 15.2734C15.2422 15.3359 15.9609 15.6719 16.5547 16.2812L17.0234 16.75L17.4922 16.2812C18.0859 15.6719 18.7969 15.3359 19.625 15.2734C20.4688 15.1953 21.2109 15.4297 21.8516 15.9766Z" fill="url(#paint0_linear)"/>
<g clip-path="url(#clip0)">
<path fill-rule="evenodd" clip-rule="evenodd" d="M4.61224 20.5V33.355C4.61652 33.7858 4.78792 34.1982 5.09033 34.5051C5.39274 34.812 5.80253 34.9894 6.23325 35H28.6263C29.0577 34.9894 29.468 34.8113 29.7705 34.5036C30.073 34.1959 30.244 33.7825 30.2473 33.351V20.5C30.2526 20.2838 30.2147 20.0687 30.1357 19.8674C30.0566 19.6661 29.9381 19.4826 29.7871 19.3278C29.6361 19.173 29.4556 19.05 29.2563 18.966C29.0571 18.882 28.843 18.8387 28.6267 18.8387C28.4105 18.8387 28.1964 18.882 27.9971 18.966C27.7978 19.05 27.6174 19.173 27.4664 19.3278C27.3154 19.4826 27.1969 19.6661 27.1178 19.8674C27.0388 20.0687 27.0009 20.2838 27.0062 20.5V33.355V31.706H28.6263H6.23325H7.85324V33.355V20.5C7.85861 20.2838 7.82066 20.0687 7.74164 19.8674C7.66261 19.6661 7.54411 19.4826 7.3931 19.3278C7.24209 19.173 7.06165 19.05 6.86237 18.966C6.66308 18.882 6.44899 18.8387 6.23273 18.8387C6.01647 18.8387 5.8024 18.882 5.60312 18.966C5.40384 19.05 5.2234 19.173 5.07239 19.3278C4.92138 19.4826 4.80287 19.6661 4.72385 19.8674C4.64482 20.0687 4.60687 20.2838 4.61224 20.5ZM2.68524 19.28C4.44991 17.424 6.21656 15.5713 7.98523 13.722C10.8039 10.77 13.6202 7.8153 16.4342 4.85797C17.0278 4.23421 17.5 4 17.5 4C19.314 5.856 19.7119 6.52436 21.5212 8.37903C24.4052 11.339 27.2919 14.2963 30.1812 17.251C30.8452 17.927 31.5092 18.612 32.1742 19.288C32.4787 19.5909 32.8908 19.7609 33.3203 19.7609C33.7497 19.7609 34.1618 19.5909 34.4662 19.288C34.7628 18.9718 34.9278 18.5545 34.9278 18.121C34.9278 17.6875 34.7628 17.2702 34.4662 16.954C32.6509 15.0986 30.8393 13.2436 29.0312 11.389C26.1472 8.42898 23.2606 5.4717 20.3712 2.51703C19.7072 1.84003 19.0432 1.15598 18.3782 0.47998C18.228 0.329045 18.0494 0.209288 17.8528 0.127563C17.6561 0.0458392 17.4452 0.00378418 17.2322 0.00378418C17.0193 0.00378418 16.8084 0.0458392 16.6117 0.127563C16.4151 0.209288 16.2365 0.329045 16.0862 0.47998C14.3202 2.33531 12.5536 4.18765 10.7862 6.03699C7.96756 8.98899 5.15125 11.9437 2.33725 14.901C1.68925 15.586 1.03725 16.262 0.39325 16.946C0.0953614 17.2615 -0.0705872 17.679 -0.0705872 18.113C-0.0705872 18.5469 0.0953614 18.9645 0.39325 19.28C0.699056 19.5808 1.1108 19.7493 1.53973 19.7493C1.96867 19.7493 2.38044 19.5808 2.68625 19.28H2.68524Z" fill="url(#paint1_linear)"/>
</g>
<defs>
<linearGradient id="paint0_linear" x1="11" y1="20.6" x2="23.0002" y2="20.5937" gradientUnits="userSpaceOnUse">
<stop stop-color="#FF4800"/>
<stop offset="1" stop-color="#FF7400"/>
</linearGradient>
<linearGradient id="paint1_linear" x1="-0.0705872" y1="19.0017" x2="34.9284" y2="18.9805" gradientUnits="userSpaceOnUse">
<stop stop-color="#FF4800"/>
<stop offset="1" stop-color="#FF7400"/>
</linearGradient>
<clipPath id="clip0">
<rect width="35" height="35" fill="white"/>
</clipPath>
</defs>
</svg>
