<?xml version="1.0" encoding="utf-8"?>
<!-- Generator: Adobe Illustrator 24.1.1, SVG Export Plug-In . SVG Version: 6.00 Build 0)  -->
<svg version="1.1" id="Layer_1" xmlns="http://www.w3.org/2000/svg" xmlns:xlink="http://www.w3.org/1999/xlink" x="0px" y="0px"
	 viewBox="0 0 370 250" style="enable-background:new 0 0 370 250;" xml:space="preserve">
<style type="text/css">
	.st0{clip-path:url(#SVGID_2_);}
	.st1{fill:#EDEDED;}
	.st2{fill:#F9C0A4;}
	.st3{fill:#4C4A5B;}
	.st4{fill:#DCDAE5;}
	.st5{fill:#C8C0C2;}
	.st6{fill:#C0564F;}
	.st7{fill:#EB847C;}
	.st8{fill:#7C564F;}
	.st9{fill:#FFFFFF;}
	.st10{fill:#E6D0B8;}
	.st11{fill:#E19D76;}
	.st12{fill:#AD4639;}
	.st13{fill:#FDB200;}
	.st14{fill:#C78600;}
	.st15{fill:#FFCF00;}
	.st16{fill:#036395;}
	.st17{fill-rule:evenodd;clip-rule:evenodd;fill:#B87E2C;}
	.st18{fill-rule:evenodd;clip-rule:evenodd;fill:#726870;}
	.st19{fill:#4797C7;}
	.st20{fill:#3D81AA;}
	.st21{fill:#C7DBE8;}
	.st22{fill:#89BEC7;}
	.st23{fill-rule:evenodd;clip-rule:evenodd;fill:#4A6170;}
	.st24{fill:#E4E6F7;}
	.st25{fill:#D0D3E8;}
	.st26{fill-rule:evenodd;clip-rule:evenodd;fill:#D7E5F0;}
	.st27{fill:#9A6025;}
	.st28{fill:#8B4E1B;}
	.st29{fill:#9F8A79;}
	.st30{fill:#8E746D;}
	.st31{fill:#314877;}
	.st32{fill:#FF793B;}
	.st33{fill:#FFE02C;}
	.st34{fill-rule:evenodd;clip-rule:evenodd;fill:#8E746D;}
	.st35{fill:#845410;}
	.st36{fill:#77450C;}
	.st37{fill:#686368;}
	.st38{fill:#FE8606;}
	.st39{fill:#594F4C;}
	.st40{fill:#C76106;}
	.st41{fill:#FEB306;}
</style>
<g>
	<defs>
		<rect id="SVGID_1_" x="28" y="1" width="307.1" height="248.1"/>
	</defs>
	<clipPath id="SVGID_2_">
		<use xlink:href="#SVGID_1_"  style="overflow:visible;"/>
	</clipPath>
	<g class="st0">
		<path class="st1" d="M208.6,235.5c0.1,5.8,24.2,10.1,53.8,9.5c29.6-0.6,53.5-5.8,53.4-11.6c-0.1-5.8-24.2-10.1-53.8-9.5
			C232.4,224.4,208.5,229.6,208.6,235.5z"/>
		<path class="st1" d="M46.9,238.2c0,5.8,24,10.5,53.6,10.5c29.6,0,53.6-4.7,53.6-10.5c0-5.8-24-10.6-53.6-10.6
			C70.9,227.6,46.9,232.3,46.9,238.2z"/>
		<path class="st2" d="M290.6,111.5c2.8-5.3-5.7-27.5-5.7-27.5l-10.2,5.4c1.3,2.3,2.5,4.7,3.5,7.1c1,2.4,1.8,4.9,2.2,7.5
			C280.9,106.1,287.9,116.8,290.6,111.5"/>
		<path class="st2" d="M230.9,86.8c0,0-7.4,12.6-7,18.2c0.3,5.6,15,21.4,15,21.4l1.6-8.2c0,0-6.8-11.8-6.2-14.4
			c0.7-2.6,7.3-16.8,7.3-16.8L230.9,86.8z"/>
		<path class="st2" d="M277.8,203.9c0,0,0.5,22.7,1.4,23.8c0.9,1.1,11.9,6.4,10.2,9c-1.6,2.6-18.5-0.8-18.5-0.8l-0.1-8.6l-0.9-25.4
			L277.8,203.9"/>
		<path class="st3" d="M279.5,228c2.2,1.6,11.3,6.3,9.8,8.7c-1.6,2.6-18.5-0.8-18.5-0.8l-0.1-7.1C273.7,229,276.7,228.8,279.5,228z"
			/>
		<path class="st2" d="M245.4,204.6c0,0,0.5,22.7-0.4,23.8c-0.8,1.1-11.6,7-9.9,9.5c1.7,2.5,18.4-1.7,18.4-1.7l-0.2-8.6l-0.1-25.4
			L245.4,204.6"/>
		<path class="st3" d="M244.7,228.8c-2.1,1.7-11.1,6.8-9.5,9.1c1.7,2.5,18.4-1.7,18.4-1.7l-0.2-7.1
			C250.5,229.6,247.6,229.4,244.7,228.8"/>
		<path class="st4" d="M272,66.7c7.4,3.1,14.2,17,14,18.7c-0.2,1.7-1.1,3.7-4.3,6.1c-2.6,2-4.6,2.5-4.9,2.4c-0.6-0.3-3.5-3.9-5-5.7
			c-2-2.3-3.5-3.8-3.5-3.8S264.6,63.6,272,66.7"/>
		<path class="st4" d="M247.6,66.3c-2.2-1.3-9.4,2.9-13.7,9.7c-2.6,4-4.6,8.3-6,12.8c-1,3,7.1,6.8,10.1,7.6
			c2.9,0.8,6.7-10.3,6.7-10.3S249.8,67.7,247.6,66.3"/>
		<path class="st4" d="M255.9,64.3c0,0-16.9,1.3-17.2,8.1c-0.2,5.3,8.4,20.2,7.8,28.1c-0.6,7.9-3.7,26.6-3.7,26.6s9.3,4.8,15.9,5
			s16.6-6.5,16.6-6.5s-4.3-11.9-4.5-21c-0.3-15.7,7.8-33.4,5.1-35.8C269.3,62.8,255.9,64.3,255.9,64.3"/>
		<path class="st5" d="M258.3,64.2c-2.3-0.2-6.6,0.5-6.9,1.4c-0.3,0.9,0.9,7.2,5.9,7.5c5.4,0.3,7.2-5.3,7.5-7.3
			C265.1,63.9,260.6,64.4,258.3,64.2"/>
		<path class="st6" d="M269.6,48.6c-0.5-1.2-0.3-2.9-1.4-3.8c-0.4-0.3-0.8-0.5-1.3-0.6L244,46.8c0.1,1.9,0,3.8-0.2,5.8
			c-0.3,2.1-0.5,4.4-0.1,5.7c0.2,0.6,0.6,1.2,1,1.7c0.4,0.5,1,0.9,1.6,1.2c1.9,0.9,3.6-1.2,4.6-1c1.1,0.2,3,1.9,5.1,1.6
			c1.2-0.1,2.3-0.6,3.2-1.5c1.3-0.9,1.5-0.2,2.8,0c2.1,0.4,2.8-2,4.7-2.7c0.8-0.3,2.7,0,3.8-1.2c0.3-0.5,0.6-1.1,0.7-1.7
			c0.1-0.6,0.1-1.2-0.1-1.8C270.8,51.4,270.3,50,269.6,48.6"/>
		<path class="st2" d="M261.4,55l-8.3,1.5l-0.2,9.2c0,0,1.3,4.3,4.5,5c3.2,0.8,5.4-5.8,5.4-5.8L261.4,55"/>
		<path class="st2" d="M245.3,35.2c1.8-5.2,9.9-7.5,14.1-6.3c10,3,10.9,18.2,4.3,26.2c-7.3,8.9-17.4,2-19.3-7.9
			C243.5,43.3,243.8,39.1,245.3,35.2"/>
		<path class="st7" d="M259.6,58.2c-1.5,0.6-3.1,0.8-4.8,0.8c0,0-0.1,0-0.1,0c0,0-0.1,0.1-0.1,0.1s0,0.1,0,0.1c0,0,0,0.1,0.1,0.1
			c0.8,0.3,1.7,0.4,2.6,0.3c0.9-0.2,1.7-0.6,2.4-1.2C259.9,58.3,259.8,58.2,259.6,58.2"/>
		<path class="st6" d="M257.4,33.1c0,0-3.6,5.1-6.1,5.8c-2.5,0.8-1.2-2.6-1.2-2.6s-3.7,7.7-5.4,6.5c-1.6-1.2-3.3-5.2-0.9-9.5
			c2.4-4.3,7.8-8.5,12.9-8.1c5,0.4,4.8,1.8,4.8,1.8s4.4,0.6,5.8,3.2c1.4,2.6,3.4,11.5,1.7,12.5c-1.7,1-3.1,5.7-3.4,3.7
			c-0.8-3.4-2.1-6.6-3.7-9.7C260.8,34.9,257.4,33.1,257.4,33.1"/>
		<path class="st2" d="M268.6,40.9c-2,1.1-2.4,3.7-2.9,5.6c0.1,3.2,4.4,3.5,5.5-0.7C271.9,43.4,270.8,39.9,268.6,40.9z"/>
		<path class="st7" d="M267.9,46.7c-0.1-0.1-0.2-0.2-0.3-0.3c-0.1-0.1-0.1-0.3-0.1-0.4l0.1,0c0.4-0.1,0.9-0.3,1,0.3
			C268.9,47,268.4,46.9,267.9,46.7z M269.4,45.9c0-0.2-0.1-0.4-0.3-0.5c-0.1-0.1-0.3-0.2-0.5-0.2c-0.2,0-0.4,0-0.6,0.1
			c-0.2,0.1-0.3,0.2-0.4,0.4c0-0.3,0.1-0.6,0.2-0.9c0.2-0.7,0.7-1.4,1.4-1.7c0,0,0.1,0,0.1-0.1c0,0,0-0.1,0-0.1c0,0,0-0.1-0.1-0.1
			c0,0-0.1,0-0.1,0c-1.9,0.6-3.5,4.7-0.6,4.9C269.4,47.7,269.6,46.5,269.4,45.9"/>
		<path class="st2" d="M243.1,41.4c2,1,2.6,3.5,3.1,5.5c0.1,3.2-4.3,3.7-5.5-0.5C239.9,44.1,240.9,40.5,243.1,41.4z"/>
		<path class="st7" d="M243.2,46.9c0.1-0.6,0.6-0.4,1-0.3l0.1,0c0,0.1,0,0.3-0.1,0.4c-0.1,0.1-0.1,0.2-0.3,0.3
			C243.6,47.5,243,47.6,243.2,46.9z M243.5,48.2c2.9-0.3,1.1-4.4-0.8-4.9c0,0-0.1,0-0.1,0c0,0-0.1,0-0.1,0.1c0,0,0,0.1,0,0.1
			c0,0,0,0.1,0.1,0.1c0.7,0.4,1.2,1,1.4,1.7c0.1,0.3,0.2,0.6,0.3,0.9c-0.1-0.2-0.2-0.3-0.4-0.4c-0.2-0.1-0.4-0.1-0.6-0.1
			c-0.2,0-0.4,0.1-0.5,0.3c-0.1,0.1-0.2,0.3-0.3,0.5C242.3,47.2,242.6,48.3,243.5,48.2"/>
		<path class="st8" d="M255.5,48.6c-0.4-0.4-0.9-0.7-1.3-1.1c0.4-0.6,0.7-1.3,0.9-2c0.1-0.7,0-1.5-0.2-2.2c0,0-0.1-0.1-0.1-0.1
			c0,0-0.1,0-0.1,0c0,0-0.1,0-0.1,0c0,0-0.1,0.1-0.1,0.1c-0.2,0.6-0.3,1.3-0.3,1.9c-0.2,0.8-0.5,1.5-1,2.1c-0.1,0.1-0.1,0.2-0.1,0.3
			c0,0.1,0.1,0.2,0.1,0.3c0.6,0.5,1.5,1.5,2.3,1c0,0,0,0,0.1-0.1c0,0,0-0.1,0-0.1C255.6,48.8,255.6,48.8,255.5,48.6
			C255.6,48.7,255.6,48.7,255.5,48.6"/>
		<path class="st9" d="M252.4,50l8.3-0.6c0,0-1.5,4.1-4.2,4.4C253.6,54.1,252.4,50,252.4,50"/>
		<path class="st8" d="M261.7,44c-0.1-0.2-0.3-0.3-0.5-0.5c-0.2-0.1-0.4-0.2-0.6-0.2s-0.4,0.1-0.6,0.2c-0.2,0.1-0.3,0.3-0.5,0.5
			c-0.2,0.3-0.3,0.6-0.3,0.9c0,0.4,0.2,0.7,0.4,1c0.3,0.3,0.6,0.4,1,0.4c0.4,0,0.7-0.2,1-0.5c0.3-0.3,0.4-0.6,0.4-1
			C262,44.6,261.9,44.2,261.7,44"/>
		<path class="st8" d="M249.8,43.4c-0.4,0-0.7,0.2-0.9,0.5c-0.2,0.3-0.3,0.7-0.3,1c0,0.4,0.1,0.7,0.4,1c0.2,0.3,0.6,0.4,1,0.5
			c0.4,0,0.7-0.2,0.9-0.5c0.2-0.3,0.3-0.7,0.3-1c0-0.4-0.1-0.7-0.4-1C250.5,43.6,250.2,43.4,249.8,43.4"/>
		<path class="st10" d="M243.5,41.4c-0.7-0.4-1.2-1-1.5-1.7c0-0.1,0-0.1,0-0.2c0-0.1,0-0.1,0.1-0.2c0-0.1,0.1-0.1,0.1-0.1
			c0.1,0,0.1-0.1,0.2-0.1h0c0.1,0,0.3,0,0.4,0C242.9,39.9,243.1,40.7,243.5,41.4"/>
		<path class="st11" d="M250.2,42.7c-1.3,0-2.7-0.1-4-0.3c0.6-0.6,1.2-1.4,1.7-2.1c0.2,0,0.4,0,0.5,0h0.2c2.2,0,4.5-0.2,6.7-0.3
			c2.7-0.2,5.3-0.3,7.9-0.7c0.4,0.8,0.7,1.7,1,2.6c-0.5,0.1-1.1,0.1-1.6,0.2c-3,0.4-5.9,0.4-8.9,0.6
			C252.8,42.7,251.6,42.7,250.2,42.7"/>
		<path class="st12" d="M246.2,42.4c-0.9-0.2-1.9-0.5-2.7-1c-0.4-0.7-0.6-1.5-0.8-2.3c1.7,0.2,3.3,1,5.1,1.1
			C247.4,41,246.8,41.7,246.2,42.4L246.2,42.4z M264.3,41.8c-0.3-0.9-0.7-1.8-1-2.6l0.5-0.1c1.3-0.4,2.6-0.7,4-0.8
			c0.6,0,1.1,0.1,1.6,0.4c0.1,0.1,0.2,0.2,0.3,0.4c0,0.2,0,0.3,0,0.5C268.6,41.1,266.3,41.6,264.3,41.8"/>
		<path class="st13" d="M242.5,34.9c0,0-4.2,3.2-0.4,4.9c2.1,1,9.6,1.6,16.8,1.2c5.7-0.4,10-1.8,10.7-2.4c0.3-0.5,0.5-1.2,0.5-1.8
			c0-0.6-0.2-1.2-0.5-1.8c-0.6-3.7-1.5-9.8-4.3-12.6c-1.6-1.6-3.7-2.6-6-2.9c-0.3-0.4-0.8-0.7-1.3-0.9c-0.5-0.2-1-0.3-1.5-0.2
			c-1,0-2.2-0.2-3.1,1.3c-2.9,0.6-5.4,2.2-7.2,4.4C242.8,28.7,242.5,34.9,242.5,34.9"/>
		<path class="st14" d="M268.6,35.5c-3.4,0.5-6.8,1.1-10.2,1.4c-2,0.2-12.6-0.5-14.9-1.5c-0.2-0.1-0.5,0.2-0.2,0.4
			c1.5,0.8,3.1,1.2,4.8,1.3c2.7,0.5,5.5,0.7,8.2,0.7c3.2-0.1,6.4-0.5,9.5-1.2c1.1-0.2,2.1-0.4,3.1-0.8
			C269,35.8,268.9,35.5,268.6,35.5"/>
		<path class="st14" d="M250.9,28.8c0.2-2.7,0.9-5.4,2.1-7.9c0-0.1-0.1-0.2-0.1-0.1c-1.5,2-2.5,4.4-2.8,6.9s0,5.1,0.9,7.4
			c0.1,0.1,0.2,0.1,0.2-0.1C251.2,33,250.8,30.9,250.9,28.8"/>
		<path class="st14" d="M258.3,20.8c0-0.1-0.1-0.3-0.2-0.2c-3.1,3.7-3.4,11.3-1.6,15.6c0,0,0,0,0,0c0,0,0,0,0.1,0c0,0,0,0,0.1,0
			c0,0,0,0,0-0.1c0.4-2.1-0.3-4.3-0.3-6.4C256.5,26.7,257.2,23.7,258.3,20.8"/>
		<path class="st15" d="M249.1,22.4c-1.6,1-2.8,2.3-3.6,4c-1,1.6-2.4,4.3-1.6,6.3c0,0.1,0.1,0.2,0.2,0.2c0.1,0.1,0.2,0.1,0.3,0.1
			c0.1,0,0.2,0,0.2-0.1s0.1-0.1,0.1-0.2c0.5-1.9,1.2-3.8,2.2-5.5c0.8-1.5,2.2-2.6,2.7-4.3C249.7,22.6,249.4,22.3,249.1,22.4"/>
		<path class="st15" d="M255,19.9c-2-0.2-2.8,3.6-3.1,5c-0.6,2.8-1.6,6.7,0.5,9.1c0,0,0.1,0,0.1,0.1s0.1,0,0.1,0c0,0,0.1,0,0.1-0.1
			c0,0,0-0.1,0.1-0.1c0.3-2.5,0.4-5.1,0.6-7.6c0.3-2,0.9-4,1.8-5.9C255.3,20.2,255.2,19.9,255,19.9"/>
		<path class="st15" d="M258.9,23c-0.8,0.9-1.3,2-1.6,3.2s-0.2,2.4,0.1,3.5c0,0,0,0.1,0.1,0.1c0,0,0.1,0,0.1,0c0,0,0.1,0,0.1,0
			c0,0,0.1-0.1,0.1-0.1c0.3-1,0.4-2.1,0.5-3.2c0.2-1.1,0.5-2.2,0.9-3.3C259.4,23,259.1,22.8,258.9,23"/>
		<path class="st15" d="M255.9,38.8c-2.1-0.3-4.2-0.5-6.3-0.6c-2.4-0.2-4.7-1.2-7-1.4c-0.3,0-0.8,0.4-0.5,0.7
			c1.3,1.7,3.8,1.9,5.8,2.2c2.7,0.4,5.4,0.3,8.1-0.4c0.1,0,0.1-0.1,0.1-0.1c0,0,0-0.1,0-0.2c0-0.1,0-0.1-0.1-0.1
			C256,38.9,255.9,38.8,255.9,38.8"/>
		<path class="st16" d="M245.8,65.7c0,0-0.8,3.8-1.4,7.5c-0.5,3-0.6,5.7-1.6,7.9c-2.2,5.1-2.9,5.1-1.2,12.1c1.7,7,2.7,12.4,2.2,17.8
			c-1,9.7-4.8,18.6-5.1,27.8c-0.2,7.7-0.1,20.8,0.7,35.6c1.4,24.2,4.7,52.5,5.4,54c1.2,2.4,8.2,2.6,8.6,1c0.4-1.6,5.7-84.7,5.7-84.7
			s10.4,82.6,11.4,83.9c1,1.3,7.5,1.4,8.6-0.7c0.6-1.2,1.5-29.9,1.3-54.4c-0.1-17.4-1.1-32.4-1.4-35.1c-0.8-6.5-3.5-15.6-4.9-20.5
			c-1.5-4.9-2-19.6-1-25.3c1-5.6-1.1-7.5-1.6-12.6c-0.2-4.5-0.1-9,0.5-13.5c-1.1-0.5-2.2-1-3.4-1.3c-1.6-0.4-3.9,13.6-3.9,13.6
			c-2.9-0.2-5.7-0.3-8.6-0.3c-3.6,0.1-7.7,0.4-7.7,0.4s0.1-4.6,0.3-7.7c0.2-2.1,0.8-4.2,1.7-6.1C250.6,64.8,247.4,64.4,245.8,65.7"
			/>
		<path class="st2" d="M237.2,126.7c-0.7-3.8,0.8-4.8,0.8-4.8c-0.2-0.9-0.1-1.9,0.2-2.8c0.5-1,1.4-1,1.6-0.9c-0.1-0.3-1-1.3,0.1-2.2
			c1.2-0.9,5,2,5.4,3.6c0,0.2,0,0.4,0,0.6c-0.1,0.2-0.2,0.4-0.3,0.5c-0.2,0.1-0.3,0.3-0.5,0.3c-0.2,0.1-0.4,0.1-0.6,0
			c-0.8-0.2-1.5-0.5-2.2-0.8c0.5,2.2,2.2,3.8,1.8,5.1c-0.1,0.2-0.2,0.3-0.4,0.5c-0.2,0.1-0.3,0.2-0.5,0.3c-0.2,0-0.4,0.1-0.6,0
			c-0.2,0-0.4-0.1-0.5-0.3l-0.2-0.2c0,0.2,0,0.4,0,0.6c0.3,0.3,0.6,0.6,0.8,1c0.1,0.1,0.1,0.3,0.1,0.5c0,0.2,0,0.3-0.1,0.5
			c-0.1,0.2-0.2,0.3-0.3,0.4c-0.1,0.1-0.3,0.2-0.4,0.3c-0.3,0.1-0.6,0.1-0.9,0c-0.1,0-0.1,0.1-0.2,0.1c0.3,0.4,0.5,0.9,0.7,1.4
			c0.1,0.2,0.1,0.5,0,0.7c-0.1,0.2-0.2,0.5-0.4,0.6c-0.2,0.2-0.4,0.2-0.7,0.2c-0.3,0-0.5-0.1-0.7-0.2c-0.8-0.7-1.4-1.5-1.8-2.5
			c-0.2-0.4-0.4-0.9-0.4-1.4C236.9,127.6,236.9,127.1,237.2,126.7"/>
		<path class="st7" d="M239.6,118.2c0-0.1,0.1-0.2,0.2-0.1c0.4,0.4,0.8,0.8,1.2,1.3c0.5,0.6,1.2,1.1,2,1.3c0,0,0.1,0,0.1,0.1
			c0,0,0,0.1,0.1,0.1c0,0,0,0.1,0,0.1c0,0,0,0.1,0,0.1c0,0,0,0.1-0.1,0.1c0,0-0.1,0-0.1,0.1c0,0-0.1,0-0.1,0s-0.1,0-0.1,0
			C241.4,120.8,239.6,119.7,239.6,118.2"/>
		<path class="st7" d="M238.3,122.4c1.2,0.9,1.8,2.3,3,3.3c0,0,0.1,0.1,0.1,0.1c0,0,0,0.1,0,0.1c0,0,0,0.1,0,0.1c0,0,0,0.1-0.1,0.1
			c0,0-0.1,0.1-0.1,0.1c0,0-0.1,0-0.1,0c0,0-0.1,0-0.1,0c0,0-0.1,0-0.1-0.1c-1.3-0.9-2.3-2.2-2.9-3.6c0,0,0-0.1,0-0.1
			c0,0,0-0.1,0-0.1C238.2,122.3,238.2,122.3,238.3,122.4C238.2,122.3,238.3,122.3,238.3,122.4"/>
		<path class="st7" d="M237.8,126.9c0.3,0.3,0.5,0.6,0.8,0.9c0.3,0.4,0.6,0.7,1.1,0.9c0.1,0,0.1,0.1,0.1,0.2s0,0.2,0,0.2
			c0,0.1-0.1,0.1-0.2,0.2c-0.1,0-0.1,0-0.2,0c-0.4-0.2-0.8-0.6-1.1-1c-0.3-0.4-0.5-0.9-0.6-1.4c0,0,0,0,0-0.1
			C237.7,126.9,237.7,126.9,237.8,126.9C237.8,126.9,237.8,126.9,237.8,126.9C237.8,126.9,237.8,126.9,237.8,126.9"/>
		<path class="st2" d="M283.9,103.6c-1.6-1.3-3.2-2.5-4.9-3.7c-1.1,1-5.4,4.9-4.3,6.7c2,3.6,9.9,14.1,15.1,7c0.6-0.9,1-1.9,1.2-2.9
			C288.9,108,286.5,105.7,283.9,103.6"/>
		<path class="st17" d="M280.1,119.3l-19.5-34l-26.3,15.4l20.1,34.4L280.1,119.3z"/>
		<path class="st18" d="M255.3,92.8l-10.8,6.8c0,0-3.2-4.4-3-5.1c0.2-0.7,11-6.8,11-6.8L255.3,92.8"/>
		<path class="st2" d="M265.2,106.6c0.1-0.2,0.3-0.5,0.5-0.7c-0.3,0.2-0.7,0.3-1.1,0.4c-1.3,0.3-2.1-1.5-1.2-2.4
			c0.2-0.2,0.4-0.3,0.6-0.5c-0.5,0.1-1,0.1-1.4,0.1c-0.2,0-0.5-0.1-0.6-0.3c-0.2-0.2-0.3-0.4-0.4-0.6c-0.1-0.2-0.1-0.5,0-0.7
			c0.1-0.2,0.2-0.4,0.4-0.6c1.3-1.4,2.8-1.9,4.3-2.8c1.3-1.8,4.6-1.7,6.5-1.5c0.9,0.1,5,0.7,7.2,2.3c2.1,1.6,3.5,1.7,3.7,4
			c0.1,1.3-2.1,0.1-3,1.1c-0.9,1-2.8,3.2-4.6,3.7c-0.8,0.6-1.5,1.2-2.3,1.7c-0.5,0.4-1.1,0.8-1.7,0.9c-0.6,0.2-1.3,0.2-2,0.1
			c-1.3,0.3-2.1-1.2-1.7-2.3c-0.3,0.2-0.6,0.4-1,0.5c-0.3,0.1-0.7,0.2-1,0.1c-0.3-0.1-0.7-0.3-0.9-0.5c-0.2-0.3-0.4-0.6-0.4-1
			C264.9,107.3,265,106.9,265.2,106.6"/>
		<path class="st7" d="M263.3,103.5c0.8-1.2,2.1-2,3.5-2.3c0.4-0.1,0.5,0.5,0.1,0.6c-0.7,0.2-1.3,0.5-1.8,0.9
			c-0.5,0.4-1.1,0.6-1.7,1c0,0,0,0-0.1,0c0,0,0,0-0.1,0C263.3,103.6,263.3,103.6,263.3,103.5C263.3,103.6,263.3,103.6,263.3,103.5"
			/>
		<path class="st7" d="M264.4,105.9c0.7-0.4,1.5-0.8,2.3-1c0.9-0.4,1.8-0.8,2.7-1.4c0,0,0.1-0.1,0.2,0c0.1,0,0.1,0,0.1,0.1
			s0.1,0.1,0,0.2c0,0.1,0,0.1-0.1,0.1c-0.7,0.8-1.6,1.4-2.6,1.8c-0.8,0.5-1.7,0.7-2.6,0.5c0,0,0,0-0.1,0c0,0,0,0,0-0.1
			C264.3,106.1,264.3,106,264.4,105.9C264.3,106,264.4,106,264.4,105.9"/>
		<path class="st7" d="M267.2,108.5c0.5-0.2,1.1-0.5,1.6-0.7c0.7-0.2,1.4-0.6,1.9-1.2c0.5-0.5,1.1,0.1,0.6,0.6
			c-0.5,0.5-1.2,1-1.9,1.2c-0.7,0.3-1.5,0.4-2.3,0.4C267,108.8,267,108.6,267.2,108.5"/>
		<path class="st7" d="M280.5,99.6c-2-1.2-5.4-2.9-7.7-2.4c-0.2,0-0.1,0.3,0,0.3c2.6,0.6,5,1.5,7.4,2.8c2.2,1.3,3.4,3.3,5.1,5.1
			c0.1,0.1,0.3,0,0.3-0.2C285,102.7,282.5,100.9,280.5,99.6"/>
		<path class="st1" d="M127.9,235.8c0,5.8,24,10.5,53.6,10.5c29.6,0,53.6-4.7,53.6-10.5c0-5.8-24-10.5-53.6-10.5
			C151.9,225.3,127.9,230,127.9,235.8z"/>
		<path class="st2" d="M191.8,208.4c0,0-2.4,17.8-1.7,19.1c0.7,1.3,11.2,8.8,9.2,11.2c-2.1,2.4-19-4.1-19-4.1l1.3-8.9l2.4-20.7
			L191.8,208.4"/>
		<path class="st3" d="M190.5,227.9c2,2,10.7,8.5,8.8,10.7c-2.1,2.4-19-4.1-19-4.1l1-7.4C184.3,227.9,187.4,228.2,190.5,227.9"/>
		<path class="st2" d="M167.1,210.1c0,0-0.2,18,0.7,19.1c0.9,1.2,12.2,7.2,10.4,9.9c-1.8,2.7-19.4-1.6-19.4-1.6l0.2-9l-0.2-20.8
			L167.1,210.1"/>
		<path class="st3" d="M168.2,229.6c2.2,1.7,11.7,7,10,9.5c-1.8,2.7-19.4-1.6-19.4-1.6l0.1-7.5C162,230.4,165.1,230.3,168.2,229.6"
			/>
		<path class="st19" d="M198.3,121c0,0,0,47.2-1.6,61.2c-1.6,14-3.3,44.8-4.9,46.3s-10-0.2-11.4-1.3c-1-0.8-0.1-38-0.3-46.8
			c-0.2-8.8,0-39.2-0.4-40.3c-0.3-1.1-2.9,1.5-3.1,4.5c-1.2,20.2-6.5,83.3-7.8,85c-1.4,1.7-7.1,1.2-9.5,0.9
			c-2.4-0.3-0.6-59.6-2.3-71.9c-1.9-14,0.6-42.9,0.6-42.9L198.3,121"/>
		<path class="st20" d="M182.1,124.4c0-0.1-0.1-0.2-0.1-0.2c-0.1,0-0.2-0.1-0.2-0.1c-0.1,0-0.2,0-0.2,0.1c-0.1,0.1-0.1,0.1-0.1,0.2
			c-0.5,2.5-0.3,5-0.6,7.5c-0.2,1.4-0.5,2.7-0.9,4c-0.3,1-1.1,1.9-1.3,2.9c0,0.2,0.1,0.5,0.4,0.5
			C183.3,138.7,182.9,127.5,182.1,124.4"/>
		<path class="st20" d="M164.2,123.5c-1,1.2-2,2.5-2.7,3.9c-0.2,0.4-3.6,4.3-3.9,3.7c0,0-0.1-0.1-0.1-0.1c0,0-0.1,0-0.1,0
			c0,0-0.1,0-0.1,0.1c0,0,0,0.1,0,0.1c0.2,1.6,2.9-0.3,3.4-0.8c1.8-1.9,3.2-4.1,4.1-6.6C164.9,123.6,164.5,123.2,164.2,123.5"/>
		<path class="st20" d="M196.4,130.1c-0.8-1.3-1.7-2.5-2.7-3.6c-0.9-1.3-1.7-2.8-2.5-4.1c-0.1-0.1-0.1-0.1-0.2-0.2
			c-0.1,0-0.2,0-0.3,0c-0.1,0-0.2,0.1-0.2,0.2c0,0.1,0,0.2,0,0.3c0.4,1.6,1.1,3.2,2,4.6c0.8,1.3,2,2.9,3.5,3.3
			C196.2,130.6,196.5,130.4,196.4,130.1z"/>
		<path class="st21" d="M194.3,55.1c5.5,2.6,13.6,19.2,13.2,20.9c-0.4,1.7-8.8,10-10.3,10c-1.4,0-9.7-10.7-10.3-15.9
			C186,62.9,189.1,52.6,194.3,55.1"/>
		<path class="st2" d="M204.8,74.3c2.1,0.7,8.8,13.2,6,19.9c-2.7,6.7-6.7,6-8.8,4.2c-2.2-1.8-8.1-18.3-6.1-20.9
			C198.1,74.9,202.7,73.6,204.8,74.3"/>
		<path class="st21" d="M177.9,49.3c0,0,17.2,1.5,17.8,8.9c0.2,2.8-0.2,15.7,0.3,28c0.5,12.7,4.2,33.6,0.7,34.3
			c-5.2,1.1-12.6,1.2-20.5,1.3c-7.8,0.1-19-0.6-19.4-2.2c-1.7-6.3-0.6-17.9-0.8-27.7c-0.3-16.9-2.2-35.9,0.6-38.7
			C163.3,46.7,177.9,49.3,177.9,49.3"/>
		<path class="st22" d="M194.8,68.5c-0.3-1.2-0.7-2.5-1-3.7c-0.1-0.5-0.8-0.3-0.7,0.2c0.1,1.3,0.4,2.6,0.9,3.9
			c0,0.1,0.1,0.1,0.2,0.2c0.1,0,0.1,0.1,0.2,0.1c0.1,0,0.2,0,0.2-0.1c0.1-0.1,0.1-0.1,0.2-0.2C194.8,68.7,194.8,68.6,194.8,68.5"/>
		<path class="st23" d="M177.4,54.5l-2.9,2.6l1.5,3.9l2.8-0.4l1.5-4L177.4,54.5"/>
		<path class="st23" d="M176,59.8c0,0-3.4,31-2.1,32.5c1.2,1.6,4.5,6.1,6.2,6.2c1.7,0.1,4.5-5.5,4.4-7.8c0-2.3-5.8-30.9-5.8-30.9
			L176,59.8"/>
		<path class="st24" d="M221.4,70.4l-45.8-6.3c0,0-2.4,16.7-5.2,24c-2.6,6.8-5.2,39.4-5.2,39.4s14.5-4.7,22.6-6.6
			c8.1-1.9,20.7,2.1,20.7,2.1s0-21.1,3.2-29.9C214.2,86.1,221.4,70.4,221.4,70.4"/>
		<path class="st25" d="M207.3,82.7c-4.1,3.1-8.5,6.8-11.4,11c-1.9,2.8-3.6,5.8-5.1,8.8c-1.7,3.2-2.9,7-5.2,9.9
			c-0.4,0.5,0.3,1.2,0.7,0.7c3.7-4.4,5.8-10.6,8.7-15.6c3.4-5.8,8.8-9.2,12.6-14.6C207.8,82.9,207.5,82.6,207.3,82.7"/>
		<path class="st26" d="M170.6,46.9c-1.6,0-4.7,2.7-4.7,2.7c0.5,2.3,1.3,4.5,2.2,6.6c1.1,2.6,4.8,4.9,4.8,4.9s1.2-1.7,2.4-3.3
			c0.9-1.2,3.1-3.6,3.1-3.6S172.8,46.8,170.6,46.9"/>
		<path class="st26" d="M179.8,47.4c-2.3,0-3.3,6.9-3.3,6.9s1.4,1.9,2.9,3.6c1.2,1.4,2.4,2.6,3.1,2.6c1.4,0.1,6.2-7.6,3.7-9.4
			C183.7,49.1,182.1,47.3,179.8,47.4"/>
		<path class="st2" d="M188,16.7c-2.8-5.7-12.4-7-17-4.9c-11,5-9.7,22.5-1.1,30.6c9.6,9.1,20.2-0.4,20.9-12
			C191.2,25.7,190.2,20.9,188,16.7"/>
		<path class="st2" d="M171.3,41.7l9.6,1.4l1.3,7.5c-0.4,1-1.1,1.8-1.9,2.5c-0.8,0.7-1.8,1.1-2.8,1.4c-3.7,1-7.5-4-7.5-4L171.3,41.7
			"/>
		<path class="st7" d="M173.4,45.3c1.8,0.6,3.7,0.8,5.5,0.7c0,0,0.1,0,0.1,0c0,0,0.1,0.1,0.1,0.1c0,0,0,0.1,0,0.1c0,0,0,0.1-0.1,0.1
			c-0.9,0.4-2,0.6-3,0.4c-1-0.1-2-0.6-2.8-1.2C173.1,45.4,173.3,45.3,173.4,45.3"/>
		<path class="st8" d="M173.2,30.6c0.4,0,0.7,0.2,1,0.5c0.3,0.3,0.4,0.6,0.4,1c0,0.4-0.1,0.7-0.4,1c-0.2,0.3-0.6,0.5-1,0.5
			c-0.4,0-0.7-0.2-1-0.5c-0.3-0.3-0.4-0.6-0.4-1c0-0.4,0.1-0.7,0.4-1C172.5,30.8,172.8,30.6,173.2,30.6z"/>
		<path class="st8" d="M184.6,30.6c0.4,0,0.7,0.2,1,0.5c0.3,0.3,0.4,0.6,0.4,1c0,0.4-0.1,0.7-0.4,1c-0.3,0.3-0.6,0.5-1,0.5
			c-0.4,0-0.7-0.2-1-0.5c-0.3-0.3-0.4-0.6-0.4-1c0-0.4,0.1-0.7,0.4-1C183.9,30.8,184.2,30.7,184.6,30.6"/>
		<path class="st27" d="M183.8,27.9c0.5-0.2,1-0.3,1.5-0.4c0.6,0,1.2,0.1,1.8,0.3c0.8,0.2,0.5,1.4-0.3,1.2c-0.5-0.1-1-0.1-1.5-0.2
			c-0.5-0.1-1-0.2-1.5-0.4c-0.1,0-0.1-0.1-0.1-0.1c0,0-0.1-0.1-0.1-0.2c0-0.1,0-0.1,0.1-0.2C183.7,28,183.7,28,183.8,27.9"/>
		<path class="st27" d="M170.8,28.4c0.8-0.9,2.1-0.8,3.2-0.8c0.2,0,0.3,0.1,0.4,0.2c0.1,0.1,0.2,0.3,0.2,0.4c0,0.2-0.1,0.3-0.2,0.4
			s-0.2,0.2-0.4,0.2c-1,0.2-2.1,0.2-3.1-0.1c0,0-0.1,0-0.1-0.1c0,0,0-0.1-0.1-0.1C170.8,28.6,170.8,28.5,170.8,28.4
			C170.8,28.5,170.8,28.4,170.8,28.4"/>
		<path class="st27" d="M188.3,13.2c-1.9-2.1-7.2-5.3-9.3-5c-4.7,0.6-9.8,0.6-13.2,3.7c-5.4,4.8-4.8,10.8-2.8,18.4
			c0.1,0.3,0.2,0.7,0.5,0.9c0.2,0.3,0.5,0.5,0.8,0.6c0.3,0.1,0.7,0.2,1,0.1c0.3,0,0.7-0.2,0.9-0.4c0.9-0.5,0.9-1.7,1.1-2.9
			c0.2-1.3,0.8-2.5,1.6-3.6c0.1,0.1,0.2,0.3,0.4,0.3s0.3,0.1,0.5,0.1c1.7-0.2,3.2-1.3,4.7-2.1c0.1-0.1,0.2-0.1,0.3-0.2
			c0.1,0.3,0.3,0.6,0.6,0.7c1.8,1,3.8,0.2,5.5-0.6c1.3-0.6,2.5-1.4,3.5-2.3c0.3,0,0.5,0.1,0.8,0.2c2.4,1.4,5.1,4.5,5.7,2.9
			C191.6,22.4,190.3,15.3,188.3,13.2"/>
		<path class="st2" d="M165.1,26c2.7,1.8,2.7,4.8,2.9,7.1c-0.8,3.6-7.2,2.8-7.9-2.3C159.6,27.9,162,24.2,165.1,26"/>
		<path class="st7" d="M163.7,31.8c0.2-0.6,0.7-0.4,1.2-0.3l0.1,0c0,0.2,0,0.3-0.1,0.5c-0.1,0.1-0.2,0.3-0.3,0.3
			C164.1,32.6,163.5,32.7,163.7,31.8z M164,33.4c3.4-0.3,1.5-5-0.7-5.7c0,0-0.1,0-0.1,0c0,0-0.1,0.1-0.1,0.1c0,0,0,0.1,0,0.1
			c0,0,0,0.1,0.1,0.1c0.8,0.4,1.3,1.2,1.6,2c0.1,0.3,0.2,0.7,0.3,1.1c-0.1-0.2-0.3-0.4-0.5-0.5c-0.2-0.1-0.4-0.1-0.6-0.1
			c-0.2,0-0.4,0.1-0.6,0.3c-0.2,0.1-0.3,0.3-0.3,0.6C162.7,32.2,162.9,33.5,164,33.4"/>
		<path class="st8" d="M182.9,38.1c-1.5,0.3-2.9,1.1-4.5,1.2c-0.8,0-1.6-0.2-2.3-0.7c-0.7-0.4-1.2-1-1.6-1.8c0-0.1-0.1-0.1-0.1-0.2
			c-0.1,0-0.1-0.1-0.2,0c-0.1,0-0.1,0-0.2,0.1c0,0.1-0.1,0.1-0.1,0.2c0.1,1.8,1.7,2.7,3.1,3.2c2,0.8,4.5-0.4,5.9-1.9c0,0,0,0,0-0.1
			c0,0,0-0.1,0-0.1C183.1,38.2,183,38.1,182.9,38.1C183,38.1,182.9,38.1,182.9,38.1"/>
		<path class="st8" d="M180.2,30.7c0-0.1,0-0.2,0-0.3c0-0.1-0.1-0.2-0.2-0.2c-0.1,0-0.2,0-0.3,0c-0.1,0-0.2,0.1-0.2,0.2
			c-0.2,0.3-0.3,0.7-0.3,1c0,0.4,0.1,0.7,0.3,1c0.2,0.4,0.5,0.8,0.6,1.3c0.2,0.6-0.5,1-0.9,1.4c-0.1,0.1-0.1,0.1-0.1,0.2
			c0,0.1,0,0.2,0,0.3c0,0.1,0,0.2,0.1,0.3c0,0.1,0.1,0.1,0.2,0.2h0c0.1,0.1,0.1,0.1,0.2,0.2c0.1,0,0.2,0,0.3,0h0
			c0.1,0,0.2,0,0.2-0.1c0.4-0.2,0.7-0.5,1-0.9c0.2-0.4,0.4-0.8,0.4-1.2C181.4,32.8,179.9,31.9,180.2,30.7"/>
		<path class="st21" d="M157.8,52.7c2.9,1.1,4.7,13,4.1,18.4c-0.4,4-4.8,20-4.8,20s-12.2,6.4-12.6,0.2C142.9,67,155,51.6,157.8,52.7
			"/>
		<path class="st10" d="M161.8,24.2c-0.1-0.1-0.2-0.2-0.3-0.4c-0.1-0.1-0.1-0.3-0.1-0.5c0-0.2,0.1-0.3,0.3-0.4
			C161.7,23.4,161.7,23.8,161.8,24.2"/>
		<path class="st11" d="M180.3,26.4c-0.7,0-1.4,0-2,0c-3.2,0-6.3,0-9.5-0.2l-0.6,0c0.2-0.4,0.5-0.7,0.7-1.1c0.1,0.1,0.2,0.2,0.3,0.3
			c0.1,0.1,0.3,0.1,0.5,0.1c0,0,0.1,0,0.1,0c1.5-0.3,3-0.9,4.3-1.9l0.9,0c0.1,0.1,0.2,0.2,0.4,0.3c0.6,0.3,1.2,0.5,1.9,0.5
			c0.9,0,1.8-0.3,2.7-0.7c0.4,0,0.8,0,1.2,0c0.9,0,1.9,0,2.8-0.1c1.2-0.1,2.4-0.4,3.5-0.8c0.7,0.6,1.4,1,2.1,1.5
			C187.5,26.2,183.4,26.4,180.3,26.4"/>
		<path class="st28" d="M168.2,26.1c-2.2-0.1-5-0.3-6.5-1.9c-0.1-0.4-0.1-0.8-0.1-1.2c0,0,0,0,0.1,0c0.6-0.3,1.2-0.5,1.9-0.5
			c1.4,0.2,2.7,0.4,4.1,0.7c2.2,0.3,4.3,0.4,6.5,0.4c-1.3,0.9-2.7,1.6-4.3,1.9c0,0-0.1,0-0.1,0c-0.2,0-0.3,0-0.5-0.1
			c-0.1-0.1-0.3-0.2-0.3-0.3C168.7,25.4,168.5,25.7,168.2,26.1L168.2,26.1z M177.3,24.4c-0.6,0-1.3-0.2-1.9-0.5
			c-0.1-0.1-0.3-0.2-0.4-0.3c0.5,0,1,0,1.6,0c1.1,0,2.2,0.1,3.3,0.1C179.1,24.1,178.2,24.4,177.3,24.4L177.3,24.4z M189.7,24.4
			c-0.8-0.4-1.5-0.9-2.1-1.5c0.9-0.3,1.9-0.6,2.9-0.7h0c0.1,0,0.1,0,0.2,0.1c0.1,0,0.1,0.1,0.1,0.1c0,0.1,0.1,0.1,0.1,0.2
			c0,0.1,0,0.1,0,0.2C190.6,23.4,190.2,23.9,189.7,24.4"/>
		<path class="st13" d="M190.1,17.8c0,0,4.6,3.2,0.7,5.2c-2.2,1.2-10.1,2.1-17.8,2c-6.1-0.1-10.7-1.4-11.5-2
			c-0.4-0.6-0.6-1.2-0.6-1.9c0-0.7,0.2-1.3,0.5-1.9c0.5-4,1.2-10.4,4-13.5c1.7-1.7,3.9-2.9,6.3-3.4c0.4-0.4,0.8-0.8,1.3-1
			c0.5-0.2,1.1-0.3,1.6-0.3c1.1,0,2.4-0.3,3.4,1.2c3,0.5,5.8,2.1,7.9,4.4C189.5,11.2,190.1,17.8,190.1,17.8"/>
		<path class="st14" d="M162.3,19.5c3.6,0.4,7.3,0.9,10.9,1c2.2,0.1,13.4-1.1,15.8-2.2c0.2-0.1,0.5,0.2,0.3,0.4
			c-1.5,1.1-3.3,1.2-5,1.6c-2.9,0.6-5.8,1-8.7,1.1c-3.4,0-6.8-0.3-10.1-0.9c-1.1-0.1-2.3-0.4-3.3-0.7
			C161.9,19.9,162.1,19.5,162.3,19.5"/>
		<path class="st14" d="M180.9,11.7c-0.4-2.9-1.2-5.7-2.5-8.2c0-0.1,0.1-0.2,0.1-0.1c1.7,2.1,2.8,4.6,3.3,7.2
			c0.5,2.6,0.2,5.4-0.6,7.9c-0.1,0.1-0.2,0.1-0.2-0.1C180.8,16.2,181.1,13.9,180.9,11.7"/>
		<path class="st14" d="M172.8,3.6c-0.1-0.1,0.1-0.3,0.3-0.2c3.4,3.7,4.1,11.8,2.3,16.4c0,0,0,0,0,0c0,0,0,0-0.1,0c0,0,0,0-0.1,0
			c0,0,0,0,0-0.1c-0.6-2.2,0.2-4.6,0-6.8C174.8,9.7,174,6.6,172.8,3.6"/>
		<path class="st15" d="M182.5,4.9c1.7,0.9,3.1,2.3,4,4c1.1,1.7,2.7,4.5,2,6.6c0,0.1-0.1,0.2-0.2,0.2c-0.1,0.1-0.2,0.1-0.3,0.1
			c-0.1,0-0.2,0-0.3-0.1c-0.1-0.1-0.1-0.1-0.2-0.2c-0.6-2-1.4-3.9-2.5-5.7c-1-1.5-2.4-2.7-3.1-4.4C182,5.1,182.3,4.8,182.5,4.9"/>
		<path class="st15" d="M176.1,2.5c2.1-0.3,3.1,3.6,3.5,5.1c0.8,2.9,2,7-0.1,9.6c0,0-0.1,0.1-0.1,0.1c0,0-0.1,0-0.1,0
			c0,0-0.1,0-0.1-0.1c0,0-0.1-0.1-0.1-0.1c-0.4-2.7-0.6-5.4-1-8c-0.4-2.1-1.1-4.2-2.2-6.2C175.9,2.8,175.9,2.5,176.1,2.5"/>
		<path class="st15" d="M172.2,5.9c1.5,1.5,2.6,4.9,1.9,7c0,0,0,0.1-0.1,0.1c0,0-0.1,0-0.1,0c0,0-0.1,0-0.1,0s-0.1-0.1-0.1-0.1
			c-0.3-1.1-0.6-2.2-0.7-3.3c-0.2-1.2-0.6-2.3-1.1-3.4C171.7,5.9,172,5.7,172.2,5.9"/>
		<path class="st15" d="M176,22.5c2.2-0.4,4.4-0.8,6.7-1c2.6-0.3,4.9-1.5,7.4-1.8c0.4,0,0.8,0.3,0.5,0.7c-1.3,1.8-4,2.2-6,2.6
			c-2.8,0.6-5.8,0.5-8.6-0.1c-0.1,0-0.1-0.1-0.1-0.1c0,0,0-0.1,0-0.2c0-0.1,0-0.1,0-0.2C175.9,22.5,176,22.5,176,22.5"/>
		<path class="st2" d="M169.3,88.7c0,0-4.5,0-10.2,0.3c-6,0.3-13.2,0.9-13.7,2.9c-0.8,3.8,0,8.4,1.2,9.7c4.1,4.2,10.6,0,15.2-1.7
			c3-1.1,5.8-2.7,8.3-4.6L169.3,88.7"/>
		<path class="st2" d="M181.9,89.4c-1.3-1.1-4-1.4-5.7-1.9c0.9-1.2,2.3-1.7,4.4-1.2c0.5,0.1,1-1,0.7-1.5c-1.6-2.4-4.5-2.6-6.9-2.2
			c-0.9,0.2-1.8,0.4-2.6,0.8c0.1-0.7-0.6-1.4-1.3-1c-1.3,0.9-2.4,2.1-3.1,3.4c-0.3,0.6-4.5,4.5-4.7,5c-0.7,1.8-0.9,3.8-0.5,5.7
			c0,0.4,0.2,0.7,0.4,1c0.2,0.3,0.5,0.6,0.8,0.8c0.3,0.2,0.7,0.3,1.1,0.3c0.4,0,0.7-0.1,1.1-0.2c0.7-0.2,3.2-0.4,3.9-0.8
			c2.2,0.6,4.3,1.4,6.4,2.3c1.6,1,2.9-0.9,0.2-4c-0.9-1,2.5,0.1,4-0.2c0.3-0.1,0.5-0.2,0.7-0.5c0.2-0.2,0.3-0.5,0.3-0.8
			c0-0.1,0-0.2,0-0.2c0-0.3-0.1-0.6-0.2-0.8c-0.2-0.2-0.4-0.4-0.7-0.5c-0.5-0.2-3.2-0.7-3.7-0.9c1.7-0.2,3.4-0.3,5.1-0.2
			C182.6,91.8,182.7,90.1,181.9,89.4"/>
		<path class="st7" d="M180.8,88.8c-1.3-0.8-2.6-1.3-4.1-1.6c-1.2-0.2-2.7-0.5-3.7,0.4c0,0,0,0.1,0,0.1c0,0,0,0.1,0,0.1
			c0,0,0.1,0.1,0.1,0.1c0,0,0.1,0,0.1,0C175.6,86.7,178.5,88.5,180.8,88.8L180.8,88.8"/>
		<path class="st7" d="M179.6,91.5c-2.2-0.6-4.5-0.7-6.7-0.2c-0.3,0.1-0.2,0.5,0.1,0.4c2.2-0.2,4.5,0.3,6.6-0.1c0,0,0,0,0.1,0
			c0,0,0,0,0-0.1S179.6,91.5,179.6,91.5C179.6,91.5,179.6,91.5,179.6,91.5"/>
		<path class="st7" d="M177.9,95.6c-0.8-0.4-1.6-0.6-2.5-0.8c-0.9-0.3-1.8-0.5-2.7-0.7c-0.3,0-0.3,0.4,0,0.4c1,0.2,1.9,0.5,2.8,0.9
			c0.7,0.2,1.5,0.3,2.3,0.3C178,95.7,178,95.6,177.9,95.6"/>
		<path class="st7" d="M172.4,83c-0.6,0.3-1.2,0.7-1.7,1.2c-0.5,0.5-0.8,1.1-1,1.8c0,0.1,0,0.1,0,0.2c0,0,0.1,0.1,0.1,0.1
			c0.1,0,0.1,0,0.2,0c0.1,0,0.1-0.1,0.1-0.1c0.5-1.2,1.4-2.2,2.4-3C172.5,83,172.5,82.9,172.4,83"/>
		<path class="st22" d="M186.6,53.1c-0.9,2-2.2,3.7-2.9,5.8c-1.1,3-4.5-2.4-5.7-3.5c0,0-0.1-0.1-0.1-0.1c0,0-0.1,0-0.1,0
			c0,0-0.1,0-0.1,0c0,0-0.1,0-0.1,0.1c-1.4,1.6-3.7,2.7-4.5,4.8c-2.7-2-5.4-5.2-5.9-8.8c0,0,0-0.1,0-0.1c0,0,0-0.1,0-0.1
			c0,0,0,0-0.1,0c0,0-0.1,0-0.1,0c0,0-0.1,0-0.1,0c0,0-0.1,0-0.1,0c0,0,0,0,0,0.1c0,0,0,0.1,0,0.1c0.2,2.2,0.9,4.4,2.2,6.2
			c0.7,1.2,2.3,3.3,3.9,3.3c0,0.1,0,0.2,0.1,0.2c0.1,0.1,0.1,0.1,0.2,0.1c0.1,0,0.2,0,0.2,0c0.1,0,0.1-0.1,0.2-0.2
			c0.4-0.6,4.3-5,4.6-4.7c0.9,0.8,1.7,2.2,2.5,3.2c0.9,0.8,1.9,1.3,3,1.6c0.1,0,0.1,0,0.2,0c0.1,0,0.1,0,0.2-0.1
			c0.1,0,0.1-0.1,0.1-0.1c0-0.1,0.1-0.1,0.1-0.2c0.6-2.7,2.2-5,2.6-7.7C186.8,53,186.7,53,186.6,53.1"/>
		<path class="st22" d="M162,67.5c-0.5,2-0.8,4-0.9,6c-0.2-2-0.5-4.1-0.5-6.1c0,0,0-0.1,0-0.1c0,0,0-0.1-0.1-0.1
			c0,0-0.1-0.1-0.1-0.1c0,0-0.1,0-0.1,0c0,0-0.1,0-0.1,0c0,0-0.1,0-0.1,0.1c0,0-0.1,0.1-0.1,0.1c0,0,0,0.1,0,0.1
			c-0.2,3.7,0,7.4,0.7,11.1c-0.5,3.1-1.4,6.2-1.6,9.3c0,0.1,0,0.1,0,0.1c0,0,0.1,0.1,0.1,0.1c0.1,0,0.1,0,0.2,0c0,0,0.1-0.1,0.1-0.1
			c3-6.4,1.8-13.5,3.2-20.2c0-0.1,0-0.2,0-0.3c0-0.1-0.1-0.1-0.2-0.2c-0.1,0-0.2,0-0.3,0C162.1,67.4,162,67.4,162,67.5"/>
		<path class="st2" d="M216.9,88.4c0.1-0.8,0-1.7-0.1-2.5c-0.1-0.8-0.6-2.6-1.2-1.8c-0.5,0.9-1,1.8-1.4,2.7c0.5,0.1-5.6,1-6.1,1.9
			c-0.4,0.8,0.5,2,1.4,2.2c0.4,0.1,2.1-0.2,2.4-0.2c-1.4,0.7-2.7,1.6-3.9,2.6c-0.1,0.2-0.2,0.4-0.2,0.6c0,0.2,0,0.4,0.1,0.6
			c0.1,0.2,0.2,0.4,0.3,0.5c0.2,0.1,0.3,0.3,0.5,0.3c0.4,0.1,0.9,0.1,1.4,0.1c-1,0.7-1.8,1.6-2.4,2.6c-0.1,0.2-0.2,0.4-0.2,0.6
			c0,0.2,0,0.4,0.1,0.6c0.1,0.2,0.2,0.3,0.4,0.4c0.2,0.1,0.4,0.2,0.6,0.2c0.4,0,0.8,0,1.2-0.1c-0.3,0.5-0.6,1.1-0.7,1.6
			c-0.1,0.2-0.1,0.5,0,0.7c0.1,0.2,0.2,0.4,0.4,0.6c0.2,0.1,0.4,0.2,0.6,0.3c0.2,0,0.5,0,0.7-0.1c0.6-0.3,1.1-0.7,1.6-1.2
			c1-0.8,1.8-1.7,2.4-2.8c0.4-0.5,0.6-1.2,0.7-1.8c0.1-0.2,0.2-0.5,0.3-0.7c0.3-0.7,1.1-4.1,1.1-4.2l0,0
			C217.1,90.7,217,89.5,216.9,88.4"/>
		<path class="st7" d="M215.5,87.3c-0.1-0.1-0.3-0.2-0.4-0.2c-0.2-0.1-0.3-0.1-0.4-0.3c0,0-0.1,0-0.1,0c0,0-0.1,0-0.1,0
			c0,0,0,0.1,0,0.1c0,0,0,0.1,0,0.1c0.1,0.1,0.3,0.2,0.5,0.3c0.2,0.1,0.4,0.1,0.5,0.1L215.5,87.3"/>
		<path class="st7" d="M214.9,89.4c-1.4,0.5-2.8,0.7-4.2,1.2c0,0,0,0-0.1,0c0,0,0,0,0,0.1c0,0,0,0,0,0.1c0,0,0,0,0.1,0
			c1.5,0.1,3-0.4,4.2-1.3C215,89.4,214.9,89.3,214.9,89.4"/>
		<path class="st7" d="M215.6,92.1c-1,0.8-2.1,1.5-3.2,2.1c-0.9,0.4-1.8,0.3-2.6,1.1c0,0,0,0,0,0.1c0,0,0,0,0,0.1c0,0,0,0,0,0
			c0,0,0,0,0.1,0c2.2-0.8,4.4-1,5.8-3.2c0,0,0,0,0,0C215.7,92.1,215.7,92.1,215.6,92.1C215.6,92.1,215.6,92,215.6,92.1
			C215.6,92,215.6,92,215.6,92.1"/>
		<path class="st7" d="M214.5,96.1c-0.6,0.8-1.4,1.5-2.2,2c-0.8,0.6-1.7,1.2-2.6,1.6c-0.1,0.1-0.1,0.3,0,0.3c1-0.3,2-0.8,2.8-1.4
			c0.9-0.6,1.7-1.4,2.1-2.4C214.7,96.1,214.5,96,214.5,96.1"/>
		<path class="st2" d="M132.4,84.2c0,0,2.2,17.5,1.4,22.7c-0.8,5.2-2.5,26.8-2.5,26.8s-6.3,2.5-6.8-1.9c-0.6-4.4-2.4-44-2.4-44
			L132.4,84.2"/>
		<path class="st2" d="M125.8,128.7c0,0-4.2,5.5-2.7,9.2c1.4,3.7-0.6,12.7,2.1,11.7c2.7-1,7.8-6.3,8.1-10.5c0.1-3-0.4-5.9-1.6-8.6
			L125.8,128.7"/>
		<path class="st7" d="M128.8,138.6c0,0,0-0.1-0.1-0.1s-0.1,0-0.1,0s-0.1,0-0.1,0.1c0,0-0.1,0.1-0.1,0.1c-0.2,1.4,0.1,2.8-0.8,4
			c-0.4,0.5-3.4,3.4-3.7,1.4c-0.1-1,1.1-2.3,1.5-3.1c0.6-1.1,0.7-2.4,0.4-3.6c-0.1-0.2-0.4-0.3-0.4,0c-0.4,1.1-0.3,2.4-1,3.4
			c-0.5,0.7-1,1.5-1.4,2.3c-0.1,0.3-0.2,0.6-0.2,0.9c0,0.3,0,0.6,0.2,0.9c0.1,0.3,0.3,0.5,0.5,0.7c0.2,0.2,0.5,0.3,0.8,0.4
			c0.2,0.1,0.3,0.1,0.5,0.1c-0.3,0.4-0.5,0.9-0.7,1.3c-0.3,0.5-0.5,1.2-0.4,1.8c0.1,0.3,0.4,0.1,0.4-0.1c-0.1-0.5,0.5-1.3,0.7-1.7
			c0.3-0.4,0.5-0.9,0.7-1.4c1-0.5,1.9-1.2,2.6-2C129.4,142.1,129.3,140.5,128.8,138.6"/>
		<path class="st29" d="M118.9,56.5c0,0,3.9,0.2,7.4,6.2c3.5,6,5.9,12.9,6.2,15c0.3,2.1-3.2,6.2-7.7,6.5c-4.5,0.4-9-10.1-9.8-11.9
			S114.7,51.7,118.9,56.5"/>
		<path class="st30" d="M122,82.9c2.3-0.8,4.5-1.8,6.5-3.1c2.7-2,3.5-3.7,4.4-3.7c0.9,0,1.4,2.5,2.1,3.3c0.7,0.8,0.1,4-1,5.3
			c-1.1,1.3-9.1,5.8-11.2,4.8C120.8,88.4,120.7,83.7,122,82.9"/>
		<path class="st2" d="M121.8,210.9c0,0-0.1,18,0.8,19.1c0.9,1.2,12.3,7.1,10.5,9.8c-1.8,2.7-19.4-1.5-19.4-1.5l0.1-9l-0.3-20.8
			L121.8,210.9"/>
		<path class="st3" d="M122.9,230.4c2.2,1.7,11.7,7,10.1,9.4c-1.8,2.7-19.4-1.5-19.4-1.5l0.1-7.5
			C116.8,231.3,119.9,231.1,122.9,230.4"/>
		<path class="st2" d="M86.3,211c0,0,1,17.9,0.1,19.1c-0.9,1.2-11.9,7.7-10,10.3c1.9,2.6,19.3-2.4,19.3-2.4l-0.5-9l-0.7-20.8
			L86.3,211"/>
		<path class="st3" d="M86,230.5c-2.1,1.8-11.4,7.6-9.6,9.9c1.9,2.6,19.3-2.4,19.3-2.4l-0.4-7.4C92.1,231.1,89,231.1,86,230.5"/>
		<path class="st31" d="M125.2,121.6c0,0,2.3,43.4,1.4,57.5c-0.9,14.1-1.8,49.3-3.5,50.8c-1.6,1.5-9.1,1.7-10.2,0
			c-1.1-1.7-6.1-42-6.3-50.8c-0.3-8.8-1.6-26.4-1.6-26.4s-2.8,20.6-3.9,36c-1.4,18.9-4.4,40-5.2,40.9c-1.4,1.8-7.3,1.3-9.7,1
			c-2.4-0.3-4.1-58.9-4.3-71.3c-0.1-13.3,1-35.8,1-35.8L125.2,121.6"/>
		<path class="st29" d="M103.8,50.9c0,0,16.3,1,16.9,8c0.5,5.4,3.6,48.7,3.3,51.7c-0.4,3,1.7,12.1,1.7,14.9c0.1,2.8-0.1,4.5-3.5,5.3
			c-6.1,1.2-12.3,1.6-18.6,1.3c-11.1-0.5-19.1,2.9-20.2,1.8c-3.3-3.2-2.8-12.3-2.2-17.6c0.9-8,0-14.7-0.2-24.1
			c-0.4-16.2-3.1-34.6-0.4-37.2C86.9,48.6,103.8,50.9,103.8,50.9"/>
		<path class="st32" d="M111.2,51.1c0,0,4.2,27.1,4.5,41.1c0.3,14,0.9,38.6,0.7,40.3c-0.2,1.6,6.1,1.2,9,0
			c2.9-1.2,0.8-13.8-0.1-23.2c-0.9-9.3-1.4-44.2-3.4-49.8c-1.5-3.9-4.2-5.1-6-6.9C114.6,51.4,111.2,51.1,111.2,51.1"/>
		<path class="st33" d="M125.2,107.7c-0.2-3.3-0.5-8.4-0.7-14.1c-2.8,0.9-5.8,1.4-8.8,1.5c0.1,4.4,0.2,9.4,0.3,14.3
			C119.2,109.2,122.3,108.6,125.2,107.7"/>
		<path class="st33" d="M116.1,111.4c0.1,5.4,0.2,10.5,0.3,14.3c2.7,0.1,7.8-1.3,10.4-2c-0.3-4.3-1-9.5-1.4-14
			C122.4,110.8,119.3,111.4,116.1,111.4"/>
		<path class="st34" d="M113.7,53.4c-1.4-2.3-2.8-5.5-11.6-5.3c-8.8,0.2-12.5,3-12.8,4.5c-0.3,1.5,0.9,3.7,2.6,7.3
			c1.3,2.8,5.8,6.7,5.8,6.7c1.3-0.8,2.4-1.8,3.3-3c0.6-0.7,1.6-2.5,2.4-3.4c0.7,0.8,1.6,1.9,2.6,2.8c1.4,1.5,2,2.2,2.7,2.3
			C110.4,65.4,115.7,56.5,113.7,53.4"/>
		<path class="st2" d="M95.3,51.9l2.2-11.1l10.6,1.1l0.6,10.6c0,0-1.8,5.7-5.2,5.9C98.8,58.6,94.9,51.9,95.3,51.9"/>
		<path class="st2" d="M90.2,26.1c0.6-4,2.3-7.8,4.8-11c6.5-8.3,16.4-3,19.7,5.4c0.9,2.2,1.4,4.6,1.4,7c0.3-0.1,0.7-0.2,1.1-0.2
			c0.4,0,0.7,0.1,1,0.3c0.3,0.2,0.6,0.4,0.8,0.7c0.2,0.3,0.4,0.6,0.5,1c0.1,0.9,0,1.8-0.3,2.7c-0.3,0.9-0.7,1.6-1.3,2.3
			c-0.7,0.9-3.1,1.5-3.1,1.7c-0.9,2.6-2.8,9.9-6.4,10.5c-5.2,0.8-12-2-14.1-3.2c-2.5-1.4-2.6-4.4-3.2-7c-1.2-0.3-2.4-1-3.2-2
			c-0.9-1-1.4-2.2-1.6-3.4C85.5,26.3,88.9,25.6,90.2,26.1"/>
		<path class="st7" d="M89.2,33.4c-0.5-0.2-0.3-1.9,0.4-1.9C89.8,32.3,89.9,33.7,89.2,33.4z M89.4,28.4c0-0.1-0.1-0.1-0.2-0.2
			c-0.1,0-0.2,0-0.2,0c-0.1,0-0.1,0.1-0.2,0.2c0,0.1,0,0.2,0,0.2c0.3,0.8,0.6,1.6,0.8,2.5l0,0.1c-0.7,0-1.3,1.4-1,2.2
			c0.2,0.5,1.2,1,1.5,0.4C91,32.1,89.9,30,89.4,28.4"/>
		<path class="st7" d="M116.7,32.7c-0.2,0.5-0.6,0.8-0.7,0.1c0-0.4,0-0.8,0-1.1c0,0,0,0.1,0,0.1s0,0,0.1,0
			C116.6,31.8,116.8,32.1,116.7,32.7z M116.1,31.4L116.1,31.4c0-0.6,0.2-1.3,0.6-1.8c0.1-0.1-0.1-0.4-0.2-0.2
			c-0.6,0.7-1.8,4.2-0.4,4.5C117.6,34,117.8,30.6,116.1,31.4"/>
		<path class="st8" d="M99.5,29.7c-0.4,0-0.7,0.2-0.9,0.4c-0.2,0.3-0.4,0.6-0.4,1c0,0.4,0.1,0.7,0.4,0.9c0.3,0.2,0.6,0.4,0.9,0.4
			c0.4,0,0.7-0.2,0.9-0.4c0.2-0.3,0.4-0.6,0.4-1c0-0.4-0.1-0.7-0.4-0.9C100.2,29.8,99.9,29.7,99.5,29.7"/>
		<path class="st8" d="M109.7,29.3c-0.2,0-0.4,0-0.5,0.1c-0.2,0.1-0.3,0.2-0.5,0.3c-0.1,0.1-0.2,0.3-0.3,0.5
			c-0.1,0.2-0.1,0.4-0.1,0.5c0,0.2,0,0.4,0.1,0.5c0.1,0.2,0.2,0.3,0.3,0.5c0.1,0.1,0.3,0.2,0.5,0.3c0.2,0.1,0.4,0.1,0.5,0.1
			c0.4,0,0.7-0.2,1-0.4c0.3-0.3,0.4-0.6,0.4-1c0-0.4-0.2-0.7-0.4-1C110.5,29.5,110.1,29.3,109.7,29.3"/>
		<path class="st35" d="M98.4,25.5c-0.4-0.1-0.9-0.1-1.3,0c-0.4,0.1-0.8,0.3-1.2,0.5c-0.1,0.1-0.1,0.2-0.1,0.3c0,0.1,0,0.2,0.1,0.3
			c0.1,0.1,0.1,0.1,0.2,0.2c0.1,0,0.2,0,0.3-0.1c0.4-0.2,0.8-0.2,1.2-0.2c0.3,0,0.6,0,0.9-0.1c0.1,0,0.2-0.1,0.3-0.2
			c0.1-0.1,0.1-0.2,0.1-0.3c0-0.1-0.1-0.2-0.1-0.3C98.6,25.5,98.5,25.5,98.4,25.5"/>
		<path class="st35" d="M111.2,24.9c-0.4-0.2-0.8-0.4-1.2-0.4c-0.4-0.1-0.8,0-1.2,0.1c-0.1,0-0.2,0.1-0.3,0.2
			c-0.1,0.1-0.1,0.2-0.1,0.3c0,0.1,0.1,0.2,0.1,0.3c0.1,0.1,0.2,0.1,0.3,0.2c0.3,0.1,0.6,0.1,0.9,0.2c0.4,0.1,0.7,0.2,1.1,0.1
			C111.3,25.8,111.6,25.2,111.2,24.9"/>
		<path class="st35" d="M115.6,17.3c-1.5-2.8-2.4-4.6-4.8-6.5c-3.9-3.2-11.9-3.9-15.3,0.8l-0.1,0.2c-4.7,1.7-9.2,11.1-6.3,15.8
			c0.1,0.2,0.3,0.4,0.5,0.5c0.2,0.1,0.4,0.2,0.7,0.3c0.2,0,0.5,0,0.7-0.1c0.2-0.1,0.4-0.2,0.6-0.4c1.5-2,2.8-4.2,3.8-6.5
			c0.8-1.5,1.6-2.8,2.3-4.3c0.3,1,0.9,1.8,1.7,2.4c1.2,0.9,3.6,0.6,5.5,0.4c0.8-0.2,1.7-0.3,2.5-0.2c0.9,0.9,2.1,1.4,3.3,1.5
			c1.8,0.2,1.8,6.9,4.5,7.5c0.8,0.2,1.2-2.7,1.3-3.5C116.6,22.3,116.7,19.3,115.6,17.3"/>
		<path class="st35" d="M97.2,41.6c0.3-0.5,0.7-0.9,1.2-1.3l0.3-0.2c0.4-0.1,0.7-0.3,1.1-0.5c0.8-0.5,1.7-0.9,2.6-1.4
			c0.9-0.1,1.8-0.1,2.7,0l0.1,0.1c0.5,0.5,1.5,0.4,2.1,0.4c0.5,0,1,0.2,1.5,0.4c0.3,0.3,0.6,0.6,0.9,0.9c0.2,0.2,0.5,0.3,0.7,0.5
			c0,0.2,0,0.4,0,0.5c-0.5,0.6-1.2,1-1.9,1.3c-1.1,0.5-2.9,0.3-4.1,0.6c-2.8,0.7-5.6,0.8-7.8-0.5C96.9,42.3,97,42,97.2,41.6
			L97.2,41.6z M115.4,31c-0.1-0.6-0.9-0.8-1-0.1c-0.1,0.7-0.3,1.5-0.4,2.2c-0.8,1.6-1.4,3.4-1.8,5.1l-0.1,0.2
			c-0.2-0.1-0.4-0.2-0.5-0.2c-1-0.7-2.1-1.1-3.3-1.3c-1.4,0-3.2-0.7-4.5,0.1l-0.1,0.1l0,0c-0.3-0.2-0.8-0.4-1.2-0.4
			c-0.4,0-0.8,0-1.2,0.2c-0.6,0.3-1.1,0.5-1.6,0.9c-0.5,0.1-0.9,0.3-1.3,0.5h-0.1c-0.3,0-0.7,0-1,0.2c-0.3,0.1-0.6,0.3-0.8,0.6
			c-0.8,0.3-1.6,0.4-2.5,0.4c-0.7-1.6-1.2-3.2-1.6-4.9c-0.3-1-0.5-2-0.6-3.1c0.1-0.2-0.1-0.5-0.3-0.5v0c0,0,0-0.1,0-0.1
			c0,0,0-0.1-0.1-0.1c0,0-0.1,0-0.1-0.1c0,0-0.1,0-0.1,0c0,0-0.1,0-0.1,0c0,0-0.1,0-0.1,0.1c0,0,0,0.1-0.1,0.1c0,0,0,0.1,0,0.1
			c0,0.2,0,0.5,0,0.7c-0.2,0.9-0.2,1.8,0,2.7c0,1.4,0.1,2.8,0.2,4.2c0.1,1.3-0.1,3.7,1,4.8c0.9,1,2.1,1.7,3.3,2.3
			c3.5,2.7,10.1,3.1,14,1.1c0.9,0,1.7-0.3,2.4-0.7c0.7-0.5,1.3-1.1,1.7-1.9c0.5-1.2,0.8-2.6,0.9-3.9c0.9-2,1.2-4.1,1-6.3
			C115.5,32.9,115.5,32,115.4,31"/>
		<path class="st8" d="M105.8,29.4c0.1-0.3-0.3-0.4-0.5-0.2c-0.3,0.4-0.4,1-0.4,1.5c0,0.5,0.2,1,0.5,1.4c0.4,0.7,0.7,1.5,0.8,2.3
			c0.1,1.2-1.5,1.3-2.3,1.7c-0.1,0-0.1,0.1-0.2,0.1s0,0.1,0,0.2c0.6,1.5,3,0,3.4-1C107.9,33.2,105.1,31.5,105.8,29.4"/>
		<path class="st8" d="M107.3,39.6c-0.8,0.1-1.6,0.4-2.4,0.8c-1.1,0.4-2.4-0.6-3.6-0.6c-0.1,0-0.2,0-0.2,0.1c-0.1,0-0.1,0.1-0.1,0.2
			c0,0.1,0,0.2,0,0.2c0,0.1,0.1,0.1,0.1,0.2c0.9,0.8,2.1,1.3,3.4,1.4c1.3,0,2.1-1,3-1.8c0,0,0-0.1,0.1-0.1c0,0,0-0.1,0-0.1
			c0,0,0-0.1-0.1-0.1C107.4,39.6,107.3,39.6,107.3,39.6"/>
		<path class="st11" d="M97.2,27.1c-0.5,0-1,0-1.5,0c-1,0-2.3,0-3.4-0.1c0.6-0.9,1.1-1.8,1.6-2.7c0.2,0,0.4,0,0.5,0.1
			c1.3,0.1,2.5,0.1,3.8,0.1c1.7,0,3.4-0.1,5.1-0.1c2.4,0,4.8-0.1,7.2-0.3c0.6-0.1,1.3-0.2,1.9-0.4c0.2,0.7,0.5,1.5,0.7,2.3
			c-2.6,0.6-5.3,1-8,0.9C102.4,26.9,99.8,27,97.2,27.1L97.2,27.1z M97.9,25.4c-0.7,0-1.3,0.2-1.9,0.6c-0.1,0-0.1,0.1-0.1,0.2
			c0,0.1,0,0.2,0,0.2c0,0.1,0.1,0.2,0.1,0.2c0.1,0,0.2,0.1,0.2,0.1c0.1,0,0.2,0,0.2-0.1c0.3-0.2,0.7-0.2,1.1-0.2h0.1
			c0.3,0,0.5,0,0.8-0.1c0.1,0,0.2-0.1,0.3-0.2c0.1-0.1,0.1-0.2,0.1-0.3c0-0.1-0.1-0.2-0.1-0.3c-0.1-0.1-0.2-0.1-0.3-0.1
			C98.2,25.4,98.1,25.4,97.9,25.4L97.9,25.4z M109.6,24.5c-0.3,0-0.6,0-0.9,0.1c-0.1,0-0.2,0.1-0.3,0.2c-0.1,0.1-0.1,0.2-0.1,0.3
			c0,0.1,0.1,0.2,0.1,0.3c0.1,0.1,0.2,0.1,0.3,0.2c0.3,0.1,0.6,0.1,0.9,0.2c0.3,0.1,0.6,0.1,0.9,0.1c0.1,0,0.2,0,0.2,0
			c0.4-0.1,0.7-0.6,0.3-0.9C110.7,24.6,110.2,24.4,109.6,24.5"/>
		<path class="st10" d="M88.2,25.1c0-0.1-0.1-0.1-0.1-0.2c0-0.1,0-0.1,0-0.2C88.2,24.9,88.2,25,88.2,25.1z M116.5,23.8
			c0-0.5,0-1,0-1.5l0.1,0h0c0.1,0,0.1,0,0.2,0.1c0.1,0,0.1,0.1,0.1,0.1c0,0.1,0.1,0.1,0.1,0.2c0,0.1,0,0.1,0,0.2
			C116.9,23.2,116.7,23.5,116.5,23.8"/>
		<path class="st36" d="M96.2,26.7c-0.1,0-0.2,0-0.2-0.1c-0.1,0-0.1-0.1-0.1-0.2c0-0.1,0-0.2,0-0.2c0-0.1,0.1-0.2,0.1-0.2
			c0.5-0.4,1.2-0.6,1.9-0.6c0.2,0,0.4,0,0.6,0.1c0.1,0,0.2,0.1,0.3,0.1c0.1,0.1,0.1,0.2,0.1,0.3c0,0.1,0,0.2-0.1,0.3
			c-0.1,0.1-0.1,0.2-0.3,0.2c-0.3,0.1-0.5,0.1-0.8,0.1h-0.1c-0.4,0-0.8,0-1.1,0.2C96.4,26.7,96.3,26.7,96.2,26.7"/>
		<path class="st36" d="M110.6,25.9c-0.3,0-0.6-0.1-0.9-0.1c-0.3-0.1-0.6-0.1-0.9-0.2c-0.1,0-0.2-0.1-0.3-0.2
			c-0.1-0.1-0.1-0.2-0.1-0.3c0-0.1,0-0.2,0.1-0.3c0.1-0.1,0.1-0.2,0.3-0.2c0.3-0.1,0.6-0.1,0.9-0.1c0.6,0,1.1,0.2,1.6,0.5
			c0.4,0.3,0.1,0.8-0.3,0.9C110.8,25.9,110.7,25.9,110.6,25.9"/>
		<path class="st36" d="M92.2,26.9c-1.5,0-2.9-0.6-3.9-1.7c0,0,0,0,0,0c0-0.1,0-0.3-0.1-0.4c0-0.2,0.1-0.3,0.3-0.4
			c0.6-0.4,1.4-0.6,2.1-0.6c1.1,0.1,2.2,0.2,3.3,0.4C93.4,25.1,92.8,26,92.2,26.9L92.2,26.9z M113,25.9c-0.3-0.7-0.5-1.5-0.7-2.3
			c1.4-0.5,2.8-1,4.2-1.3c0,0.5,0,1,0,1.5C115.6,24.8,114.4,25.5,113,25.9"/>
		<path class="st13" d="M116.1,18.1c0,0,4.6,2.8,0.9,4.9c-2.1,1.2-9.8,2.5-17.4,2.7c-6,0.2-10.5-0.8-11.3-1.4
			c-0.4-0.5-0.6-1.1-0.7-1.7c0-0.6,0.1-1.3,0.4-1.8c0.4-3.8,0.8-9.9,3.4-13c1.6-1.7,3.7-3,6-3.5c0.3-0.4,0.8-0.8,1.3-1
			c0.5-0.2,1-0.3,1.6-0.3c1-0.1,2.3-0.4,3.4,1c3,0.3,5.8,1.7,7.9,3.8C115.3,11.9,116.1,18.1,116.1,18.1"/>
		<path class="st14" d="M88.9,21.1c3.5,0.2,7.2,0.5,10.8,0.5c2.1,0,13.1-1.7,15.4-2.8c0.2-0.1,0.5,0.2,0.3,0.4
			c-1.5,0.9-3.1,1.5-4.9,1.8c-2.8,0.7-5.6,1.2-8.5,1.5c-3.3,0.2-6.7,0.1-10-0.3c-1.1-0.1-2.2-0.2-3.3-0.5
			C88.6,21.4,88.7,21.1,88.9,21.1"/>
		<path class="st14" d="M106.9,12.8c-0.5-2.7-1.4-5.3-2.8-7.7c0-0.1,0.1-0.2,0.1-0.1c1.7,1.9,3,4.2,3.5,6.6c0.6,2.5,0.5,5.1-0.3,7.5
			c0,0.1-0.2,0.1-0.2,0C107,17,107.1,14.9,106.9,12.8"/>
		<path class="st14" d="M98.5,5.5C98.5,5.5,98.5,5.5,98.5,5.5c0-0.1,0-0.2,0.1-0.2c0,0,0.1,0,0.1,0s0.1,0,0.1,0
			c3.5,3.4,4.5,10.9,2.9,15.4c0,0,0,0,0,0c0,0,0,0-0.1,0c0,0,0,0-0.1,0c0,0,0,0,0-0.1c-0.6-2,0-4.3-0.3-6.4
			C100.8,11.2,99.9,8.3,98.5,5.5"/>
		<path class="st15" d="M108.2,6.3c1.7,0.8,3.1,2,4.1,3.6c1.2,1.5,2.8,4.1,2.2,6.1c0,0.1-0.1,0.2-0.1,0.2c-0.1,0.1-0.2,0.1-0.3,0.1
			c-0.1,0-0.2,0-0.3-0.1c-0.1-0.1-0.1-0.1-0.2-0.2c-0.6-1.9-1.6-3.7-2.7-5.3c-1-1.4-2.5-2.4-3.2-4c0-0.1,0-0.1,0-0.2
			c0-0.1,0-0.1,0.1-0.2c0,0,0.1-0.1,0.2-0.1C108.1,6.3,108.1,6.3,108.2,6.3"/>
		<path class="st15" d="M101.8,4.3c2-0.4,3.2,3.3,3.6,4.7c0.9,2.7,2.3,6.6,0.3,9.1c0,0-0.1,0.1-0.1,0.1c0,0-0.1,0-0.1,0
			c0,0-0.1,0-0.1-0.1s-0.1-0.1-0.1-0.1c-0.5-2.5-0.8-5-1.3-7.5c-0.5-2-1.3-3.9-2.4-5.7c0,0,0-0.1,0-0.1c0,0,0-0.1,0-0.1
			c0,0,0-0.1,0.1-0.1C101.7,4.4,101.8,4.3,101.8,4.3"/>
		<path class="st15" d="M98.1,7.7c1.6,1.4,2.8,4.5,2.1,6.5c0,0,0,0.1-0.1,0.1c0,0-0.1,0-0.1,0c0,0-0.1,0-0.1,0c0,0-0.1-0.1-0.1-0.1
			c-0.4-1-0.6-2-0.8-3.1C98.6,10.1,98.2,9,97.7,8c0,0,0-0.1,0-0.2c0-0.1,0-0.1,0.1-0.1s0.1-0.1,0.1-0.1C98,7.7,98,7.7,98.1,7.7"/>
		<path class="st15" d="M102.5,23.2c2.1-0.5,4.3-0.9,6.5-1.2c2.5-0.4,4.8-1.6,7.2-2c0.4-0.1,0.8,0.3,0.6,0.7
			c-1.2,1.8-3.8,2.3-5.8,2.7c-2.8,0.7-5.6,0.8-8.4,0.3c-0.1,0-0.1,0-0.1-0.1c0,0-0.1-0.1-0.1-0.1c0-0.1,0-0.1,0-0.2
			C102.4,23.3,102.5,23.2,102.5,23.2"/>
		<path class="st37" d="M52.9,157.8c0,0,2.4,15.6,3.2,17.9c0.8,2.3,24.5,9,27.2,8.7c2.7-0.3,13.6-5.9,14.8-7
			c1.2-1,0.8-18.8,0.8-18.8L52.9,157.8"/>
		<path class="st38" d="M61.1,148.2c0,0,37.4,3.1,38.4,5.3c0.5,1.3,1.1,6.1-0.6,7.4c-1.7,1.3-11.9,4.4-15.1,4.7
			c-3.2,0.3-29-4-31.1-6c-1.3-1.2-2.4-6-1.2-7.1C53.5,150.8,59.4,148.2,61.1,148.2"/>
		<path class="st39" d="M83.4,167.9c0-0.1,0-0.2-0.1-0.2c-0.1-0.1-0.1-0.1-0.2-0.1c-0.1,0-0.2,0-0.2,0.1c-0.1,0.1-0.1,0.1-0.1,0.2
			c-0.1,3,0.5,5.9,0.4,8.9c0,1.5-0.3,4.1,1,5.2c0,0,0.1,0.1,0.1,0.1c0.1,0,0.1,0,0.2,0c0,0,0.1-0.1,0.1-0.1c0,0,0-0.1,0-0.2
			C84.8,177.2,83.9,172.4,83.4,167.9"/>
		<path class="st40" d="M82,161.4c-4-2.4-9.9-2.7-14.3-3.8c-2.8-0.7-5.7-1.4-8.5-2.1c-2.3-0.6-3.8-1.8-6.2-1.9
			c-0.3,0-0.3,0.4-0.1,0.5c4.7,1.8,9.5,3.3,14.5,4.5c4.5,1.1,9.9,3.3,14.5,3.1c0,0,0.1,0,0.1,0c0,0,0.1-0.1,0.1-0.1
			C82.1,161.6,82.1,161.5,82,161.4C82.1,161.5,82.1,161.4,82,161.4"/>
		<path class="st40" d="M98,156.3c-1.9,0.4-3.7,0.9-5.6,1.5c-2.2,1.1-4.5,1.9-6.9,2.6c-0.4,0.1-0.3,0.8,0.1,0.8
			c2.5-0.4,4.8-1.2,7.1-2.4c1.7-0.7,4.1-0.9,5.4-2.3c0,0,0,0,0-0.1C98.2,156.3,98.1,156.3,98,156.3C98.1,156.3,98.1,156.3,98,156.3
			C98.1,156.3,98.1,156.3,98,156.3"/>
		<path class="st40" d="M83.2,163.4c0-0.7-0.2-1.4-0.7-1.9c-0.2-0.2-0.5,0-0.4,0.3c0.1,0.6,0.1,1.2,0,1.8c0,0.5,0,1.1,0.4,1.4
			c0,0,0.1,0,0.1,0c0,0,0.1,0,0.1,0C83.3,164.6,83.2,163.9,83.2,163.4"/>
		<path class="st41" d="M69.5,139c0,0-0.5,0-1.1-0.1c-1.4-0.3-2.8-0.2-4.1,0.3c-1,0.5-1.8,1.2-2.4,2.2c-0.5,1-0.8,2.1-0.7,3.1
			c0,4,0.2,6.3,0.2,6.3c0.3,0.4,0.7,0.8,1.1,1c0.5,0.2,1,0.3,1.5,0.3c1.8,0,1.9-1.3,1.9-1.3s-0.5-5.1,0-6s0.9-1.7,3-1.6
			C71.1,143.5,69.5,139,69.5,139"/>
		<path class="st2" d="M77.5,127.4c0,0,5,7.3,4.2,9.7c-0.8,2.4-1.7,2.9-1.7,2.9s0.5,3.5,1.7,3.5c1.1,0,2.8,2.3-0.8,3.8
			c-3.6,1.5-5.4,0.6-7.9,0.2c-2.5-0.4-4.3-0.6-4.8-2.2c-0.5-1.6,0.4-11.5,1-14.1C69.7,128.4,77.5,127.4,77.5,127.4"/>
		<path class="st7" d="M78.8,134c0.7,1.7,1.1,3.5,1.2,5.4c0,0.3-0.6,0.5-0.6,0.1c-0.4-1.8-0.7-3.6-0.9-5.5c0,0,0-0.1,0-0.1
			c0,0,0.1,0,0.1-0.1C78.6,133.9,78.7,133.9,78.8,134C78.7,134,78.8,134,78.8,134"/>
		<path class="st7" d="M75.7,140.2c0.2,1.4,0.6,2.7,1.1,4c0.3,0.8,0.8,1.6,1.4,2.2c0.5,0.6,1.4,0.8,1.9,1.4c0,0,0,0,0,0.1
			c0,0,0,0.1,0,0.1c0,0,0,0.1,0,0.1c0,0,0,0-0.1,0.1c-1.4,0.6-2.9-1.4-3.5-2.5c-0.8-1.6-1.3-3.4-1.3-5.3
			C75.1,139.9,75.6,139.8,75.7,140.2"/>
		<path class="st7" d="M72.2,140.1C72.2,140.1,72.2,140,72.2,140.1c0-0.1,0-0.2,0.1-0.2c0,0,0,0,0.1-0.1c0,0,0.1,0,0.1,0
			c0,0,0.1,0,0.1,0c0,0,0.1,0,0.1,0.1c0,0,0,0.1,0.1,0.1c0,0,0,0.1,0,0.1c0.2,1.2,0.3,2.4,0.5,3.5c0.1,0.7,0.4,1.3,0.8,1.9
			c0.3,0.5,0.8,0.7,1.1,1.2c0,0,0,0.1,0,0.1c0,0,0,0.1,0,0.1c0,0,0,0.1-0.1,0.1c0,0-0.1,0-0.1,0c-1.2,0.2-1.9-1.2-2.3-2.2
			C72.1,143.3,72,141.7,72.2,140.1"/>
		<path class="st7" d="M69.6,140.6C69.6,140.5,69.6,140.5,69.6,140.6c0.1-0.1,0.1-0.1,0.2-0.1c0,0,0.1,0,0.1,0.1c0,0,0,0.1,0,0.1
			c0.1,1,0.2,1.9,0.4,2.8c0.1,0.8,0.3,2.3,1,2.8c0.2,0.1,0.1,0.5-0.1,0.4c-1,0-1.3-1.4-1.6-2.2C69.3,143.2,69.3,141.9,69.6,140.6"/>
		<path class="st41" d="M86.7,139.5c-3.5-0.8-5.6-1.2-6.5-0.9c-0.9,0.3-1.1,1.5-1,2.6c0.2,2.8,2.7,2.4,3.6,2.8
			c0.9,0.5,1.5,1.4,1.6,3.5c0.2,3.7,0.3,6.6,0.3,6.6s0.3,1.2,2.6,1.1c2.3-0.1,2.1-1.3,2.1-1.3c0.3-2.3,0.4-4.6,0.3-6.9
			C89.3,143.9,89.3,140.1,86.7,139.5"/>
		<path class="st32" d="M79.1,56.2c2.1,1.6,3.7,3.6,4.7,6c1,2.4,1.4,5,1.1,7.6c-1.1,8.9-4.5,14.8-4.4,18.1
			c0.2,4.9-1.7,32.1-0.4,38.9c0.5,3.3,1.4,6.5,2.7,9.5c0,0,11.5-1,14.2-2.5c2.7-1.5,1.6-37.8,0.4-49c-1.2-11.2-2.6-30.3-8-33.8
			C87.9,50.2,82.6,51.6,79.1,56.2"/>
		<path class="st33" d="M98.7,110.9c-0.1-4.5-0.2-9.1-0.4-13.2c-4.9,1.5-14.1,1.5-18.1,1.4c-0.2,4-0.3,8.5-0.4,12.8
			C85.1,112.9,94.5,111.6,98.7,110.9"/>
		<path class="st33" d="M79.7,115.2c-0.2,3.9,0,7.8,0.4,11.6c0.1,0.5,0.2,0.9,0.3,1.3c5.2,0.8,13.7-0.3,18-1
			c0.2-3.6,0.3-8.3,0.3-13.4C93.6,115.5,83.2,115.3,79.7,115.2z"/>
		<path class="st29" d="M83.3,54.9c3,2.5,2.9,13.9,2.3,18.7c-0.5,3.8-2.4,8.5-4.9,13.7c-3.2,6.6-14.1-1.6-14.3-7.5
			C66.3,73.9,77.2,50,83.3,54.9"/>
		<path class="st34" d="M77.4,81.3c-2.2-2-11.3-4.9-12.3-2.3c-0.5,1.6-0.8,3.3-0.8,4.9c0.8,6.3,4,3.8,7.1,4.5
			c2.7,0.6,5.3,1.3,6.7,1.7c1.3,0.4,2.6-1,3.2-3.1C81.9,84.8,79.5,83.2,77.4,81.3"/>
		<path class="st2" d="M67.6,84.3c-2.5,0.5-3.3,11.3-2.6,21.1c0.8,8.8,2.2,17.5,4.2,26.1c1,4,10,0.4,9-1.9
			c-1.4-3.2-1.6-7.6-2.1-11.7c-0.4-6.9-0.3-13.8,0.5-20.7c0.6-3.2,1-6.4,1.2-9.6C77.8,86.3,70.1,83.7,67.6,84.3"/>
	</g>
</g>
</svg>
